<svg width="449" height="257" viewBox="0 0 449 257" fill="none" xmlns="http://www.w3.org/2000/svg">
<path opacity="0.8" d="M306.391 15.4001H301.668V20.1273H306.391V15.4001Z" fill="#339DFE"/>
<path d="M316.425 15.4001H311.702V20.1273H316.425V15.4001Z" fill="#339DFE"/>
<path opacity="0.4" d="M326.483 15.4001H321.76V20.1273H326.483V15.4001Z" fill="#339DFE"/>
<path d="M368.428 15.4001H363.705V20.1273H368.428V15.4001Z" fill="#339DFE"/>
<path opacity="0.8" d="M336.517 49.0555H331.794V53.7827H336.517V49.0555Z" fill="#339DFE"/>
<path d="M331.775 74.8295H336.498V70.1022H331.775V74.8295Z" fill="#339DFE"/>
<path opacity="0.4" d="M331.775 84.3827H336.498V79.6554H331.775V84.3827Z" fill="#339DFE"/>
<path d="M331.775 93.9595H336.498V89.2322H331.775V93.9595Z" fill="#339DFE"/>
<path opacity="0.8" d="M354.752 80.8896H359.475V76.1624H354.752V80.8896Z" fill="#339DFE"/>
<path d="M362.75 73.6077H367.474V68.8805H362.75V73.6077Z" fill="#339DFE"/>
<path opacity="0.4" d="M378.486 15.4001H373.763V20.1273H378.486V15.4001Z" fill="#339DFE"/>
<g opacity="0.8">
<path opacity="0.4" d="M137.504 73.1099H141.9V68.7103H137.504V73.1099Z" fill="#369DFC"/>
<path opacity="0.8" d="M128.158 73.1099H132.553V68.7103H128.158V73.1099Z" fill="#369DFC"/>
<path opacity="0.8" d="M96.2437 26.7717H100.64V22.3721H96.2437V26.7717Z" fill="#369DFC"/>
<path opacity="0.8" d="M96.2437 17.6996H100.64V13.3H96.2437V17.6996Z" fill="#369DFC"/>
<path opacity="0.8" d="M98.4466 73.1099H102.843V68.7103H98.4466V73.1099Z" fill="#369DFC"/>
<path opacity="0.8" d="M128.158 41.7954H132.553V37.3958H128.158V41.7954Z" fill="#369DFC"/>
<path opacity="0.4" d="M132.574 8.90891H128.178V13.3085H132.574V8.90891Z" fill="#369DFC"/>
<path opacity="0.8" d="M132.574 0.000244141H128.178V4.39985H132.574V0.000244141Z" fill="#369DFC"/>
</g>
<path d="M415.32 77.4245H414.633V90.8231H415.32V77.4245Z" fill="#03A7D3"/>
<path d="M415.32 93.9095H414.633V97.7419H415.32V93.9095Z" fill="#172F78"/>
<path d="M415.32 100.945H414.633V104.778H415.32V100.945Z" fill="#172F78"/>
<path d="M375.901 130.551H375.214V143.95H375.901V130.551Z" fill="#172F78"/>
<path d="M375.901 147.022H375.214V150.854H375.901V147.022Z" fill="#03A7D3"/>
<path d="M375.901 154.057H375.214V157.89H375.901V154.057Z" fill="#03A7D3"/>
<path d="M375.901 161.093H375.214V171.961H375.901V161.093Z" fill="#03A7D3"/>
<path d="M37.8492 150.65H37.1623V154.951H37.8492V150.65Z" fill="#172F78"/>
<path d="M37.8492 116.54H37.1623V130.128H37.8492V116.54Z" fill="#172F78"/>
<path d="M89.079 150.442H88.3921V154.742H89.079V150.442Z" fill="#172F78"/>
<path d="M89.079 133.898H88.3921V147.297H89.079V133.898Z" fill="#03A7D3"/>
<path d="M89.079 116.331H88.3921V129.92H89.079V116.331Z" fill="#172F78"/>
<path d="M89.079 96.1455H88.3921V109.734H89.079V96.1455Z" fill="#172F78"/>
<path opacity="0.4" d="M288.644 54.5785C288.644 55.6024 287.811 56.4508 286.773 56.4508C285.736 56.4508 284.903 55.6171 284.903 54.5785C284.903 53.5546 285.736 52.7062 286.773 52.7062C287.811 52.7062 288.644 53.5546 288.644 54.5785Z" fill="#172F78"/>
<path opacity="0.4" d="M266.757 54.6208C266.757 58.7019 263.454 62.0222 259.362 62.0222C255.284 62.0222 251.966 58.7165 251.966 54.6208C251.966 50.5398 255.269 47.2194 259.362 47.2194C263.454 47.2194 266.757 50.5398 266.757 54.6208Z" fill="#172F78"/>
<path opacity="0.4" d="M134.99 227.402C134.99 231.483 131.687 234.803 127.595 234.803C123.517 234.803 120.2 231.497 120.2 227.402C120.2 223.321 123.503 220 127.595 220C131.687 220 134.99 223.321 134.99 227.402Z" fill="#172F78"/>
<path opacity="0.4" d="M127.99 107.402C127.99 111.483 124.687 114.803 120.595 114.803C116.517 114.803 113.2 111.497 113.2 107.402C113.2 103.321 116.503 100 120.595 100C124.687 100 127.99 103.321 127.99 107.402Z" fill="#172F78"/>
<path opacity="0.4" d="M408.99 127.402C408.99 131.483 405.687 134.803 401.595 134.803C397.517 134.803 394.2 131.497 394.2 127.402C394.2 123.321 397.503 120 401.595 120C405.687 120 408.99 123.321 408.99 127.402Z" fill="#172F78"/>
<path opacity="0.8" d="M91.8454 87.0209C91.8454 88.7176 90.4716 90.0926 88.7763 90.0926C87.0809 90.0926 85.7072 88.7176 85.7072 87.0209C85.7072 85.3241 87.0809 83.9492 88.7763 83.9492C90.4716 83.9492 91.8454 85.3241 91.8454 87.0209Z" fill="#172F78"/>
<path opacity="0.4" d="M37.5903 111.739C39.6728 111.739 41.361 110.049 41.361 107.965C41.361 105.881 39.6728 104.191 37.5903 104.191C35.5079 104.191 33.8197 105.881 33.8197 107.965C33.8197 110.049 35.5079 111.739 37.5903 111.739Z" fill="#03A7D3"/>
<path opacity="0.8" d="M37.5903 109.823C38.6154 109.823 39.4464 108.991 39.4464 107.965C39.4464 106.939 38.6154 106.107 37.5903 106.107C36.5652 106.107 35.7342 106.939 35.7342 107.965C35.7342 108.991 36.5652 109.823 37.5903 109.823Z" fill="#03A7D3"/>
<path d="M224.67 256.6C219.539 256.6 214.385 255.477 210.469 253.209L115.044 198.233C111.083 195.943 108.9 192.866 108.9 189.542C108.9 186.218 111.083 183.142 115.044 180.851L209.951 125.786C217.783 121.272 230.521 121.272 238.331 125.786L333.756 180.761C337.717 183.052 339.9 186.129 339.9 189.452C339.9 192.776 337.717 195.853 333.756 198.143L238.849 253.209C234.933 255.477 229.801 256.6 224.67 256.6ZM224.152 124.169C219.336 124.169 214.52 125.224 210.851 127.335L115.944 182.401C112.546 184.355 110.7 186.892 110.7 189.565C110.7 192.237 112.568 194.775 115.944 196.706L211.369 251.682C218.706 255.904 230.634 255.904 237.971 251.682L332.878 196.616C336.276 194.662 338.122 192.125 338.122 189.452C338.122 186.78 336.254 184.242 332.878 182.288L237.453 127.313C233.785 125.224 228.969 124.169 224.152 124.169Z" fill="#369DFC"/>
<path d="M339.164 170.981L339.141 125.222L281.366 132.942L238.118 107.935C230.539 103.546 218.238 103.546 210.636 107.935L203.889 112.212L110.086 124.726V171.026C110.086 171.049 110.086 171.071 110.086 171.094V171.319H110.131C110.243 174.11 112.087 176.879 115.776 179.017L211.131 234.118C218.71 238.507 231.012 238.507 238.613 234.118L333.451 178.927C337.117 176.811 338.984 174.043 339.096 171.274H339.141V170.981H339.164Z" fill="url(#paint0_linear)"/>
<path d="M333.468 116.961L238.113 61.86C230.534 57.4708 218.232 57.4708 210.631 61.86L115.792 117.051C108.213 121.44 108.213 128.553 115.792 132.919L211.148 188.02C218.727 192.41 231.029 192.41 238.63 188.02L333.468 132.829C341.047 128.44 341.047 121.328 333.468 116.961Z" fill="url(#paint1_radial)"/>
<path d="M333.474 130.061L238.636 185.252C231.057 189.641 218.755 189.641 211.154 185.252L115.798 130.151C112.627 128.305 110.783 125.987 110.266 123.601C109.546 126.91 111.39 130.376 115.798 132.92L211.154 188.02C218.733 192.41 231.034 192.41 238.636 188.02L333.474 132.829C337.882 130.286 339.704 126.82 339.006 123.511C338.489 125.897 336.645 128.215 333.474 130.061Z" fill="white"/>
<path d="M255.266 198.156L251 200.632V195.679L255.266 193.224V198.156Z" fill="white"/>
<path d="M264.225 192.989L259.959 195.466V190.513L264.225 188.037V192.989Z" fill="white"/>
<path d="M273.183 187.802L268.896 190.278V185.347L273.183 182.87V187.802Z" fill="white"/>
<path d="M264.669 203.26L260.381 205.737V200.784L264.669 198.329V203.26Z" fill="white"/>
<path d="M273.267 198.308L268.979 200.785V195.832L273.267 193.355V198.308Z" fill="white"/>
<path d="M301.915 171.214L297.628 173.691V168.738L301.915 166.261V171.214Z" fill="white"/>
<path d="M326 156.953L321.712 159.429V154.477L326 152V156.953Z" fill="white"/>
<path d="M282.142 182.636L277.855 185.112V180.159L282.142 177.683V182.636Z" fill="white"/>
<path d="M219.702 165.069L155.754 127.599C153.152 126.075 153.489 123.413 156.471 121.661L218.963 85.0565C221.967 83.3047 226.496 83.1 229.097 84.6243L293.046 122.094C295.647 123.618 295.311 126.28 292.329 128.031L229.837 164.636C226.855 166.411 222.303 166.593 219.702 165.069Z" stroke="#06033E" stroke-opacity="0.4" stroke-width="2"/>
<path d="M194.619 204.333L141.981 174.092C140.729 173.38 139.7 171.444 139.7 169.775V165.881C139.7 164.212 140.729 163.455 141.981 164.168L194.619 194.408C195.871 195.12 196.9 197.056 196.9 198.725V202.619C196.9 204.288 195.871 205.045 194.619 204.333Z" fill="white"/>
<path d="M398.671 216.32C396.377 216.32 394.083 215.802 392.306 214.767L351.241 191.043C349.374 189.962 348.339 188.477 348.339 186.856C348.339 185.235 349.374 183.75 351.241 182.669L392.104 158.9C395.68 156.83 401.257 156.83 404.833 158.9L445.899 182.624C447.765 183.705 448.8 185.19 448.8 186.811C448.8 188.432 447.765 189.917 445.899 190.998L405.035 214.767C403.259 215.802 400.965 216.32 398.671 216.32ZM398.469 159.125C396.489 159.125 394.51 159.553 393.004 160.431L352.14 184.2C350.836 184.943 350.139 185.888 350.139 186.856C350.139 187.824 350.858 188.769 352.14 189.512L393.206 213.236C396.22 214.969 401.145 214.992 404.158 213.236L445.022 189.467C446.326 188.724 447.023 187.779 447.023 186.811C447.023 185.843 446.304 184.92 445.022 184.155L403.956 160.431C402.427 159.553 400.448 159.125 398.469 159.125Z" fill="#3E86C9"/>
<path d="M50.3314 216.32C48.0375 216.32 45.7435 215.802 43.9669 214.767L2.90108 191.043C1.03445 189.962 -6.10352e-05 188.477 -6.10352e-05 186.856C-6.10352e-05 185.235 1.03445 183.75 2.90108 182.669L43.7645 158.9C47.3403 156.83 52.9177 156.83 56.4935 158.9L97.5593 182.624C99.4259 183.705 100.46 185.19 100.46 186.811C100.46 188.432 99.4259 189.917 97.5593 190.998L56.6959 214.767C54.9192 215.802 52.6253 216.32 50.3314 216.32ZM50.1065 159.126C48.1274 159.126 46.1483 159.553 44.6416 160.431L3.77817 184.2C2.47378 184.943 1.77661 185.888 1.77661 186.856C1.77661 187.824 2.49627 188.769 3.77817 189.512L44.844 213.236C47.8576 214.992 52.7827 214.992 55.7963 213.236L96.6597 189.467C97.9641 188.724 98.6613 187.779 98.6613 186.811C98.6613 185.843 97.9416 184.92 96.6597 184.155L55.5939 160.431C54.0871 159.553 52.0856 159.126 50.1065 159.126Z" fill="#3E86C9"/>
<g opacity="0.5">
<path opacity="0.5" d="M398.671 203.095C396.377 203.095 394.083 202.578 392.306 201.542L351.241 177.818C349.374 176.738 348.339 175.252 348.339 173.632C348.339 172.011 349.374 170.526 351.241 169.445L392.104 145.676C395.68 143.605 401.257 143.628 404.833 145.676L445.899 169.4C447.765 170.481 448.8 171.966 448.8 173.587C448.8 175.207 447.765 176.693 445.899 177.773L405.035 201.542C403.259 202.578 400.965 203.095 398.671 203.095ZM398.469 145.879C396.489 145.879 394.51 146.306 393.004 147.184L352.14 170.953C350.836 171.696 350.139 172.641 350.139 173.609C350.139 174.577 350.858 175.5 352.14 176.265L393.206 199.989C396.22 201.745 401.145 201.745 404.158 199.989L445.022 176.22C446.326 175.477 447.023 174.532 447.023 173.564C447.023 172.596 446.304 171.651 445.022 170.908L403.956 147.184C402.427 146.329 400.448 145.879 398.469 145.879Z" fill="#74B4FF"/>
<path opacity="0.5" d="M50.3314 203.095C48.0375 203.095 45.7435 202.578 43.9669 201.542L2.90108 177.818C1.03445 176.738 -6.10352e-05 175.252 -6.10352e-05 173.632C-6.10352e-05 172.011 1.03445 170.526 2.90108 169.445L43.7645 145.676C47.3403 143.605 52.9177 143.628 56.4935 145.676L97.5593 169.4C99.4259 170.481 100.46 171.966 100.46 173.587C100.46 175.207 99.4259 176.693 97.5593 177.773L56.6959 201.542C54.9192 202.578 52.6253 203.095 50.3314 203.095ZM50.1065 145.879C48.1274 145.879 46.1483 146.306 44.6416 147.184L3.77817 170.976C2.47378 171.719 1.77661 172.664 1.77661 173.632C1.77661 174.6 2.49627 175.523 3.77817 176.288L44.844 200.012C47.8576 201.767 52.7827 201.767 55.7963 200.012L96.6597 176.243C97.9641 175.5 98.6613 174.555 98.6613 173.587C98.6613 172.619 97.9416 171.674 96.6597 170.931L55.5939 147.207C54.0871 146.329 52.0856 145.879 50.1065 145.879Z" fill="#74B4FF"/>
</g>
<path opacity="0.4" d="M72.5156 50.3004C72.5156 53.4891 69.9288 56.0928 66.7281 56.0928C63.5421 56.0928 60.9406 53.5038 60.9406 50.3004C60.9406 47.1116 63.5274 44.508 66.7281 44.508C69.9288 44.5226 72.5156 47.1116 72.5156 50.3004Z" fill="#03A7D3"/>
<path opacity="0.8" d="M69.578 50.3003C69.578 51.8654 68.3065 53.138 66.7427 53.138C65.1789 53.138 63.9074 51.8654 63.9074 50.3003C63.9074 48.7352 65.1789 47.4626 66.7427 47.4626C68.3065 47.4626 69.578 48.7352 69.578 50.3003Z" fill="#01C8EF"/>
<path opacity="0.4" d="M443.216 144.9C443.216 148.089 440.629 150.693 437.428 150.693C434.242 150.693 431.641 148.104 431.641 144.9C431.641 141.712 434.228 139.108 437.428 139.108C440.629 139.123 443.216 141.712 443.216 144.9Z" fill="#03A7D3"/>
<path opacity="0.8" d="M440.278 144.9C440.278 146.466 439.007 147.738 437.443 147.738C435.879 147.738 434.608 146.466 434.608 144.9C434.608 143.335 435.879 142.063 437.443 142.063C439.007 142.063 440.278 143.335 440.278 144.9Z" fill="#01C8EF"/>
<path opacity="0.4" d="M378.4 117.652C378.4 119.217 377.129 120.49 375.565 120.49C374.001 120.49 372.729 119.217 372.729 117.652C372.729 116.087 374.001 114.814 375.565 114.814C377.129 114.814 378.4 116.087 378.4 117.652Z" fill="#03A7D3"/>
<path opacity="0.8" d="M375.55 119.041C376.317 119.041 376.939 118.419 376.939 117.652C376.939 116.884 376.317 116.262 375.55 116.262C374.783 116.262 374.162 116.884 374.162 117.652C374.162 118.419 374.783 119.041 375.55 119.041Z" fill="#01C8EF"/>
<path opacity="0.4" d="M418.663 65.9556C418.663 68.6032 416.515 70.7534 413.87 70.7534C411.224 70.7534 409.076 68.6032 409.076 65.9556C409.076 63.3081 411.224 61.1579 413.87 61.1579C416.515 61.1579 418.663 63.3081 418.663 65.9556Z" fill="#03A7D3"/>
<path opacity="0.8" d="M416.223 65.9557C416.223 67.2575 415.17 68.3107 413.87 68.3107C412.569 68.3107 411.517 67.2575 411.517 65.9557C411.517 64.6539 412.569 63.6007 413.87 63.6007C415.17 63.6007 416.223 64.6539 416.223 65.9557Z" fill="#01C8EF"/>
<defs>
<linearGradient id="paint0_linear" x1="96.3336" y1="171.038" x2="257.855" y2="171.038" gradientUnits="userSpaceOnUse">
<stop stop-color="#AFD9FF"/>
<stop offset="0.1297" stop-color="#04B1DD"/>
<stop offset="0.5466" stop-color="#0E6BA7"/>
<stop offset="0.8476" stop-color="#154085"/>
<stop offset="1" stop-color="#172F78"/>
</linearGradient>
<radialGradient id="paint1_radial" cx="0" cy="0" r="1" gradientUnits="userSpaceOnUse" gradientTransform="translate(67.6868 49.8165) scale(360.71 361.016)">
<stop stop-color="#01C8EF"/>
<stop offset="0.1396" stop-color="#03BAE4"/>
<stop offset="0.4033" stop-color="#0895C8"/>
<stop offset="0.76" stop-color="#115A9A"/>
<stop offset="1" stop-color="#172F78"/>
</radialGradient>
</defs>
</svg>
