<svg width="15" height="11" viewBox="0 0 15 11" fill="none" xmlns="http://www.w3.org/2000/svg">
<path d="M14.8807 2.87951C10.7283 -0.961192 4.27006 -0.959786 0.119277 2.87951C-0.0368168 3.02389 -0.0398637 3.26834 0.111074 3.41811L0.913574 4.21428C1.05748 4.35725 1.28904 4.3603 1.43857 4.22319C4.85858 1.09006 10.1409 1.08936 13.5616 4.22319C13.7112 4.3603 13.9427 4.35701 14.0866 4.21428L14.8891 3.41811C15.0398 3.26834 15.0368 3.02389 14.8807 2.87951ZM7.49998 7.49952C6.67147 7.49952 5.99998 8.171 5.99998 8.99952C5.99998 9.82803 6.67147 10.4995 7.49998 10.4995C8.3285 10.4995 8.99998 9.82803 8.99998 8.99952C8.99998 8.171 8.3285 7.49952 7.49998 7.49952ZM12.2501 5.54037C9.54866 3.15139 5.44826 3.15397 2.7499 5.54037C2.58818 5.68334 2.58303 5.93155 2.73654 6.08295L3.54373 6.87959C3.68436 7.01834 3.91076 7.02772 4.06053 6.89834C6.02811 5.19748 8.97631 5.20123 10.9392 6.89834C11.089 7.02772 11.3154 7.01858 11.456 6.87959L12.2632 6.08295C12.4169 5.93155 12.4115 5.68311 12.2501 5.54037Z" fill="#CCCCCC"/>
</svg>
