<svg width="421" height="327" viewBox="0 0 421 327" fill="none" xmlns="http://www.w3.org/2000/svg">
<g opacity="0.5">
<path opacity="0.8" d="M360.998 121.161H356.916V125.249H360.998V121.161Z" fill="#369DFC"/>
<path d="M369.671 121.161H365.588V125.249H369.671V121.161Z" fill="#369DFC"/>
<path opacity="0.8" d="M387.038 150.266H382.955V154.354H387.038V150.266Z" fill="#369DFC"/>
<path d="M382.936 172.554H387.019V168.466H382.936V172.554Z" fill="#369DFC"/>
<path opacity="0.4" d="M382.936 180.836H387.019V176.748H382.936V180.836Z" fill="#369DFC"/>
<path d="M382.936 189.098H387.019V185.01H382.936V189.098Z" fill="#369DFC"/>
</g>
<g opacity="0.5">
<path d="M38.5459 256.573V260.302H42.27V256.573H38.5459Z" fill="#369DFC"/>
<path opacity="0.4" d="M31.0126 256.562V260.292H34.7367V256.562H31.0126Z" fill="#369DFC"/>
<path d="M23.4791 256.57V260.299H27.2032V256.57H23.4791Z" fill="#369DFC"/>
<path opacity="0.8" d="M2.03758 223.915L2.03758 227.644H5.76167V223.915H2.03758Z" fill="#369DFC"/>
<path d="M2.04111 215.989L2.04111 219.718H5.76519V215.989H2.04111Z" fill="#369DFC"/>
<path opacity="0.4" d="M2.04436 208.064L2.04436 211.793H5.76844V208.064H2.04436Z" fill="#369DFC"/>
<path opacity="0.8" d="M28.5394 200.135V203.864H32.2635V200.135H28.5394Z" fill="#369DFC"/>
</g>
<path opacity="0.8" d="M247.934 0H244.038V3.90217H247.934V0Z" fill="#369DFC"/>
<path d="M256.213 0H252.316V3.90217H256.213V0Z" fill="#369DFC"/>
<path opacity="0.4" d="M264.492 0H260.595V3.90217H264.492V0Z" fill="#369DFC"/>
<path d="M272.79 0H268.893V3.90217H272.79V0Z" fill="#369DFC"/>
<path d="M299.118 0H295.221V3.90217H299.118V0Z" fill="#369DFC"/>
<path opacity="0.8" d="M272.79 27.7809H268.893V31.6831H272.79V27.7809Z" fill="#369DFC"/>
<path d="M268.87 49.0548H272.767V45.1526H268.87V49.0548Z" fill="#369DFC"/>
<path opacity="0.4" d="M268.87 56.9604H272.767V53.0583H268.87V56.9604Z" fill="#369DFC"/>
<path d="M268.87 64.8457H272.767V60.9435H268.87V64.8457Z" fill="#369DFC"/>
<path opacity="0.8" d="M287.846 54.0572H291.743V50.1551H287.846V54.0572Z" fill="#369DFC"/>
<path d="M294.426 48.0659H298.323V44.1637H294.426V48.0659Z" fill="#369DFC"/>
<path opacity="0.4" d="M307.397 0H303.5V3.90217H307.397V0Z" fill="#369DFC"/>
<path opacity="0.4" d="M128.172 94.2003H132.271V90.0959H128.172V94.2003Z" fill="#369DFC"/>
<path d="M119.457 94.2003H123.556V90.0959H119.457V94.2003Z" fill="#369DFC"/>
<path d="M89.7194 50.971H93.8184V46.8665H89.7194V50.971Z" fill="#369DFC"/>
<path d="M89.7194 42.5075H93.8184V38.403H89.7194V42.5075Z" fill="#369DFC"/>
<path d="M89.7194 34.0237H93.8184V29.9192H89.7194V34.0237Z" fill="#369DFC"/>
<path d="M91.7529 94.2003H95.8519V90.0959H91.7529V94.2003Z" fill="#369DFC"/>
<path opacity="0.8" d="M119.457 64.9869H123.556V60.8824H119.457V64.9869Z" fill="#369DFC"/>
<path d="M123.579 42.6018H119.48V46.7062H123.579V42.6018Z" fill="#369DFC"/>
<path opacity="0.4" d="M123.579 34.3107H119.48V38.4152H123.579V34.3107Z" fill="#369DFC"/>
<path d="M123.579 26H119.48V30.1045H123.579V26Z" fill="#369DFC"/>
<path opacity="0.4" d="M83.0376 94.2003H87.1366V90.0959H83.0376V94.2003Z" fill="#369DFC"/>
<path d="M163.832 279.536C159.043 279.536 154.238 278.483 150.6 276.378L61.0161 224.584C57.362 222.462 55.343 219.622 55.343 216.564C55.343 213.507 57.362 210.65 61.0161 208.528L216.624 118.573C223.916 114.346 235.796 114.363 243.087 118.573L332.672 170.367C336.326 172.489 338.345 175.329 338.345 178.387C338.345 181.444 336.326 184.301 332.672 186.423L177.063 276.378C173.426 278.483 168.62 279.536 163.832 279.536ZM229.856 116.685C225.301 116.685 220.746 117.687 217.275 119.692L61.6668 209.647C58.4298 211.518 56.6445 213.974 56.6445 216.547C56.6445 219.12 58.4298 221.576 61.6668 223.431L151.251 275.225C158.192 279.235 169.471 279.235 176.412 275.225L332.021 185.27C335.258 183.399 337.043 180.943 337.043 178.37C337.043 175.797 335.258 173.341 332.021 171.486L242.437 119.692C238.966 117.687 234.411 116.685 229.856 116.685Z" fill="#369DFC"/>
<path d="M57 157.5L52.6831 162.602C51.9192 163.505 51.5 164.649 51.5 165.832V181.5L57 186V157.5Z" fill="#1E5A7D"/>
<path d="M338.128 158.067L338.111 115.061L283.833 122.313L243.188 98.8215C236.063 94.6947 224.5 94.6947 217.375 98.8215L144.56 140.925L56.4443 152.704V196.211C56.4443 196.228 56.4443 196.261 56.4443 196.278V196.479H56.4777C56.5778 199.102 58.3298 201.708 61.7837 203.713L151.368 255.507C158.492 259.634 170.055 259.634 177.18 255.507L332.788 165.552C336.242 163.564 337.978 160.958 338.094 158.351H338.144V158.067H338.128Z" fill="url(#paint0_linear)"/>
<path d="M332.788 107.292L243.204 55.4981C236.08 51.3713 224.517 51.3713 217.392 55.4981L61.7837 145.453C54.659 149.58 54.659 156.263 61.7837 160.373L151.368 212.167C158.492 216.294 170.055 216.294 177.18 212.167L332.788 122.212C339.913 118.085 339.913 111.402 332.788 107.292Z" fill="url(#paint1_radial)"/>
<path d="M332.788 119.606L177.18 209.561C170.055 213.688 158.492 213.688 151.368 209.561L61.7836 157.767C58.7969 156.046 57.0783 153.857 56.5945 151.601C55.927 154.726 57.6456 157.967 61.7836 160.373L151.368 212.167C158.492 216.294 170.055 216.294 177.18 212.167L332.788 122.212C336.926 119.823 338.645 116.565 337.978 113.441C337.494 115.696 335.775 117.868 332.788 119.606Z" fill="white"/>
<path d="M202.281 213.525L199.306 215.306L199.257 211.829L202.232 210.06L202.281 213.525Z" fill="white"/>
<path d="M236.173 193.516L233.197 195.296L233.148 191.82L236.124 190.051L236.173 193.516Z" fill="white"/>
<path d="M209.619 219.107L206.644 220.888L206.595 217.411L209.57 215.642L209.619 219.107Z" fill="white"/>
<path d="M216.374 214.706L213.399 216.487L213.35 213.01L216.325 211.241L216.374 214.706Z" fill="white"/>
<path d="M210.143 228.092L207.168 229.873L207.119 226.396L210.094 224.627L210.143 228.092Z" fill="white"/>
<path d="M216.898 223.69L213.923 225.471L213.874 221.994L216.849 220.226L216.898 223.69Z" fill="white"/>
<path d="M223.711 220.287L220.736 222.068L220.687 218.591L223.662 216.822L223.711 220.287Z" fill="white"/>
<path d="M237.221 211.485L234.246 213.266L234.197 209.789L237.172 208.02L237.221 211.485Z" fill="white"/>
<path d="M275.08 171.456L272.105 173.237L272.056 169.76L275.031 167.991L275.08 171.456Z" fill="white"/>
<path d="M281.835 167.054L278.86 168.835L278.811 165.358L281.786 163.589L281.835 167.054Z" fill="white"/>
<path d="M262.036 188.245L259.061 190.026L259.012 186.549L261.987 184.78L262.036 188.245Z" fill="white"/>
<path d="M275.604 180.44L272.629 182.221L272.58 178.744L275.555 176.975L275.604 180.44Z" fill="white"/>
<path d="M282.359 176.039L279.384 177.82L279.335 174.343L282.31 172.574L282.359 176.039Z" fill="white"/>
<path d="M255.806 201.631L252.831 203.411L252.781 199.935L255.757 198.166L255.806 201.631Z" fill="white"/>
<path d="M269.374 193.826L266.399 195.607L266.35 192.13L269.325 190.361L269.374 193.826Z" fill="white"/>
<path d="M282.884 185.024L279.908 186.804L279.859 183.328L282.835 181.559L282.884 185.024Z" fill="white"/>
<circle cx="318.038" cy="144" r="2" fill="#84FF4A"/>
<circle cx="318.038" cy="153" r="2" fill="#84FF4A"/>
<circle cx="318.038" cy="162" r="2" fill="#84FF4A"/>
<path opacity="0.4" d="M174.091 189C170.69 189 167.277 188.256 164.693 186.768L101.067 150.162C98.4715 148.662 97.0376 146.655 97.0376 144.494C97.0376 142.333 98.4715 140.313 101.067 138.814L211.587 75.2364C216.765 72.2488 225.203 72.2606 230.382 75.2364L294.008 111.843C296.604 113.343 298.038 115.35 298.038 117.511C298.038 119.672 296.604 121.691 294.008 123.191L183.489 186.768C180.905 188.256 177.492 189 174.091 189ZM220.984 73.902C217.749 73.902 214.514 74.6105 212.049 76.0276L101.529 139.605C99.23 140.927 97.9619 142.663 97.9619 144.482C97.9619 146.3 99.23 148.036 101.529 149.347L165.156 185.954C170.085 188.788 178.096 188.788 183.026 185.954L293.546 122.376C295.845 121.054 297.113 119.318 297.113 117.499C297.113 115.681 295.845 113.945 293.546 112.634L229.92 76.0276C227.455 74.6105 224.219 73.902 220.984 73.902Z" fill="#06033E"/>
<g filter="url(#filter0_i)">
<path d="M163.423 248C156.944 248 92.7919 209.801 92.7919 209.801C90.3236 208.377 71.8071 197.578 71.8071 197.578C71.8071 197.578 59.758 190.811 59.0116 190.447C57.4761 189.699 53.3815 186.524 51.8461 185.354C50.3106 184.184 51.3343 177.205 51.3343 171.602V166C51.3343 166 51.5992 168.936 54.4052 171.093C57.2112 173.251 67.2007 178.733 67.2007 178.733C67.2007 178.733 152.027 228.132 157.793 229.665C160.864 230.481 170.077 232.211 174.683 230.174C179.29 228.137 177.754 228.646 177.754 228.646V231.193C177.754 231.193 177.754 238.323 177.754 240.87C177.754 243.416 175.707 248 163.423 248Z" fill="url(#paint2_radial)"/>
</g>
<g filter="url(#filter1_d)">
<path d="M166.247 247.192C160.624 247.079 158.066 245.658 158.066 245.658C158.066 245.658 153.108 243.613 150.397 242.079C125.112 227.774 99.5 214 99.5 214C99.5 214 59.1065 190.595 58.3684 190.215C56.85 189.433 54.2782 187.442 52.7444 186.636C51.2106 185.83 51.2003 185.102 51.2106 184.591C51.2106 184.591 51.2755 184.071 51.7219 184.08C52.1239 184.088 55.7039 186.601 58.8797 188.681C63.7798 191.891 90.5 207 90.5 207L149.401 239.738C149.401 239.738 155.327 243.432 161.055 245.086C164.106 245.967 169.735 245.772 171.79 245.302C173.845 244.831 173.916 244.41 173.916 244.41C174.938 243.899 174.948 244.575 174.938 245.086C174.928 245.597 171.869 247.305 166.247 247.192Z" fill="url(#paint3_linear)"/>
</g>
<g filter="url(#filter2_d)">
<path d="M166.247 232.122C160.624 232.009 158.066 230.589 158.066 230.589C158.066 230.589 153.108 228.543 150.397 227.01C125.112 212.704 99.5 198.93 99.5 198.93C99.5 198.93 59.1065 175.525 58.3684 175.145C56.85 174.364 54.2782 172.372 52.7444 171.566C51.2106 170.761 51.2003 170.032 51.2106 169.521C51.2106 169.521 51.2755 169.001 51.7219 169.01C52.1239 169.018 55.7039 171.531 58.8797 173.611C63.7798 176.821 90.5 191.93 90.5 191.93L149.401 224.668C149.401 224.668 155.327 228.362 161.055 230.016C164.106 230.897 169.735 230.702 171.79 230.232C173.845 229.762 173.916 229.34 173.916 229.34C174.938 228.829 174.948 229.505 174.938 230.016C174.928 230.527 171.869 232.235 166.247 232.122Z" fill="url(#paint4_linear)"/>
</g>
<path d="M175 217.63V253.379L179.355 251.344V216.363L175 217.63Z" fill="#0E3758"/>
<path d="M192.419 224.528C191.283 222.817 188.742 220.424 186.432 219.084L178.811 215.274L175 217.451L182.621 221.262C184.015 222.08 185.331 222.607 186.432 223.984C188.119 226.141 189.153 227.74 189.153 229.972L190.183 250.846C190.183 252.297 189.707 253.338 188.9 253.971C188.276 254.454 187.469 254.677 186.553 254.529C185.672 254.491 184.682 254.157 183.619 253.561L178.374 250.474V254.305L181.491 256.128L183.619 257.393C183.802 257.505 183.912 257.579 184.095 257.654C185.856 258.584 187.469 259.03 188.863 259.03C189.12 259.03 189.377 258.993 189.633 258.993C190.257 258.918 190.807 258.77 191.284 258.509L191.687 258.286C193.117 257.356 193.998 255.608 193.998 253.115V229.939C194.053 226.705 193.143 225.617 192.419 224.528Z" fill="#0F66A4"/>
<path d="M189.01 254.008L185.746 257.877L184.095 257.654L177.421 256.761L175 252.445L178.374 250.437L183.619 253.524C184.682 254.119 185.672 254.454 186.553 254.491C186.699 254.119 186.773 253.673 186.809 253.189L188.9 253.896L189.01 254.008Z" fill="#0C81B8"/>
<path d="M193.998 253.078C193.998 255.57 193.117 257.319 191.687 258.249L191.284 258.509L188.496 260.146L188.313 260.258L188.863 259.03L190.624 255.087L193.998 253.078Z" fill="#0F66A4"/>
<path d="M191.54 223.621L188.166 225.592L187.396 225.034L175 217.451L178.811 215.274L186.479 219.045C188.753 220.384 190.403 221.909 191.54 223.621Z" fill="url(#paint5_linear)"/>
<path d="M182.853 220.84L178.709 218.988L175 217.451V223.085L181.358 226.157C184.892 228.152 185.596 231.468 185.596 234.863V253.507C185.596 253.647 185.474 254.649 185.474 254.649C185.438 255.104 185.209 255.943 185.209 255.943C184.679 256.967 183.685 257.264 182.096 256.697C181.703 256.558 180.604 255.883 180.175 255.673L175 252.275V256.538L180.104 259.442C183.246 261.227 186.101 261.437 187.957 260.282L188.136 260.177C188.564 259.897 188.957 259.512 189.243 259.057C189.849 258.147 190.242 256.888 190.242 255.383V233.614C190.206 228.225 188.422 223.99 182.853 220.84Z" fill="#0E3758"/>
<path d="M329 128.356V164.105L333.355 162.07V127.089L329 128.356Z" fill="#1C294F"/>
<path d="M346.419 135.254C345.283 133.543 342.742 131.15 340.431 129.811L332.81 126L329 128.177L336.621 131.988C338.015 132.806 339.331 133.333 340.431 134.71C342.119 136.867 343.153 138.466 343.153 140.698L344.183 161.572C344.183 163.023 343.707 164.064 342.9 164.697C342.276 165.18 341.469 165.404 340.553 165.255C339.672 165.218 338.682 164.883 337.619 164.287L332.374 161.2V165.032L335.491 166.854L337.619 168.119C337.802 168.231 337.912 168.305 338.095 168.38C339.856 169.31 341.469 169.756 342.863 169.756C343.12 169.756 343.377 169.719 343.633 169.719C344.257 169.644 344.807 169.496 345.284 169.235L345.687 169.012C347.117 168.082 347.998 166.334 347.998 163.841V140.665C348.052 137.432 347.143 136.343 346.419 135.254Z" fill="url(#paint6_linear)"/>
<path d="M343.01 164.734L339.746 168.603L338.095 168.38L331.421 167.487L329 163.171L332.374 161.163L337.619 164.25C338.682 164.846 339.672 165.18 340.553 165.218C340.699 164.846 340.773 164.399 340.809 163.915L342.9 164.622L343.01 164.734Z" fill="#115C9C"/>
<path d="M347.998 163.804C347.998 166.296 347.117 168.045 345.687 168.975L345.284 169.235L342.496 170.872L342.313 170.984L342.863 169.756L344.624 165.813L347.998 163.804Z" fill="#111D30"/>
<path d="M345.54 134.347L342.166 136.318L341.396 135.76L329 128.177L332.81 126L340.479 129.771C342.753 131.11 344.403 132.635 345.54 134.347Z" fill="url(#paint7_linear)"/>
<path d="M336.853 131.566L332.709 129.714L329 128.177V133.811L335.358 136.883C338.892 138.878 339.596 142.194 339.596 145.589V164.233C339.596 164.373 339.474 165.375 339.474 165.375C339.438 165.83 339.209 166.669 339.209 166.669C338.679 167.693 337.685 167.99 336.096 167.424C335.703 167.284 334.604 166.609 334.175 166.399L329 163.001V167.264L334.104 170.168C337.246 171.953 340.101 172.163 341.957 171.008L342.136 170.903C342.564 170.623 342.957 170.238 343.243 169.783C343.849 168.873 344.242 167.614 344.242 166.109V144.34C344.206 138.951 342.422 134.716 336.853 131.566Z" fill="#1C294F"/>
<circle cx="67" cy="188" r="2" fill="#254B6F"/>
<circle cx="99" cy="206" r="2" fill="#254B6F"/>
<circle cx="130" cy="223" r="2" fill="#0D2A44"/>
<circle cx="141" cy="229" r="2" fill="#0D2A44"/>
<path d="M255.127 230.537L254.477 231.666L370.247 298.597L370.897 297.469L255.127 230.537Z" fill="url(#paint8_linear)"/>
<path d="M419.387 270.194L382.395 248.808C379.025 246.853 374.553 245.583 369.814 245.199L330.12 242.074C325.181 241.69 320.526 240.354 316.988 238.298L279.997 216.913L280.647 215.776L317.639 237.162C321.01 239.117 325.481 240.387 330.22 240.771L369.914 243.896C374.853 244.28 379.509 245.616 383.046 247.672L420.038 269.058L419.387 270.194Z" fill="url(#paint9_linear)"/>
<path d="M321.126 327L284.135 305.614C280.531 303.526 278.145 300.735 277.444 297.761L272.038 274.805C271.42 272.182 269.268 269.692 265.964 267.788L228.973 246.402L229.623 245.266L266.615 266.652C270.219 268.74 272.605 271.53 273.306 274.504L278.712 297.461C279.329 300.084 281.482 302.573 284.785 304.478L321.777 325.864L321.126 327Z" fill="url(#paint10_linear)"/>
<path d="M345.687 312.799L306.259 290.009C304.257 288.84 302.639 287.486 301.454 285.983L285.57 265.532C284.502 264.162 283.017 262.909 281.148 261.84L241.72 239.05L242.371 237.914L281.799 260.704C283.818 261.873 285.419 263.226 286.604 264.73L302.489 285.181C303.556 286.567 305.041 287.804 306.91 288.873L346.338 311.662L345.687 312.799Z" fill="url(#paint11_linear)"/>
<path d="M394.826 284.395L355.398 261.606C353.513 260.52 351.31 259.634 348.874 259.016L313.518 249.827C310.965 249.159 308.662 248.24 306.677 247.104L267.249 224.314L267.9 223.178L307.327 245.967C309.213 247.053 311.415 247.939 313.851 248.557L349.208 257.746C351.761 258.415 354.063 259.334 356.049 260.47L395.476 283.259L394.826 284.395Z" fill="url(#paint12_linear)"/>
<path d="M360.322 33.02H359.635V46.4186H360.322V33.02Z" fill="#172F78"/>
<path d="M360.322 49.5636H359.635V53.864H360.322V49.5636Z" fill="#03A7D3"/>
<path d="M362.122 170.62H361.435V184.019H362.122V170.62Z" fill="#172F78"/>
<path d="M362.122 187.164H361.435V191.464H362.122V187.164Z" fill="#03A7D3"/>
<path d="M413.158 107.425H412.471V120.823H413.158V107.425Z" fill="#03A7D3"/>
<path d="M413.158 123.91H412.471V127.742H413.158V123.91Z" fill="#172F78"/>
<path d="M413.158 130.946H412.471V134.778H413.158V130.946Z" fill="#172F78"/>
<path d="M339.739 42.5518H339.052V55.9504H339.739V42.5518Z" fill="#172F78"/>
<path d="M339.739 59.0221H339.052V62.8545H339.739V59.0221Z" fill="#03A7D3"/>
<path d="M339.739 66.0578H339.052V69.8902H339.739V66.0578Z" fill="#03A7D3"/>
<path d="M339.739 73.0936H339.052V83.9617H339.739V73.0936Z" fill="#03A7D3"/>
<path d="M0.686885 140.651H-1.52588e-05V144.951H0.686885V140.651Z" fill="#172F78"/>
<path d="M0.686885 106.54H-1.52588e-05V120.129H0.686885V106.54Z" fill="#172F78"/>
<path d="M39.9166 170.442H39.2297V174.743H39.9166V170.442Z" fill="#172F78"/>
<path d="M39.9166 153.899H39.2297V167.298H39.9166V153.899Z" fill="#03A7D3"/>
<path d="M39.9166 136.332H39.2297V149.92H39.9166V136.332Z" fill="#172F78"/>
<path d="M39.9166 116.146H39.2297V129.735H39.9166V116.146Z" fill="#172F78"/>
<path opacity="0.4" d="M45.3533 100.301C45.3533 103.489 42.7665 106.093 39.5658 106.093C36.3798 106.093 33.7783 103.504 33.7783 100.301C33.7783 97.112 36.3651 94.5083 39.5658 94.5083C42.7665 94.5229 45.3533 97.112 45.3533 100.301Z" fill="#03A7D3"/>
<path opacity="0.8" d="M42.4157 100.301C42.4157 101.866 41.1442 103.138 39.5804 103.138C38.0166 103.138 36.7451 101.866 36.7451 100.301C36.7451 98.7354 38.0166 97.4629 39.5804 97.4629C41.1442 97.4629 42.4157 98.7354 42.4157 100.301Z" fill="#01C8EF"/>
<path opacity="0.4" d="M418.054 95.9008C418.054 99.0895 415.467 101.693 412.266 101.693C409.08 101.693 406.479 99.1042 406.479 95.9008C406.479 92.712 409.065 90.1084 412.266 90.1084C415.467 90.123 418.054 92.712 418.054 95.9008Z" fill="#03A7D3"/>
<path opacity="0.8" d="M415.116 95.9007C415.116 97.4658 413.844 98.7384 412.281 98.7384C410.717 98.7384 409.445 97.4658 409.445 95.9007C409.445 94.3356 410.717 93.063 412.281 93.063C413.844 93.063 415.116 94.3356 415.116 95.9007Z" fill="#01C8EF"/>
<path opacity="0.4" d="M342.238 92.6516C342.238 94.2168 340.966 95.4893 339.402 95.4893C337.839 95.4893 336.567 94.2168 336.567 92.6516C336.567 91.0865 337.839 89.814 339.402 89.814C340.966 89.814 342.238 91.0865 342.238 92.6516Z" fill="#03A7D3"/>
<path opacity="0.8" d="M339.388 94.0411C340.155 94.0411 340.776 93.419 340.776 92.6516C340.776 91.8841 340.155 91.262 339.388 91.262C338.621 91.262 337.999 91.8841 337.999 92.6516C337.999 93.419 338.621 94.0411 339.388 94.0411Z" fill="#01C8EF"/>
<path opacity="0.4" d="M366.501 200.955C366.501 203.603 364.353 205.753 361.707 205.753C359.062 205.753 356.914 203.603 356.914 200.955C356.914 198.308 359.062 196.158 361.707 196.158C364.353 196.158 366.501 198.308 366.501 200.955Z" fill="#03A7D3"/>
<path opacity="0.8" d="M364.06 200.955C364.06 202.257 363.008 203.31 361.707 203.31C360.407 203.31 359.354 202.257 359.354 200.955C359.354 199.654 360.407 198.601 361.707 198.601C363.008 198.601 364.06 199.654 364.06 200.955Z" fill="#01C8EF"/>
<defs>
<filter id="filter0_i" x="51" y="166" width="127" height="86" filterUnits="userSpaceOnUse" color-interpolation-filters="sRGB">
<feFlood flood-opacity="0" result="BackgroundImageFix"/>
<feBlend mode="normal" in="SourceGraphic" in2="BackgroundImageFix" result="shape"/>
<feColorMatrix in="SourceAlpha" type="matrix" values="0 0 0 0 0 0 0 0 0 0 0 0 0 0 0 0 0 0 127 0" result="hardAlpha"/>
<feOffset dy="4"/>
<feGaussianBlur stdDeviation="2"/>
<feComposite in2="hardAlpha" operator="arithmetic" k2="-1" k3="1"/>
<feColorMatrix type="matrix" values="0 0 0 0 0 0 0 0 0 0 0 0 0 0 0 0 0 0 0.25 0"/>
<feBlend mode="normal" in2="shape" result="effect1_innerShadow"/>
</filter>
<filter id="filter1_d" x="47" y="182.07" width="132.113" height="69.2961" filterUnits="userSpaceOnUse" color-interpolation-filters="sRGB">
<feFlood flood-opacity="0" result="BackgroundImageFix"/>
<feColorMatrix in="SourceAlpha" type="matrix" values="0 0 0 0 0 0 0 0 0 0 0 0 0 0 0 0 0 0 127 0"/>
<feOffset dy="1"/>
<feGaussianBlur stdDeviation="1.5"/>
<feColorMatrix type="matrix" values="0 0 0 0 0.0498264 0 0 0 0 0.214976 0 0 0 0 0.341667 0 0 0 1 0"/>
<feBlend mode="normal" in2="BackgroundImageFix" result="effect1_dropShadow"/>
<feBlend mode="normal" in="SourceGraphic" in2="effect1_dropShadow" result="shape"/>
</filter>
<filter id="filter2_d" x="47" y="167" width="132.113" height="69.2961" filterUnits="userSpaceOnUse" color-interpolation-filters="sRGB">
<feFlood flood-opacity="0" result="BackgroundImageFix"/>
<feColorMatrix in="SourceAlpha" type="matrix" values="0 0 0 0 0 0 0 0 0 0 0 0 0 0 0 0 0 0 127 0"/>
<feOffset dy="1"/>
<feGaussianBlur stdDeviation="1.5"/>
<feColorMatrix type="matrix" values="0 0 0 0 0.0498264 0 0 0 0 0.214976 0 0 0 0 0.341667 0 0 0 1 0"/>
<feBlend mode="normal" in2="BackgroundImageFix" result="effect1_dropShadow"/>
<feBlend mode="normal" in="SourceGraphic" in2="effect1_dropShadow" result="shape"/>
</filter>
<linearGradient id="paint0_linear" x1="39.5329" y1="177.178" x2="238.158" y2="177.178" gradientUnits="userSpaceOnUse">
<stop stop-color="#AFD9FF"/>
<stop offset="0.1297" stop-color="#04B1DD"/>
<stop offset="0.5466" stop-color="#0E6BA7"/>
<stop offset="0.8476" stop-color="#154085"/>
<stop offset="1" stop-color="#172F78"/>
</linearGradient>
<radialGradient id="paint1_radial" cx="0" cy="0" r="1" gradientUnits="userSpaceOnUse" gradientTransform="translate(4.26779 41.666) scale(443.622 442.918)">
<stop stop-color="#01C8EF"/>
<stop offset="0.1396" stop-color="#03BAE4"/>
<stop offset="0.4033" stop-color="#0895C8"/>
<stop offset="0.76" stop-color="#115A9A"/>
<stop offset="1" stop-color="#172F78"/>
</radialGradient>
<radialGradient id="paint2_radial" cx="0" cy="0" r="1" gradientUnits="userSpaceOnUse" gradientTransform="translate(27.4782 160.594) scale(200.006 223.01)">
<stop stop-color="#01C8EF"/>
<stop offset="0.1396" stop-color="#03BAE4"/>
<stop offset="0.4033" stop-color="#0895C8"/>
<stop offset="0.76" stop-color="#115A9A"/>
<stop offset="1" stop-color="#172F78"/>
</radialGradient>
<linearGradient id="paint3_linear" x1="113.667" y1="185.324" x2="112.446" y2="246.111" gradientUnits="userSpaceOnUse">
<stop stop-color="#9DE8FF"/>
<stop offset="0.708333" stop-color="#6ABCF0"/>
<stop offset="1" stop-color="#74BBFB"/>
</linearGradient>
<linearGradient id="paint4_linear" x1="113.667" y1="170.254" x2="112.446" y2="231.042" gradientUnits="userSpaceOnUse">
<stop stop-color="#9DE8FF"/>
<stop offset="0.708333" stop-color="#6ABCF0"/>
<stop offset="1" stop-color="#74BBFB"/>
</linearGradient>
<linearGradient id="paint5_linear" x1="183.27" y1="215.274" x2="183.27" y2="225.592" gradientUnits="userSpaceOnUse">
<stop stop-color="#0C80B7"/>
<stop offset="1" stop-color="#0C81B8" stop-opacity="0"/>
</linearGradient>
<linearGradient id="paint6_linear" x1="338.5" y1="126" x2="338.5" y2="169.756" gradientUnits="userSpaceOnUse">
<stop stop-color="#163A81"/>
<stop offset="1" stop-color="#115D9C" stop-opacity="0"/>
<stop offset="1" stop-color="#172F78"/>
</linearGradient>
<linearGradient id="paint7_linear" x1="337.27" y1="126" x2="337.27" y2="136.318" gradientUnits="userSpaceOnUse">
<stop stop-color="#115C9C"/>
<stop offset="1" stop-color="#172F78"/>
</linearGradient>
<linearGradient id="paint8_linear" x1="254.802" y1="231.102" x2="370.65" y2="297.899" gradientUnits="userSpaceOnUse">
<stop stop-color="#369DFC"/>
<stop offset="0.46875" stop-color="#03A7D3"/>
<stop offset="0.796875" stop-color="#1C1E29"/>
<stop offset="1" stop-color="#1C1E29"/>
</linearGradient>
<linearGradient id="paint9_linear" x1="350.017" y1="215.776" x2="350.017" y2="270.194" gradientUnits="userSpaceOnUse">
<stop stop-color="#369DFC"/>
<stop offset="0.46875" stop-color="#03A7D3"/>
<stop offset="0.796875" stop-color="#1C1E29"/>
<stop offset="1" stop-color="#1C1E29"/>
</linearGradient>
<linearGradient id="paint10_linear" x1="275.375" y1="245.266" x2="275.375" y2="327" gradientUnits="userSpaceOnUse">
<stop stop-color="#369DFC"/>
<stop offset="0.46875" stop-color="#03A7D3"/>
<stop offset="0.796875" stop-color="#1C1E29"/>
<stop offset="1" stop-color="#1C1E29"/>
</linearGradient>
<linearGradient id="paint11_linear" x1="294.029" y1="237.914" x2="294.029" y2="312.799" gradientUnits="userSpaceOnUse">
<stop stop-color="#369DFC"/>
<stop offset="0.46875" stop-color="#03A7D3"/>
<stop offset="0.796875" stop-color="#1C1E29"/>
<stop offset="1" stop-color="#1C1E29"/>
</linearGradient>
<linearGradient id="paint12_linear" x1="331.363" y1="223.178" x2="331.363" y2="284.395" gradientUnits="userSpaceOnUse">
<stop stop-color="#369DFC"/>
<stop offset="0.46875" stop-color="#03A7D3"/>
<stop offset="0.796875" stop-color="#1C1E29"/>
<stop offset="1" stop-color="#1C1E29"/>
</linearGradient>
</defs>
</svg>
