<svg width="30" height="30" viewBox="0 0 30 30" fill="none" xmlns="http://www.w3.org/2000/svg">
<path d="M0 7.04167V3.41667C0.000744409 2.77595 0.264376 2.16168 0.733055 1.70862C1.20174 1.25556 1.83719 1.00072 2.5 1H6.25C6.58152 1 6.89946 1.12731 7.13388 1.35391C7.3683 1.58052 7.5 1.88786 7.5 2.20833C7.5 2.5288 7.3683 2.83615 7.13388 3.06275C6.89946 3.28936 6.58152 3.41667 6.25 3.41667H2.5V7.04167C2.5 7.36214 2.3683 7.66948 2.13388 7.89609C1.89946 8.12269 1.58152 8.25 1.25 8.25C0.918479 8.25 0.600537 8.12269 0.366117 7.89609C0.131696 7.66948 0 7.36214 0 7.04167ZM1.25 19.125C1.58152 19.125 1.89946 18.9977 2.13388 18.7711C2.3683 18.5445 2.5 18.2371 2.5 17.9167V13.0833C2.5 12.7629 2.3683 12.4555 2.13388 12.2289C1.89946 12.0023 1.58152 11.875 1.25 11.875C0.918479 11.875 0.600537 12.0023 0.366117 12.2289C0.131696 12.4555 0 12.7629 0 13.0833V17.9167C0 18.2371 0.131696 18.5445 0.366117 18.7711C0.600537 18.9977 0.918479 19.125 1.25 19.125ZM6.25 27.5833H2.5V23.9583C2.5 23.6379 2.3683 23.3305 2.13388 23.1039C1.89946 22.8773 1.58152 22.75 1.25 22.75C0.918479 22.75 0.600537 22.8773 0.366117 23.1039C0.131696 23.3305 0 23.6379 0 23.9583V27.5833C0.000744409 28.2241 0.264376 28.8383 0.733055 29.2914C1.20174 29.7444 1.83719 29.9993 2.5 30H6.25C6.58152 30 6.89946 29.8727 7.13388 29.6461C7.3683 29.4195 7.5 29.1121 7.5 28.7917C7.5 28.4712 7.3683 28.1638 7.13388 27.9372C6.89946 27.7106 6.58152 27.5833 6.25 27.5833ZM12.5 3.41667H17.5C17.8315 3.41667 18.1495 3.28936 18.3839 3.06275C18.6183 2.83615 18.75 2.5288 18.75 2.20833C18.75 1.88786 18.6183 1.58052 18.3839 1.35391C18.1495 1.12731 17.8315 1 17.5 1H12.5C12.1685 1 11.8505 1.12731 11.6161 1.35391C11.3817 1.58052 11.25 1.88786 11.25 2.20833C11.25 2.5288 11.3817 2.83615 11.6161 3.06275C11.8505 3.28936 12.1685 3.41667 12.5 3.41667V3.41667ZM27.5 1H23.75C23.4185 1 23.1005 1.12731 22.8661 1.35391C22.6317 1.58052 22.5 1.88786 22.5 2.20833C22.5 2.5288 22.6317 2.83615 22.8661 3.06275C23.1005 3.28936 23.4185 3.41667 23.75 3.41667H27.5V7.04167C27.5 7.36214 27.6317 7.66948 27.8661 7.89609C28.1005 8.12269 28.4185 8.25 28.75 8.25C29.0815 8.25 29.3995 8.12269 29.6339 7.89609C29.8683 7.66948 30 7.36214 30 7.04167V3.41667C29.9993 2.77595 29.7356 2.16168 29.2669 1.70862C28.7983 1.25556 28.1628 1.00072 27.5 1ZM28.75 22.75C28.4185 22.75 28.1005 22.8773 27.8661 23.1039C27.6317 23.3305 27.5 23.6379 27.5 23.9583V27.5833H23.75C23.4185 27.5833 23.1005 27.7106 22.8661 27.9372C22.6317 28.1638 22.5 28.4712 22.5 28.7917C22.5 29.1121 22.6317 29.4195 22.8661 29.6461C23.1005 29.8727 23.4185 30 23.75 30H27.5C28.1628 29.9993 28.7983 29.7444 29.2669 29.2914C29.7356 28.8383 29.9993 28.2241 30 27.5833V23.9583C30 23.6379 29.8683 23.3305 29.6339 23.1039C29.3995 22.8773 29.0815 22.75 28.75 22.75ZM28.75 11.875C28.4185 11.875 28.1005 12.0023 27.8661 12.2289C27.6317 12.4555 27.5 12.7629 27.5 13.0833V17.9167C27.5 18.2371 27.6317 18.5445 27.8661 18.7711C28.1005 18.9977 28.4185 19.125 28.75 19.125C29.0815 19.125 29.3995 18.9977 29.6339 18.7711C29.8683 18.5445 30 18.2371 30 17.9167V13.0833C30 12.7629 29.8683 12.4555 29.6339 12.2289C29.3995 12.0023 29.0815 11.875 28.75 11.875ZM23.75 22.75V8.25C23.75 7.92953 23.6183 7.62219 23.3839 7.39558C23.1495 7.16897 22.8315 7.04167 22.5 7.04167H7.5C7.16848 7.04167 6.85054 7.16897 6.61612 7.39558C6.3817 7.62219 6.25 7.92953 6.25 8.25V22.75C6.25 23.0705 6.3817 23.3778 6.61612 23.6044C6.85054 23.831 7.16848 23.9583 7.5 23.9583H22.5C22.8315 23.9583 23.1495 23.831 23.3839 23.6044C23.6183 23.3778 23.75 23.0705 23.75 22.75ZM17.5 27.5833H12.5C12.1685 27.5833 11.8505 27.7106 11.6161 27.9372C11.3817 28.1638 11.25 28.4712 11.25 28.7917C11.25 29.1121 11.3817 29.4195 11.6161 29.6461C11.8505 29.8727 12.1685 30 12.5 30H17.5C17.8315 30 18.1495 29.8727 18.3839 29.6461C18.6183 29.4195 18.75 29.1121 18.75 28.7917C18.75 28.4712 18.6183 28.1638 18.3839 27.9372C18.1495 27.7106 17.8315 27.5833 17.5 27.5833Z" fill="#999999"/>
</svg>
