<?xml version="1.0" encoding="utf-8"?>
<!-- Generator: Adobe Illustrator 25.2.3, SVG Export Plug-In . SVG Version: 6.00 Build 0)  -->
<svg version="1.1" id="레이어_1" xmlns="http://www.w3.org/2000/svg" xmlns:xlink="http://www.w3.org/1999/xlink" x="0px"
	 y="0px" viewBox="0 0 262.8 44.7" style="enable-background:new 0 0 262.8 44.7;" xml:space="preserve">
<style type="text/css">
	.st0{fill:#FFFFFF;}
	.st1{fill-rule:evenodd;clip-rule:evenodd;fill:#FFFFFF;}
	.st2{fill-rule:evenodd;clip-rule:evenodd;fill:#101320;}
	.st3{fill:none;stroke:#747579;}
</style>
<path class="st0" d="M16.9,26.5l5.3-6.5H16c-2.3,0-4.5,0.5-6.1,2l-0.5,0.6V1.2H3.1c-1.5,0-2.7,1.2-2.7,2.7v39.6h6.3
	c1.5,0,2.7-1.2,2.7-2.7V30.3l5.1,6.3l4.3,5.3c0.9,1.1,2,1.6,3.2,1.6h8.7l-5.6-7L16.9,26.5z M41.8,33.7V19.9h-8.9v15.4
	c0,4.9,3.3,8.2,8.1,8.2h6.9c1.5,0,2.7-1.2,2.7-2.7v-4.8h-6.4C42.9,36.1,41.8,35,41.8,33.7z M52.1,15.1l0-6l-0.6,0.6
	c0,0-1.7,1.7-6.5,1.7h-3.2V1.2h-6.3c-1.5,0-2.7,1.2-2.7,2.7v7.5H22.3c-3.6,0-5.3,1.5-6.6,3.1L10.5,21c0,0,2.5-2.4,6.1-2.4H45
	c3.1,0,5.2-0.6,6.3-1.8C52.1,15.9,52.1,15.1,52.1,15.1z"/>
<path class="st1" d="M72.4,11.5c0.9-5.2,4.2-7.3,9.3-6.9l37.5-0.8c3.8,0.1,7.1-0.9,9.9-2.6l-4.3,31.8c-1.2,3.9-4,6.7-10.6,6.7
	l-38.9,0.1c-2.8,0.3-5.4,1.4-7.6,3.7L72,14.8L72.4,11.5z"/>
<path class="st2" d="M109,10.3c-2.1,0-3.8,0.4-5,1.1c-1.2,0.7-2.1,1.7-2.8,2.8c-0.6,1.2-1,2.5-1.2,3.9c-0.2,1.5-0.2,3-0.2,4.4
	c0,1.1,0,2.1,0.1,3.2c0,1,0.2,2,0.4,2.9c0.2,0.9,0.5,1.7,1,2.5c0.4,0.8,1,1.4,1.7,1.9c0.7,0.5,1.7,0.9,2.8,1.2
	c1.1,0.3,2.5,0.5,4.1,0.5c1.9,0,3.4-0.1,4.6-0.4c1.2-0.3,2.1-0.7,2.8-1.3c0.7-0.6,1.1-1.3,1.4-2.2c0.3-0.9,0.4-1.9,0.4-3.1v-2.6
	c0-0.9-0.1-1.7-0.2-2.4c-0.1-0.7-0.3-1.2-0.6-1.6c-0.3-0.4-0.8-0.7-1.4-0.9c-0.6-0.2-1.4-0.3-2.4-0.3h-3.2c-0.6,0-1,0.1-1.3,0.3
	c-0.2,0.2-0.5,0.6-0.7,1.1l-1,2.8h5c0.4,0,0.7,0.1,0.8,0.3c0.1,0.2,0.2,0.6,0.2,1.3v2.6c0,0.5,0,0.9-0.1,1.2
	c-0.1,0.3-0.3,0.6-0.5,0.8c-0.3,0.2-0.6,0.4-1.1,0.4c-0.5,0.1-1.1,0.1-1.8,0.1h-1.6c-1,0-1.9-0.2-2.4-0.6c-0.6-0.4-1-0.9-1.3-1.6
	c-0.3-0.7-0.5-1.6-0.6-2.6c-0.1-1-0.1-2.1-0.1-3.4c0-1.2,0-2.4,0.1-3.4c0.1-1,0.3-1.9,0.5-2.6c0.3-0.7,0.7-1.3,1.3-1.7
	c0.6-0.4,1.4-0.6,2.3-0.6h6.4c0.9,0,1.4-0.1,1.9-0.3c0.4-0.2,0.7-0.5,0.9-1.1l1-2.7l0.2-0.5c-0.9,0.3-2.3,0.5-3.6,0.5L109,10.3
	L109,10.3z"/>
<path class="st2" d="M92.6,24.9c0.6,1.6,0.5,4.2-0.9,5.3c-1.9,1.3-5.9,1.6-8,0.6c-1.6-0.8-2.2-1-2.5,1.2c-0.2,1.8,0.6,2.5,2.2,3.1
	c2.4,0.8,5.8,0.7,8.2,0c3.1-1.1,5.5-3.3,5.7-6.7c0.1-1.9,0.1-4.8-1.1-6.3c-2.1-2.5-4-3.3-7.2-3.3c-0.5,0-2.7,0.1-2.8-0.4
	c-0.2-0.6-0.2-4.4,0-4.9c0.5-1,1.6-0.8,2.5-0.7c0.8,0,5.9,0.1,6.3-0.1c0.9-0.4,2.6-3.7,1.6-4c-0.3-0.1-3.5,0-4.1,0
	c-2.4,0-4.9,0-7.3,0.1c-2,0.1-2.9,1.1-2.9,3.1c-0.1,3.2-0.2,6.3-0.3,9.5c0,1.1,0.3,2,1.6,1.9c0.7,0,1.6-0.4,2.4-0.5
	C88.3,22.3,91.6,22.3,92.6,24.9z"/>
<line class="st3" x1="143" y1="2.9" x2="143" y2="43.6"/>
<path class="st0" d="M155.9,21.4V3.2c0-0.2,0.1-0.4,0.2-0.6c0.2-0.2,0.4-0.2,0.6-0.2h1.9c0.2,0,0.3,0,0.4,0c0.1,0,0.2,0.1,0.2,0.2
	c0.1,0.1,0.1,0.2,0.2,0.2c0.1,0.1,0.1,0.2,0.2,0.3l4.4,7.8c0,0.1,0,0.1,0.1,0.2c0.1,0.1,0.2,0.1,0.3,0.1c0.1,0,0.1,0,0.2-0.1
	c0.1-0.1,0.2-0.1,0.2-0.2l4.4-7.5c0.2-0.3,0.4-0.5,0.7-0.7c0.3-0.2,0.6-0.3,1-0.3h2v18.2c0,0.2-0.1,0.4-0.2,0.6
	c-0.2,0.2-0.3,0.2-0.5,0.2h-2V7.1l-2.9,5.1c-0.3,0.5-0.7,1-1.2,1.4c-0.5,0.4-1,0.6-1.6,0.6s-1.1-0.2-1.6-0.5
	c-0.5-0.3-0.9-0.8-1.1-1.3l-3.2-5.7v13.9c0,0.2-0.1,0.4-0.2,0.6c-0.1,0.2-0.3,0.2-0.6,0.2H155.9z"/>
<path class="st0" d="M181.2,5.2c-0.3,0-0.6,0.1-0.9,0.4c-0.3,0.3-0.4,0.6-0.4,1v3.7h9.1v1.9c0,0.3-0.1,0.5-0.2,0.7
	c-0.2,0.2-0.4,0.3-0.6,0.3h-8.2v4c0,0.4,0.1,0.7,0.4,1c0.3,0.3,0.6,0.4,0.9,0.4h8.3v1.9c0,0.3-0.1,0.5-0.2,0.7
	c-0.2,0.2-0.4,0.2-0.6,0.2h-7.8c-0.5,0-1-0.1-1.5-0.3c-0.5-0.2-0.8-0.5-1.2-0.8c-0.3-0.3-0.6-0.7-0.8-1.2c-0.2-0.4-0.3-0.9-0.3-1.5
	V6.1c0-0.5,0.1-0.9,0.3-1.4c0.2-0.5,0.5-0.9,0.8-1.2c0.3-0.3,0.7-0.6,1.2-0.8c0.5-0.2,0.9-0.3,1.5-0.3h5.9c1,0,1.9-0.2,2.7-0.5v2.2
	c0,0.3-0.1,0.5-0.3,0.6C189,4.9,188.7,5,188.4,5c-0.3,0.1-0.6,0.2-0.9,0.2s-0.5,0-0.7,0L181.2,5.2L181.2,5.2z"/>
<path class="st0" d="M197.1,5.2c-0.3,0-0.6,0.1-0.9,0.4c-0.3,0.3-0.4,0.6-0.4,1v10.6c0,0.4,0.1,0.7,0.4,1c0.3,0.3,0.6,0.4,0.9,0.4
	h8.3v1.9c0,0.3-0.1,0.5-0.2,0.7c-0.2,0.2-0.4,0.2-0.6,0.2h-7.8c-0.5,0-1-0.1-1.5-0.3c-0.5-0.2-0.8-0.5-1.2-0.8
	c-0.3-0.3-0.6-0.7-0.8-1.2c-0.2-0.4-0.3-0.9-0.3-1.5V6.1c0-0.5,0.1-0.9,0.3-1.4c0.2-0.5,0.5-0.9,0.8-1.2c0.3-0.3,0.7-0.6,1.2-0.8
	c0.5-0.2,0.9-0.3,1.5-0.3h5.9c1,0,1.9-0.2,2.7-0.5v2.2c0,0.3-0.1,0.5-0.3,0.6c-0.2,0.1-0.5,0.2-0.8,0.3c-0.3,0.1-0.6,0.2-0.9,0.2
	c-0.3,0-0.5,0-0.7,0L197.1,5.2L197.1,5.2z"/>
<path class="st0" d="M217.3,6.6V9c0,0.4,0.1,0.7,0.4,1c0.3,0.3,0.6,0.4,1,0.4h5.6c0.5,0,1,0.1,1.5,0.3c0.5,0.2,0.8,0.5,1.2,0.8
	c0.3,0.4,0.6,0.8,0.8,1.3c0.2,0.4,0.3,0.9,0.3,1.5v3.5c0,0.5-0.1,1-0.3,1.5c-0.2,0.4-0.5,0.8-0.8,1.2c-0.3,0.3-0.7,0.6-1.2,0.8
	c-0.5,0.2-0.9,0.3-1.5,0.3h-9.2v-1.9c0-0.3,0.1-0.5,0.2-0.7c0.2-0.2,0.4-0.2,0.6-0.2h7.8c0.4,0,0.7-0.1,1-0.4c0.3-0.3,0.4-0.6,0.4-1
	v-2.6c0-0.4-0.1-0.7-0.4-1c-0.3-0.3-0.6-0.4-0.9-0.4h-5.7c-0.5,0-1-0.1-1.4-0.3c-0.4-0.2-0.8-0.5-1.1-0.8c-0.4-0.3-0.7-0.7-0.8-1.2
	c-0.2-0.5-0.2-1-0.2-1.5V6.1c0-0.5,0.1-0.9,0.2-1.4c0.2-0.5,0.4-0.9,0.8-1.2c0.3-0.3,0.7-0.6,1.1-0.8c0.4-0.2,0.9-0.3,1.4-0.3h5.9
	c1,0,1.9-0.2,2.8-0.5v2.2c0,0.3-0.1,0.5-0.3,0.6c-0.2,0.1-0.5,0.2-0.8,0.3c-0.3,0.1-0.6,0.1-0.9,0.2c-0.3,0-0.6,0-0.8,0h-5.5
	c-0.4,0-0.7,0.1-1,0.4C217.4,5.9,217.3,6.2,217.3,6.6z"/>
<path class="st0" d="M244.5,17.7c0,0.5-0.1,1-0.3,1.5c-0.2,0.4-0.5,0.8-0.9,1.2c-0.3,0.3-0.7,0.6-1.2,0.8c-0.5,0.2-0.9,0.3-1.4,0.3
	h-9.7v-19h9.7c0.5,0,0.9,0.1,1.4,0.3c0.5,0.2,0.8,0.5,1.2,0.8c0.4,0.3,0.7,0.7,0.9,1.2c0.2,0.5,0.3,0.9,0.3,1.4L244.5,17.7
	L244.5,17.7z M240.3,18.6c0.4,0,0.7-0.1,1-0.4c0.3-0.3,0.4-0.6,0.4-1V6.6c0-0.3-0.1-0.7-0.4-1c-0.3-0.3-0.6-0.5-1-0.5h-6.4v13.4
	H240.3z"/>
<path class="st0" d="M252.9,2.4h5.1c0.5,0,0.9,0.1,1.4,0.3c0.5,0.2,0.8,0.5,1.2,0.8s0.6,0.7,0.8,1.1s0.3,0.8,0.3,1.3v4.8
	c0,1-0.3,1.9-1,2.6c-0.6,0.7-1.5,1.1-2.5,1.1h-7v6c0,0.3-0.1,0.5-0.3,0.7c-0.2,0.2-0.4,0.2-0.6,0.2h-1.9v-19h1.8
	c0.2,0,0.4,0,0.5,0.1c0.1,0.1,0.2,0.2,0.3,0.3c0.3-0.1,0.6-0.2,1-0.3C252.2,2.4,252.5,2.4,252.9,2.4z M259,10.4V6.3
	c0-0.3-0.1-0.6-0.3-0.9c-0.2-0.2-0.5-0.4-0.9-0.4h-5.3c-0.4,0-0.7,0.2-1,0.5c-0.3,0.3-0.4,0.7-0.4,1.1v5h6.7c0.4,0,0.7-0.1,0.9-0.3
	C258.9,11.1,259,10.8,259,10.4z"/>
<g>
	<path class="st0" d="M162.1,37.2h-6.7v-1c0-0.1,0-0.2,0.1-0.3c0.1-0.1,0.2-0.2,0.3-0.2h6.2c0.6,0,1.1-0.1,1.6-0.3v1.2
		c0,0.1,0,0.1-0.1,0.2c0,0.1-0.1,0.1-0.1,0.1c-0.1,0.1-0.3,0.1-0.5,0.2C162.9,37.1,162.6,37.2,162.1,37.2z M160.9,34.5v-2.7
		c0-0.2,0-0.3-0.1-0.4c-0.1-0.1-0.2-0.1-0.4-0.1h-3.7c-0.2,0-0.3-0.1-0.4-0.2s-0.2-0.3-0.2-0.4v-1h4.6c0.6,0,1.1,0.2,1.4,0.5
		s0.4,0.8,0.4,1.3v2.4c0,0.2-0.1,0.3-0.2,0.4c-0.1,0.1-0.2,0.2-0.3,0.2H160.9z M159.4,36.6h-1.7v-3c0-0.1,0.1-0.2,0.2-0.3
		c0.1-0.1,0.2-0.2,0.3-0.2h1.2V36.6z M164.3,42.6h-4.8c-0.6,0-1-0.1-1.3-0.3c-0.2-0.2-0.3-0.6-0.3-1.2v-2.3c0-0.1,0.1-0.2,0.2-0.3
		s0.3-0.2,0.4-0.2h1.2v2.4c0,0.2,0,0.4,0.1,0.4c0.1,0,0.2,0.1,0.4,0.1h4.1c0.6,0,1.1-0.1,1.6-0.2v1.2c0,0.1,0,0.1,0,0.2
		c0,0.1-0.1,0.1-0.1,0.1c-0.1,0.1-0.2,0.1-0.5,0.2C165.1,42.5,164.8,42.6,164.3,42.6z M164.3,29.8c0-0.2,0-0.3,0.1-0.4
		c0.1-0.1,0.2-0.2,0.4-0.2h1.2v3.7h2.1V34c0,0.2,0,0.3-0.1,0.4c-0.1,0.1-0.2,0.1-0.4,0.1H166v3.1c0,0.2-0.1,0.3-0.2,0.4
		s-0.3,0.1-0.4,0.1h-1.1V29.8z"/>
	<path class="st0" d="M174.5,39h-3.7c-0.6,0-1-0.1-1.2-0.3c-0.2-0.2-0.3-0.7-0.3-1.3v-2.1c0-0.6,0.1-1,0.3-1.2
		c0.2-0.2,0.6-0.3,1.2-0.3h2.3c0.1,0,0.2,0,0.3,0c0.1-0.1,0.1-0.2,0.1-0.4v-1.5h-3.6c-0.2,0-0.3,0-0.4-0.1c-0.1-0.1-0.2-0.2-0.2-0.4
		v-1h4.8c0.4,0,0.6,0.1,0.8,0.3c0.1,0.2,0.2,0.5,0.2,0.7v2.6c0,0.6-0.1,1-0.3,1.2c-0.2,0.2-0.5,0.3-1.1,0.3h-2.3
		c-0.2,0-0.4,0-0.5,0.1c-0.1,0.1-0.1,0.2-0.1,0.5v1c0,0.2,0,0.4,0.1,0.4c0.1,0.1,0.2,0.1,0.5,0.1h2.8c0.6,0,1.2-0.1,1.7-0.3v1.3
		c0,0.1,0,0.1-0.1,0.2c0,0.1-0.1,0.1-0.1,0.1c-0.1,0.1-0.2,0.1-0.4,0.2C175.3,38.9,175,39,174.5,39z M178,29.8c0-0.2,0-0.3,0.1-0.4
		c0.1-0.1,0.2-0.2,0.4-0.2h1.2v11.6c0,0.2-0.1,0.3-0.2,0.4c-0.1,0.1-0.2,0.1-0.3,0.1H178V29.8z"/>
	<path class="st0" d="M181.9,31.7v-1c0-0.2,0-0.3,0.1-0.4s0.2-0.1,0.4-0.1h6.4v1c0,0.2-0.1,0.3-0.2,0.4c-0.1,0.1-0.3,0.1-0.4,0.1h-2
		c0,0.6,0.1,1.2,0.3,1.7c0.2,0.5,0.4,1.1,0.8,1.6c0.3,0.5,0.7,0.9,1,1.3c0.4,0.4,0.8,0.8,1.2,1.1l-0.5,0.8c-0.2,0.2-0.4,0.3-0.6,0.3
		c-0.2,0-0.3-0.1-0.6-0.3c-0.2-0.2-0.3-0.3-0.6-0.6c-0.2-0.2-0.5-0.5-0.7-0.8c-0.2-0.3-0.4-0.6-0.6-0.9c-0.2-0.3-0.4-0.6-0.5-0.9
		c-0.1,0.3-0.3,0.6-0.4,0.9c-0.2,0.3-0.3,0.6-0.5,0.9c-0.2,0.3-0.4,0.5-0.6,0.8c-0.2,0.2-0.4,0.4-0.6,0.6c-0.2,0.2-0.5,0.4-0.7,0.4
		c-0.2,0-0.4-0.1-0.7-0.4l-0.5-0.6c0.3-0.2,0.6-0.5,1-0.8c0.3-0.3,0.7-0.7,0.9-1.2c0.3-0.5,0.6-1,0.8-1.6c0.2-0.6,0.3-1.3,0.4-2
		v-0.1H181.9z M190.5,29.8c0-0.2,0-0.3,0.1-0.4c0.1-0.1,0.2-0.2,0.4-0.2h1.2v4.3h2.1v1.1c0,0.2,0,0.3-0.1,0.4
		c-0.1,0.1-0.2,0.1-0.4,0.1h-1.6v5.7c0,0.2-0.1,0.3-0.2,0.4c-0.1,0.1-0.3,0.1-0.4,0.1h-1.1V29.8z"/>
	<path class="st0" d="M199.2,38.3h10.3c0.6,0,1.1-0.1,1.6-0.3v1.3c0,0.1,0,0.1-0.1,0.2c0,0.1-0.1,0.1-0.1,0.1
		c-0.1,0.1-0.2,0.1-0.5,0.2c-0.2,0.1-0.6,0.1-1,0.1h-10.8v-1.1c0-0.2,0.1-0.3,0.2-0.4C199,38.4,199.1,38.3,199.2,38.3z M201.1,30
		h6.6c0.6,0,1.1-0.1,1.6-0.3v1.2c0,0.1,0,0.1-0.1,0.2c0,0.1-0.1,0.1-0.1,0.1c-0.1,0.1-0.2,0.1-0.5,0.2c-0.2,0.1-0.6,0.1-1,0.1h-7.2
		v-0.9c0-0.2,0.1-0.3,0.2-0.4C200.8,30.1,201,30,201.1,30z M201,35h8.4v1c0,0.2,0,0.3-0.1,0.4c-0.1,0.1-0.2,0.2-0.4,0.2h-8.4v-1
		c0-0.2,0.1-0.3,0.2-0.4S200.9,35,201,35z M203.7,36.2h-1.8v-4.9c0-0.2,0-0.3,0.1-0.4c0.1-0.1,0.3-0.1,0.5-0.1h1.2V36.2z
		 M205.7,39.1h-1.7v-2.8c0-0.2,0.1-0.3,0.2-0.4c0.1-0.1,0.3-0.1,0.4-0.1h1.2V39.1z M207.9,36.2h-1.7v-3.7c0-0.2,0-0.3,0.1-0.4
		c0.1-0.1,0.2-0.2,0.4-0.2h1.2V36.2z"/>
	<path class="st0" d="M214.9,31.2c-0.2,0-0.4,0-0.4,0.1c0,0-0.1,0.2-0.1,0.4v0.4h2.4c0.6,0,1.2-0.1,1.7-0.2V33c0,0.1,0,0.1-0.1,0.2
		c0,0.1-0.1,0.1-0.1,0.1c-0.1,0.1-0.3,0.2-0.5,0.2c-0.2,0.1-0.6,0.1-1,0.1h-2.4V34c0,0.2,0,0.4,0.1,0.4c0.1,0.1,0.2,0.1,0.4,0.1h4.3
		v1c0,0.2-0.1,0.3-0.2,0.4c-0.1,0.1-0.3,0.1-0.4,0.1h-4.3c-0.6,0-1-0.1-1.3-0.3c-0.2-0.2-0.3-0.6-0.3-1.2v-3.2c0-0.6,0.1-1,0.3-1.2
		c0.2-0.2,0.6-0.3,1.2-0.3h2.6c0.6,0,1.1-0.1,1.6-0.2v1.2c0,0.1,0,0.1-0.1,0.2c0,0.1-0.1,0.1-0.1,0.1c-0.1,0.1-0.2,0.2-0.5,0.3
		c-0.2,0.1-0.6,0.1-1,0.1H214.9z M216.5,40.6v0.6h6.6v1c0,0.2,0,0.3-0.1,0.4c-0.1,0.1-0.2,0.1-0.4,0.1h-6.4c-0.5,0-0.9-0.1-1.1-0.3
		c-0.2-0.2-0.3-0.6-0.3-1.2v-0.7c0-0.6,0.1-1,0.3-1.1c0.2-0.2,0.5-0.3,1.1-0.3h5v-0.7h-5.7c-0.2,0-0.3,0-0.4-0.1
		c-0.1-0.1-0.1-0.2-0.1-0.4V37h7.4c0.2,0,0.3,0.1,0.4,0.2c0.1,0.1,0.2,0.3,0.2,0.4V39c0,0.3,0,0.6-0.1,0.8c0,0.2-0.1,0.3-0.2,0.5
		c-0.1,0.1-0.2,0.2-0.4,0.3s-0.4,0.1-0.7,0.1H216.5z M221.6,31.9v1.6h-2.1c-0.1,0-0.2,0-0.3-0.1c-0.1-0.1-0.2-0.2-0.2-0.4v-1.1
		H221.6z M221.3,29.8c0-0.2,0.1-0.3,0.2-0.4c0.1-0.1,0.3-0.2,0.4-0.2h1.1v6.6c0,0.2-0.1,0.3-0.2,0.4c-0.1,0.1-0.2,0.2-0.3,0.2h-1.2
		V29.8z"/>
</g>
</svg>
