<svg width="35" height="24" viewBox="0 0 35 24" fill="none" xmlns="http://www.w3.org/2000/svg">
<path d="M15.2218 14.4604L16.4969 12.7429H15.0039C14.4516 12.7429 13.9093 12.8807 13.5153 13.2598L13.4027 13.4115V7.82758H11.8863C11.5313 7.82758 11.2415 8.1445 11.2415 8.53456V18.954H12.7579C13.1135 18.954 13.4027 18.6371 13.4027 18.2464V15.4746L14.631 17.1238L15.676 18.5298C15.8867 18.8187 16.1631 18.9534 16.4484 18.9534H18.564L17.1958 17.1177L15.2218 14.4604ZM21.2736 16.3516V12.7435H19.109V16.7953C19.109 18.0733 19.9149 18.954 21.0847 18.954H22.7494C23.1066 18.954 23.397 18.6371 23.397 18.2464V16.9873H21.8527C21.5339 16.9873 21.2736 16.702 21.2736 16.3516ZM23.7581 11.471L23.757 9.89977L23.6227 10.0546C23.6194 10.0588 23.2131 10.5123 22.0461 10.5123H21.2731V7.82758H19.7561C19.3994 7.82758 19.1085 8.1445 19.1085 8.53334V10.5123H16.5331C15.6632 10.5123 15.2541 10.8999 14.9403 11.3186L13.6741 13.0251C13.6741 13.0251 14.2727 12.4053 15.1516 12.4053H22.0466C22.8012 12.4053 23.319 12.2432 23.5854 11.9244C23.7749 11.6965 23.7587 11.4728 23.7581 11.471Z" fill="white"/>
<path d="M27.4 10.9C26.7888 4.74413 22.5188 1 17.5 1C12.7563 1 9.701 4.31375 8.7 7.6C4.575 8.0125 1 10.5968 1 15.3C1 19.8375 4.7125 23 9.25 23H27.125C30.9063 23 34 21.1135 34 16.95C34 12.8374 30.3563 11.054 27.4 10.9Z" stroke="white" stroke-width="2" stroke-linejoin="round"/>
</svg>
