<svg width="271" height="36" viewBox="0 0 271 36" fill="none" xmlns="http://www.w3.org/2000/svg">
<path d="M13.5726 21.0904L17.9207 15.6878H12.8296C10.9463 15.6878 9.0972 16.1211 7.75362 17.3136L7.36974 17.791V0.2258H2.19876C0.988206 0.2258 0 1.22273 0 2.44973V35.2258H5.17098C6.38343 35.2258 7.36974 34.2289 7.36974 33V24.2806L11.5582 29.4685L15.1215 33.8914C15.8398 34.8002 16.7824 35.2239 17.7554 35.2239H24.9693L20.3038 29.4493L13.5726 21.0904ZM34.209 27.0394V15.6898H26.8279V28.4352C26.8279 32.4555 29.5759 35.2258 33.5648 35.2258H39.2413C40.4594 35.2258 41.4496 34.2289 41.4496 33V29.0391H36.1836C35.0965 29.0391 34.209 28.1418 34.209 27.0394ZM42.681 11.6867L42.6772 6.7442L42.2192 7.23117C42.2078 7.24459 40.8224 8.67097 36.843 8.67097H34.2071V0.2258H29.0343C27.818 0.2258 26.826 1.22273 26.826 2.44589V8.67097H18.0443C15.0777 8.67097 13.6829 9.89029 12.6129 11.2074L8.29523 16.5755C8.29523 16.5755 10.3363 14.6257 13.3332 14.6257H36.8449C39.418 14.6257 41.1835 14.1158 42.0919 13.1131C42.738 12.396 42.6829 11.6924 42.681 11.6867Z" fill="white"/>
<path fill-rule="evenodd" clip-rule="evenodd" d="M63.5937 8.73422C64.3399 4.45907 67.0272 2.72986 71.2514 3.02305L102.287 2.39479C105.426 2.47556 108.128 1.67079 110.512 0.2258L106.939 26.5469C105.985 29.7869 103.639 32.0456 98.1455 32.0845L65.9778 32.1413C63.6591 32.3627 61.5455 33.3291 59.6816 35.2258L63.3113 11.4148L63.5937 8.73422Z" fill="white"/>
<path fill-rule="evenodd" clip-rule="evenodd" d="M93.8735 7.74099C92.1078 7.74099 90.7195 8.04016 89.7088 8.6385C88.6981 9.23684 87.937 10.0087 87.4287 10.9601C86.9204 11.9114 86.6023 12.9974 86.4715 14.215C86.3466 15.4327 86.2812 16.6593 86.2812 17.8859C86.2812 18.7834 86.2991 19.654 86.3377 20.4946C86.3734 21.3383 86.4804 22.1341 86.6499 22.876C86.8223 23.618 87.0869 24.3001 87.4436 24.9224C87.7973 25.5447 88.2789 26.0742 88.8883 26.514C89.5007 26.9537 90.2677 27.2978 91.1981 27.5431C92.1256 27.7914 93.2552 27.9171 94.584 27.9171C96.1328 27.9171 97.3992 27.8004 98.3802 27.573C99.3641 27.3427 100.134 26.9896 100.687 26.514C101.243 26.0383 101.626 25.4429 101.834 24.7159C102.043 23.992 102.15 23.1273 102.15 22.1191V19.9352C102.15 19.1663 102.102 18.4992 102.013 17.9427C101.921 17.3833 101.742 16.9285 101.481 16.5815C101.216 16.2345 100.836 15.9772 100.333 15.8156C99.8309 15.6511 99.1739 15.5673 98.3534 15.5673H95.6899C95.1875 15.5673 94.8367 15.6331 94.6256 15.7797C94.4205 15.9293 94.2303 16.2345 94.0638 16.6982L93.2463 18.9778H97.3695C97.7143 18.9778 97.9402 19.0616 98.0353 19.2381C98.1364 19.4116 98.1869 19.7617 98.1869 20.2942V22.4243C98.1869 22.8312 98.1513 23.1722 98.077 23.4564C98.0056 23.7407 97.8629 23.968 97.6548 24.1415C97.4438 24.3181 97.1495 24.4407 96.766 24.5125C96.3855 24.5843 95.8831 24.6232 95.2618 24.6232H93.9538C93.0977 24.6232 92.4229 24.4646 91.9324 24.1415C91.4419 23.8214 91.0703 23.3697 90.8235 22.7803C90.5798 22.1909 90.4222 21.4849 90.3568 20.6502C90.2944 19.8185 90.2617 18.8881 90.2617 17.8619C90.2617 16.8358 90.2944 15.9054 90.3568 15.0737C90.4222 14.239 90.5709 13.524 90.8087 12.9286C91.0465 12.3363 91.4003 11.8755 91.8729 11.5554C92.3456 11.2323 92.9936 11.0738 93.8111 11.0738H99.1085C99.8487 11.0738 100.238 10.987 100.642 10.8165C100.946 10.6908 101.192 10.4246 101.368 9.9399L102.182 7.74398L102.355 7.30121C101.62 7.57944 100.425 7.74398 99.3582 7.74398H93.8735V7.74099Z" fill="#101320"/>
<path fill-rule="evenodd" clip-rule="evenodd" d="M80.3564 19.7646C80.8201 21.0481 80.7428 23.226 79.6489 24.1774C78.0912 25.2574 74.732 25.4878 73.0257 24.677C71.6642 24.0308 71.2361 23.8752 70.9953 25.6583C70.7902 27.1781 71.4799 27.7555 72.8414 28.2042C74.7855 28.8445 77.6631 28.8205 79.6102 28.1773C82.1608 27.2798 84.1406 25.4549 84.3517 22.6187C84.4676 21.0421 84.429 18.6637 83.4094 17.3832C81.6792 15.3249 80.1067 14.6937 77.4639 14.6757C77.0715 14.6757 75.2493 14.7326 75.1185 14.3467C74.9906 13.853 74.9877 10.7446 75.1452 10.2869C75.5198 9.44324 76.4711 9.65566 77.241 9.69455C77.9009 9.72147 82.14 9.7843 82.4373 9.65266C83.2161 9.31161 84.5866 6.58317 83.7928 6.30494C83.5372 6.21519 80.8707 6.31392 80.3653 6.3199C78.3587 6.34383 76.2986 6.33486 74.301 6.3917C72.6184 6.44256 71.9347 7.32811 71.8782 8.96756C71.792 11.5883 71.7296 14.218 71.6523 16.8387C71.6255 17.7632 71.8961 18.4513 72.9573 18.4064C73.531 18.3825 74.2683 18.0624 74.9223 17.9606C76.7862 17.6764 79.527 17.6764 80.3564 19.7646Z" fill="#101320"/>
<line x1="122.371" y1="2.4516" x2="122.371" y2="32.4516" stroke="#747579"/>
<path d="M135 29.9794V6.66871C135 6.41119 135.1 6.17428 135.31 5.95796C135.52 5.74164 135.79 5.63863 136.12 5.63863H138.5C138.75 5.63863 138.94 5.65924 139.06 5.70044C139.18 5.74164 139.29 5.81375 139.37 5.89615C139.45 5.97856 139.54 6.09187 139.62 6.21548C139.71 6.34939 139.79 6.4627 139.88 6.5451L145.5 16.5884C145.5 16.6708 145.56 16.7635 145.69 16.8459C145.81 16.9283 145.96 16.9695 146.13 16.9695C146.21 16.9695 146.32 16.9283 146.44 16.8459C146.56 16.7635 146.67 16.6708 146.75 16.5884L152.37 6.92623C152.62 6.58631 152.93 6.28758 153.31 6.01976C153.69 5.75194 154.12 5.62833 154.62 5.62833H157.12V28.9287C157.12 29.1862 157.01 29.4231 156.81 29.6395C156.6 29.8558 156.37 29.9588 156.12 29.9588H153.5V11.6955L149.75 18.2674C149.33 18.9575 148.81 19.555 148.19 20.07C147.57 20.5851 146.88 20.8426 146.13 20.8426C145.38 20.8426 144.69 20.6263 144.07 20.2039C143.45 19.7713 142.96 19.2151 142.63 18.5352L138.5 11.1805V28.9493C138.5 29.2068 138.42 29.4437 138.25 29.6601C138.08 29.8764 137.83 29.9794 137.5 29.9794H135Z" fill="white"/>
<path d="M167.38 9.24392C166.96 9.24392 166.59 9.41904 166.26 9.75896C165.93 10.0989 165.76 10.5315 165.76 11.0466V15.8055H177.38V18.2571C177.38 18.597 177.27 18.8855 177.07 19.0915C176.85 19.3181 176.58 19.4211 176.25 19.4211H165.75V24.5715C165.75 25.0865 165.92 25.5192 166.25 25.8591C166.58 26.199 166.96 26.3741 167.37 26.3741H178V28.8257C178 29.1656 177.89 29.4541 177.69 29.6601C177.48 29.8764 177.21 29.9794 176.88 29.9794H166.88C166.21 29.9794 165.59 29.8558 165 29.588C164.42 29.3305 163.92 28.9905 163.5 28.5579C163.08 28.1253 162.75 27.6411 162.5 27.0746C162.25 26.5183 162.12 25.9003 162.12 25.2101V10.4079C162.12 9.81047 162.24 9.20272 162.5 8.60527C162.75 8.00783 163.08 7.49279 163.5 7.06016C163.92 6.62752 164.42 6.2876 165 6.03008C165.58 5.77256 166.21 5.63865 166.88 5.63865H174.5C175.75 5.63865 176.92 5.42233 178 5V7.83272C178 8.17264 177.88 8.43016 177.62 8.60527C177.37 8.78039 177.04 8.904 176.62 8.9967C176.2 9.17182 175.81 9.25422 175.43 9.25422C175.05 9.25422 174.74 9.25422 174.49 9.25422H167.38V9.24392Z" fill="white"/>
<path d="M187.75 9.24392C187.33 9.24392 186.96 9.41904 186.63 9.75896C186.3 10.0989 186.13 10.5315 186.13 11.0466V24.5715C186.13 25.0865 186.3 25.5192 186.63 25.8591C186.96 26.199 187.34 26.3741 187.75 26.3741H198.37V28.8257C198.37 29.1656 198.26 29.4541 198.06 29.6601C197.85 29.8764 197.58 29.9794 197.25 29.9794H187.25C186.58 29.9794 185.96 29.8558 185.37 29.588C184.79 29.3305 184.29 28.9905 183.87 28.5579C183.45 28.1253 183.12 27.6411 182.87 27.0746C182.62 26.5183 182.49 25.9003 182.49 25.2101V10.4079C182.49 9.81047 182.61 9.20272 182.87 8.60527C183.12 8.00783 183.45 7.49279 183.87 7.06016C184.29 6.62752 184.79 6.2876 185.37 6.03008C185.95 5.77256 186.58 5.63865 187.25 5.63865H194.87C196.12 5.63865 197.29 5.42233 198.37 5V7.83272C198.37 8.17264 198.25 8.43016 197.99 8.60527C197.74 8.78039 197.41 8.904 196.99 8.9967C196.57 9.17182 196.18 9.25422 195.8 9.25422C195.42 9.25422 195.11 9.25422 194.86 9.25422H187.75V9.24392Z" fill="white"/>
<path d="M213.62 11.0569V14.0235C213.62 14.5385 213.79 14.9712 214.12 15.3111C214.45 15.651 214.87 15.8261 215.37 15.8261H222.49C223.16 15.8261 223.78 15.9497 224.37 16.2176C224.95 16.4751 225.45 16.815 225.87 17.2476C226.29 17.7627 226.62 18.2983 226.87 18.8546C227.12 19.4108 227.25 20.0391 227.25 20.719V25.2307C227.25 25.9209 227.13 26.5389 226.87 27.0952C226.62 27.6514 226.29 28.1459 225.87 28.5785C225.45 29.0111 224.95 29.351 224.37 29.6086C223.79 29.8661 223.16 30 222.49 30H210.75V27.5484C210.75 27.2085 210.85 26.9304 211.06 26.7141C211.27 26.4977 211.54 26.3947 211.87 26.3947H221.87C222.37 26.3947 222.81 26.2196 223.18 25.8797C223.56 25.5398 223.74 25.1071 223.74 24.5921V21.2443C223.74 20.7293 223.55 20.2967 223.18 19.9567C222.81 19.5962 222.42 19.4211 222 19.4211H214.75C214.08 19.4211 213.48 19.2975 212.94 19.0297C212.4 18.7721 211.92 18.4322 211.5 17.9996C211 17.567 210.64 17.0519 210.44 16.4545C210.23 15.857 210.13 15.2081 210.13 14.5179V10.3976C210.13 9.80016 210.23 9.19242 210.44 8.59497C210.64 8.00783 211 7.49279 211.5 7.06016C211.92 6.62752 212.39 6.2876 212.94 6.03008C213.48 5.77256 214.08 5.63865 214.75 5.63865H222.37C223.62 5.63865 224.83 5.42233 225.99 5V7.83272C225.99 8.17264 225.84 8.43016 225.55 8.60527C225.26 8.78039 224.9 8.904 224.49 8.9967C224.16 9.07911 223.78 9.15122 223.37 9.19242C222.95 9.23362 222.62 9.25422 222.37 9.25422H215.37C214.87 9.25422 214.45 9.42934 214.12 9.76926C213.79 10.1092 213.62 10.5418 213.62 11.0569Z" fill="white"/>
<path d="M248.5 25.2101C248.5 25.9003 248.38 26.5183 248.12 27.0746C247.87 27.6308 247.5 28.1252 247 28.5579C246.58 28.9905 246.08 29.3304 245.5 29.588C244.92 29.8455 244.33 29.9794 243.75 29.9794H231.38V5.63864H243.76C244.34 5.63864 244.93 5.76225 245.51 6.03007C246.09 6.28759 246.59 6.62752 247.01 7.06015C247.51 7.49278 247.89 8.00782 248.13 8.60527C248.38 9.20271 248.51 9.81046 248.51 10.4079V25.2101H248.5ZM243.12 26.3741C243.62 26.3741 244.06 26.199 244.43 25.8591C244.81 25.5192 245 25.0865 245 24.5715V11.0569C245 10.6242 244.81 10.2225 244.44 9.83106C244.07 9.43963 243.63 9.25422 243.13 9.25422H234.88V26.3741H243.12Z" fill="white"/>
<path d="M259.25 5.63864H265.75C266.33 5.63864 266.92 5.76225 267.5 6.03007C268.08 6.28759 268.58 6.62752 269 7.06015C269.42 7.49278 269.75 7.96662 270 8.48166C270.25 8.9967 270.38 9.55294 270.38 10.1504V16.3309C270.38 17.6185 269.96 18.7309 269.13 19.6786C268.3 20.6263 267.21 21.1001 265.88 21.1001H256.88V28.8257C256.88 29.1656 256.76 29.4541 256.5 29.6601C256.25 29.8764 256 29.9794 255.75 29.9794H253.37V5.63864H255.62C255.87 5.63864 256.08 5.67984 256.24 5.76225C256.41 5.84466 256.53 5.97857 256.62 6.15368C257.04 5.97857 257.45 5.85496 257.87 5.76225C258.29 5.69015 258.75 5.63864 259.25 5.63864ZM267 15.9394V10.6654C267 10.2328 266.85 9.87226 266.56 9.57354C266.27 9.27482 265.88 9.12031 265.38 9.12031H258.63C258.13 9.12031 257.71 9.31602 257.38 9.69715C257.05 10.0886 256.88 10.5315 256.88 11.0466V17.4845H265.5C266 17.4845 266.38 17.3609 266.62 17.0931C266.86 16.8253 267 16.4545 267 15.9394Z" fill="white"/>
</svg>
