{
	"nsd":{
		"nsdIdentifier":"26bb4cc5-b04b-4b6d-8fad-f15a39db97ce",
		"designer":"KT",
		"version":"1.0.0.0",
		"nsdName":"5G PyeongChang",
		"vnfdId":[
			"26bb4cc5-b04b-4b6d-8fad-f15a39db97c1",
			"26bb4cc5-b04b-4b6d-8fad-f15a39db97c2"
		],
		"autoScalingRule":[
			"SCALE-001-0001"
		],
		"nsDf":[
			{
				"nsDfId":"26bb4cc5-b04b-4b6d-8fad-f15a39db97b4",
				"vnfProfile":[
					{
						"vnfProfileId":"26bb4cc5-b04b-4b6d-8fad-f15a39db97b5",
						"vnfdId":"26bb4cc5-b04b-4b6d-8fad-f15a39db97b6",
						"flavourId":"26bb4cc5-b04b-4b6d-8fad-f15a39db97b7",
						"minNumberOfInstances":1,
						"maxNumberOfInstances":100,
						"localAffinityOrAntiAffinityRule":[
							{
								"affinityOrAntiAffinity":"affinity",
								"scope":"NFVI-node"
							}
						]
					}
				],
				"dependencies":[
					{
						"primaryId":[
							"26bb4cc5-b04b-4b6d-8fad-f15a39db97ab"
						],
						"secondaryId":[
							"26bb4cc5-b04b-4b6d-8fad-f15a39db97ac"
						]
					}
				]
			}
		]
	},
	"userDefinedData":[
		{
			"key1":"value1",
			"key2":"value2",
			"key3":"value3"
		}
	]
}