<svg width="14" height="14" viewBox="0 0 14 14" fill="none" xmlns="http://www.w3.org/2000/svg">
<path d="M6.33747 9.02499H3.96771C3.82747 9.02499 3.71391 9.15992 3.71391 9.32654V13.698C3.71391 13.8647 3.82747 13.9996 3.96771 13.9996H6.33747C6.47771 13.9996 6.5911 13.8647 6.5911 13.698V9.32634C6.5911 9.15972 6.47754 9.02499 6.33747 9.02499Z" fill="#CCCCCC"/>
<path d="M10.0324 -0.000488281H7.66268C7.52244 -0.000488281 7.40887 0.13444 7.40887 0.301057V13.6978C7.40887 13.8644 7.52244 13.9993 7.66268 13.9993H10.0324C10.1727 13.9993 10.2862 13.8644 10.2862 13.6978V0.301057C10.2862 0.13444 10.1727 -0.000488281 10.0324 -0.000488281Z" fill="#CCCCCC"/>
<path d="M13.7463 4.0694H11.3766C11.2363 4.0694 11.1228 4.20432 11.1228 4.37094V13.6977C11.1228 13.8643 11.2363 13.9993 11.3766 13.9993H13.7462C13.8864 13.9993 14 13.8643 14 13.6977V4.37094C14 4.20452 13.8864 4.0694 13.7463 4.0694Z" fill="#CCCCCC"/>
<path d="M2.62356 4.0694H0.253801C0.113565 4.0694 0 4.20432 0 4.37094V13.6977C0 13.8643 0.113565 13.9993 0.253801 13.9993H2.62356C2.7638 13.9993 2.87736 13.8643 2.87736 13.6977V4.37094C2.87736 4.20452 2.7638 4.0694 2.62356 4.0694Z" fill="#CCCCCC"/>
</svg>
