<?xml version="1.0" encoding="utf-8"?>
<!-- Generator: Adobe Illustrator 21.1.0, SVG Export Plug-In . SVG Version: 6.00 Build 0)  -->
<svg version="1.1" id="Layer_1" xmlns="http://www.w3.org/2000/svg" xmlns:xlink="http://www.w3.org/1999/xlink" x="0px" y="0px"
	 viewBox="0 0 80 80" style="enable-background:new 0 0 80 80;" xml:space="preserve">
<style type="text/css">
	.st0{fill:#666666;}
	.st1{fill:#F8F9F7;}
	.st2{fill:#E6E6E6;}
	.st3{fill:#1A1A1A;}
	.st4{fill:#F8F8F8;}
	.st5{fill:none;stroke:#F8F8F8;stroke-width:2;stroke-miterlimit:10;}
	.st6{fill:none;stroke:#F8F9F7;stroke-miterlimit:10;}
	.st7{fill:#F4B322;}
	.st8{fill:#70B548;}
	.st9{fill:#E84343;}
	.st10{fill:#F46219;}
	.st11{fill:#A86B42;}
	.st12{fill:#600E87;}
	.st13{fill:#D76AEA;}
	.st14{fill:#2E74E5;}
	.st15{fill:#0943a0;}
	.st16{fill:#B2A938;}
	.st17{fill:#494318;}
</style>
<g>
	<g>
		<path class="st15" d="M75,80H5c-2.8,0-5-2.3-5-5V5c0-2.8,2.3-5,5-5h70c2.8,0,5,2.3,5,5v70C80,77.8,77.8,80,75,80z"/>
	</g>
	<g>
		<path class="st1" d="M15.6,60.6c-0.2,0-0.4,0.1-0.5,0.2c-0.2,0.2-0.2,0.4-0.2,0.6v6.2c0,0.2,0.1,0.4,0.2,0.6
			c0.2,0.2,0.3,0.2,0.5,0.2h5v1.1c0,0.2,0,0.3-0.1,0.4C20.4,70,20.2,70,20.1,70h-4.7c-0.3,0-0.6-0.1-0.9-0.2
			c-0.3-0.1-0.5-0.3-0.7-0.5c-0.2-0.2-0.4-0.4-0.5-0.7c-0.1-0.3-0.2-0.5-0.2-0.8v-6.7c0-0.3,0.1-0.5,0.2-0.8
			c0.1-0.3,0.3-0.5,0.5-0.7c0.2-0.2,0.4-0.4,0.7-0.5c0.3-0.1,0.6-0.2,0.9-0.2H19c0.6,0,1.1-0.1,1.6-0.3v1.3c0,0.2-0.1,0.3-0.2,0.4
			c-0.1,0.1-0.3,0.1-0.5,0.2c-0.2,0.1-0.4,0.1-0.6,0.1c-0.2,0-0.3,0-0.4,0H15.6z"/>
		<path class="st1" d="M23.8,64c0-0.1,0-0.2,0.1-0.3c0.1-0.1,0.2-0.1,0.4-0.1h7.3v1.1c0,0.2,0,0.3-0.1,0.4c-0.1,0.1-0.2,0.1-0.3,0.1
			h-7.4V64z"/>
		<path class="st1" d="M36.1,61.4v1.3c0,0.2,0.1,0.4,0.2,0.6c0.2,0.2,0.4,0.2,0.6,0.2h3.3c0.3,0,0.6,0.1,0.9,0.2
			c0.3,0.1,0.5,0.3,0.7,0.5c0.2,0.2,0.4,0.5,0.5,0.7c0.1,0.3,0.2,0.5,0.2,0.8v2.1c0,0.3-0.1,0.6-0.2,0.8c-0.1,0.3-0.3,0.5-0.5,0.7
			c-0.2,0.2-0.4,0.4-0.7,0.5C40.9,70,40.6,70,40.2,70h-5.5v-1.1c0-0.2,0-0.3,0.1-0.4c0.1-0.1,0.2-0.1,0.4-0.1H40
			c0.2,0,0.4-0.1,0.6-0.2c0.2-0.2,0.3-0.4,0.3-0.6V66c0-0.2-0.1-0.4-0.3-0.6c-0.2-0.2-0.4-0.2-0.6-0.2h-3.4c-0.3,0-0.6-0.1-0.8-0.2
			c-0.3-0.1-0.5-0.3-0.7-0.5c-0.2-0.2-0.4-0.4-0.5-0.7c-0.1-0.3-0.1-0.6-0.1-0.9v-1.9c0-0.3,0-0.5,0.1-0.8c0.1-0.3,0.3-0.5,0.5-0.7
			c0.2-0.2,0.4-0.4,0.7-0.5c0.3-0.1,0.5-0.2,0.8-0.2h3.6c0.6,0,1.2-0.1,1.7-0.3v1.3c0,0.2-0.1,0.3-0.2,0.4c-0.1,0.1-0.3,0.1-0.5,0.2
			c-0.2,0-0.3,0.1-0.5,0.1c-0.2,0-0.4,0-0.5,0h-3.3c-0.2,0-0.4,0.1-0.6,0.2C36.2,61,36.1,61.2,36.1,61.4z"/>
		<path class="st1" d="M49.7,63.6H52c0.7,0,1.2,0.2,1.5,0.5c0.3,0.3,0.5,0.7,0.5,1.3v2.6c0,0.3-0.1,0.5-0.2,0.8
			c-0.1,0.3-0.3,0.5-0.5,0.7c-0.2,0.2-0.4,0.4-0.7,0.5C52.3,70,52,70,51.8,70H48c-0.3,0-0.6-0.1-0.8-0.2c-0.3-0.1-0.5-0.3-0.7-0.5
			c-0.2-0.2-0.3-0.5-0.4-0.8c-0.1-0.3-0.1-0.6-0.1-0.9V61c0-0.3,0.1-0.5,0.2-0.8c0.1-0.3,0.3-0.5,0.5-0.7c0.2-0.2,0.4-0.4,0.7-0.5
			c0.3-0.1,0.5-0.2,0.8-0.2h3.8c0.5,0,1-0.1,1.5-0.3V60c0,0.1-0.1,0.2-0.2,0.3c-0.1,0.1-0.3,0.1-0.4,0.2c-0.2,0-0.3,0.1-0.5,0.1
			c-0.2,0-0.3,0-0.4,0h-3.5c-0.2,0-0.4,0.1-0.5,0.2c-0.2,0.2-0.2,0.3-0.2,0.5v6.2c0,0.3,0.1,0.5,0.2,0.6c0.2,0.2,0.3,0.2,0.5,0.2h3
			c0.3,0,0.5-0.1,0.7-0.3c0.2-0.2,0.3-0.4,0.3-0.6v-1.6c0-0.2-0.1-0.3-0.2-0.5c-0.1-0.2-0.3-0.2-0.5-0.2h-1.5
			c-0.2,0-0.3-0.1-0.4-0.2c-0.1-0.1-0.1-0.3-0.1-0.4V63.6z"/>
		<path class="st1" d="M63.8,66.7v-6.2c0-0.5,0.1-0.9,0.2-1.2c0.1-0.3,0.3-0.5,0.6-0.5h1.2c-0.2,0.5-0.4,1-0.4,1.6v8.7
			c0,0.3-0.1,0.5-0.2,0.6c-0.1,0.1-0.3,0.2-0.6,0.2h-0.9l-4.7-7.8v7.2c0,0.2,0,0.3-0.1,0.4C58.8,70,58.7,70,58.5,70h-1.1V59.7
			c0-0.2,0.1-0.4,0.2-0.6c0.1-0.1,0.3-0.2,0.5-0.2h1L63.8,66.7z"/>
	</g>
	<g>
		<g>
			<path class="st4" d="M49.9,28.5l-1.4-0.3c-0.3-0.1-0.5-0.3-0.6-0.6c-0.1-0.4-0.3-0.8-0.5-1.2c-0.1-0.3-0.1-0.6,0.1-0.8l0.9-1.2
				c0.2-0.3,0.2-0.7-0.1-1L46.8,22c-0.3-0.3-0.7-0.3-1-0.1l-1.2,0.8c-0.2,0.2-0.6,0.2-0.8,0c-0.4-0.2-0.8-0.4-1.2-0.5
				c-0.3-0.1-0.5-0.3-0.5-0.6l-0.2-1.5c-0.1-0.4-0.4-0.6-0.7-0.6l-2,0c-0.4,0-0.7,0.3-0.7,0.6l-0.2,1.4c-0.1,0.3-0.3,0.5-0.6,0.6
				c-0.4,0.1-0.8,0.3-1.2,0.5c-0.3,0.1-0.6,0.1-0.8-0.1l-1.2-0.9c-0.3-0.2-0.7-0.2-1,0.1l-0.7,0.7L32,23.2c-0.3,0.3-0.3,0.7-0.1,1
				l0.8,1.2c0.2,0.2,0.2,0.6,0,0.8c-0.2,0.4-0.4,0.8-0.5,1.2c-0.1,0.3-0.3,0.5-0.6,0.6l-1.5,0.2c-0.4,0.1-0.6,0.4-0.6,0.7l0,2
				c0,0.4,0.3,0.7,0.6,0.7l1.4,0.3c0.3,0.1,0.5,0.3,0.6,0.6c0.1,0.4,0.3,0.8,0.5,1.2c0.1,0.3,0.1,0.6-0.1,0.8l-0.9,1.2
				c-0.2,0.3-0.2,0.7,0.1,1l0.7,0.7l0.7,0.7c0.3,0.3,0.7,0.3,1,0.1l1.2-0.9c0.2-0.2,0.6-0.2,0.8,0c0.4,0.2,0.8,0.4,1.2,0.5
				c0.3,0.1,0.5,0.3,0.5,0.6l0.2,1.5c0.1,0.4,0.4,0.6,0.7,0.6l2,0c0.4,0,0.7-0.3,0.7-0.6l0.3-1.4c0.1-0.3,0.3-0.5,0.6-0.6
				c0.4-0.1,0.8-0.3,1.2-0.5c0.3-0.1,0.6-0.1,0.8,0.1l1.2,0.9c0.3,0.2,0.7,0.2,1-0.1l0.7-0.7l0.7-0.7c0.3-0.3,0.3-0.7,0.1-1
				l-0.9-1.2c-0.2-0.2-0.2-0.6,0-0.8c0.2-0.4,0.4-0.8,0.5-1.2c0.1-0.3,0.3-0.5,0.6-0.5l1.5-0.2c0.4-0.1,0.6-0.4,0.6-0.7l0-2
				C50.5,28.9,50.3,28.6,49.9,28.5L49.9,28.5z M43.1,33.1c-1.7,1.7-4.4,1.7-6.1,0c-1.7-1.7-1.7-4.4,0-6.1c1.7-1.7,4.4-1.7,6.1,0
				C44.8,28.7,44.8,31.4,43.1,33.1L43.1,33.1z M43.1,33.1"/>
		</g>
		<g>
			<g>
				<g>
					<polygon class="st1" points="62.9,9 56.3,9.8 58,11.6 58,11.6 58.4,11.9 60,13.5 60.4,13.9 60.4,13.9 62.1,15.6 					"/>
				</g>
				<g>
					<rect x="51" y="14.8" transform="matrix(0.7071 -0.7071 0.7071 0.7071 5.2362 44.2906)" class="st1" width="10.3" height="2"/>
				</g>
			</g>
			<g>
				<g>
					<polygon class="st1" points="16.5,9 23,9.8 21.3,11.6 21.3,11.6 21,11.9 19.4,13.5 19,13.9 19,13.9 17.3,15.6 					"/>
				</g>
				<g>
					
						<rect x="22.3" y="10.7" transform="matrix(0.7071 -0.7071 0.7071 0.7071 -4.3687 21.1027)" class="st1" width="2" height="10.3"/>
				</g>
			</g>
			<g>
				<g>
					<polygon class="st1" points="62.9,50.2 56.3,49.4 58,47.7 58,47.7 58.4,47.3 60,45.7 60.4,45.3 60.4,45.3 62.1,43.6 					"/>
				</g>
				<g>
					
						<rect x="55.1" y="38.3" transform="matrix(0.7072 -0.7071 0.7071 0.7072 -14.2517 52.3577)" class="st1" width="2" height="10.3"/>
				</g>
			</g>
			<g>
				<g>
					<polygon class="st1" points="16.5,50.2 23,49.4 21.3,47.7 21.3,47.7 21,47.3 19.4,45.7 19,45.3 19,45.3 17.3,43.6 					"/>
				</g>
				<g>
					
						<rect x="18.2" y="42.4" transform="matrix(0.7071 -0.7071 0.7071 0.7071 -23.8556 29.1722)" class="st1" width="10.3" height="2"/>
				</g>
			</g>
		</g>
	</g>
</g>
</svg>
