<?xml version="1.0" encoding="utf-8"?>
<!-- Generator: Adobe Illustrator 21.1.0, SVG Export Plug-In . SVG Version: 6.00 Build 0)  -->
<svg version="1.1" id="Layer_1" xmlns="http://www.w3.org/2000/svg" xmlns:xlink="http://www.w3.org/1999/xlink" x="0px" y="0px"
	 viewBox="0 0 80 80" style="enable-background:new 0 0 80 80;" xml:space="preserve">
<style type="text/css">
	.st0{fill:#666666;}
	.st1{fill:#F8F9F7;}
	.st2{fill:#E6E6E6;}
	.st3{fill:#1A1A1A;}
	.st4{fill:#F8F8F8;}
	.st5{fill:none;stroke:#F8F8F8;stroke-width:2;stroke-miterlimit:10;}
	.st6{fill:none;stroke:#F8F9F7;stroke-miterlimit:10;}
	.st7{fill:#F4B322;}
	.st8{fill:#70B548;}
	.st9{fill:#E84343;}
	.st10{fill:#F46219;}
	.st11{fill:#A86B42;}
	.st12{fill:#600E87;}
	.st13{fill:#D76AEA;}
	.st14{fill:#2E74E5;}
	.st15{fill:#063163;}
	.st16{fill:#B2A938;}
	.st17{fill:#494318;}
</style>
<g>
	<g>
		<path class="st7" d="M75,80H5c-2.8,0-5-2.3-5-5V5c0-2.8,2.3-5,5-5h70c2.8,0,5,2.3,5,5v70C80,77.8,77.8,80,75,80z"/>
	</g>
	<g>
		<path class="st1" d="M22.5,61.1c-0.2,0-0.4,0.1-0.5,0.2c-0.2,0.2-0.2,0.4-0.2,0.6V68c0,0.2,0.1,0.4,0.2,0.6
			c0.2,0.2,0.3,0.2,0.5,0.2h5V70c0,0.2,0,0.3-0.1,0.4c-0.1,0.1-0.2,0.1-0.4,0.1h-4.7c-0.3,0-0.6-0.1-0.9-0.2
			c-0.3-0.1-0.5-0.3-0.7-0.5c-0.2-0.2-0.4-0.4-0.5-0.7c-0.1-0.3-0.2-0.5-0.2-0.8v-6.7c0-0.3,0.1-0.5,0.2-0.8
			c0.1-0.3,0.3-0.5,0.5-0.7c0.2-0.2,0.4-0.4,0.7-0.5c0.3-0.1,0.6-0.2,0.9-0.2h3.6c0.6,0,1.1-0.1,1.6-0.3v1.3c0,0.2-0.1,0.3-0.2,0.4
			c-0.1,0.1-0.3,0.1-0.5,0.2c-0.2,0.1-0.4,0.1-0.6,0.1c-0.2,0-0.3,0-0.4,0H22.5z"/>
		<path class="st1" d="M32.2,61.9v1.3c0,0.2,0.1,0.4,0.2,0.6c0.2,0.2,0.4,0.2,0.6,0.2h3.3c0.3,0,0.6,0.1,0.9,0.2
			c0.3,0.1,0.5,0.3,0.7,0.5c0.2,0.2,0.4,0.5,0.5,0.7s0.2,0.5,0.2,0.8v2.1c0,0.3-0.1,0.6-0.2,0.8s-0.3,0.5-0.5,0.7
			c-0.2,0.2-0.4,0.4-0.7,0.5c-0.3,0.1-0.6,0.2-0.9,0.2h-5.5v-1.1c0-0.2,0-0.3,0.1-0.4c0.1-0.1,0.2-0.1,0.4-0.1h4.7
			c0.2,0,0.4-0.1,0.6-0.2c0.2-0.2,0.3-0.4,0.3-0.6v-1.5c0-0.2-0.1-0.4-0.3-0.6c-0.2-0.2-0.4-0.2-0.6-0.2h-3.4
			c-0.3,0-0.6-0.1-0.8-0.2c-0.3-0.1-0.5-0.3-0.7-0.5c-0.2-0.2-0.4-0.4-0.5-0.7c-0.1-0.3-0.1-0.6-0.1-0.9v-1.9c0-0.3,0-0.5,0.1-0.8
			c0.1-0.3,0.3-0.5,0.5-0.7c0.2-0.2,0.4-0.4,0.7-0.5c0.3-0.1,0.5-0.2,0.8-0.2h3.6c0.6,0,1.2-0.1,1.7-0.3v1.3c0,0.2-0.1,0.3-0.2,0.4
			c-0.1,0.1-0.3,0.1-0.5,0.2C37.2,61,37,61,36.8,61c-0.2,0-0.4,0-0.5,0h-3.3c-0.2,0-0.4,0.1-0.6,0.2C32.3,61.4,32.2,61.6,32.2,61.9z
			"/>
		<path class="st1" d="M44.5,61.1c-0.2,0-0.4,0.1-0.5,0.2c-0.2,0.2-0.2,0.4-0.2,0.6V68c0,0.2,0.1,0.4,0.2,0.6
			c0.2,0.2,0.3,0.2,0.5,0.2h5V70c0,0.2,0,0.3-0.1,0.4c-0.1,0.1-0.2,0.1-0.4,0.1h-4.7c-0.3,0-0.6-0.1-0.9-0.2
			c-0.3-0.1-0.5-0.3-0.7-0.5c-0.2-0.2-0.4-0.4-0.5-0.7s-0.2-0.5-0.2-0.8v-6.7c0-0.3,0.1-0.5,0.2-0.8c0.1-0.3,0.3-0.5,0.5-0.7
			c0.2-0.2,0.4-0.4,0.7-0.5c0.3-0.1,0.6-0.2,0.9-0.2h3.6c0.6,0,1.1-0.1,1.6-0.3v1.3c0,0.2-0.1,0.3-0.2,0.4c-0.1,0.1-0.3,0.1-0.5,0.2
			c-0.2,0.1-0.4,0.1-0.6,0.1c-0.2,0-0.3,0-0.4,0H44.5z"/>
		<path class="st1" d="M54.7,70c0,0.1,0,0.2-0.1,0.4c-0.1,0.1-0.2,0.2-0.4,0.2H53v-8.9c0-0.3,0.1-0.5,0.2-0.8
			c0.1-0.3,0.3-0.5,0.5-0.7c0.2-0.2,0.4-0.4,0.7-0.5c0.3-0.1,0.6-0.2,0.9-0.2h3.6c0.6,0,1.1-0.1,1.6-0.3v1.3c0,0.2-0.1,0.3-0.2,0.4
			c-0.1,0.1-0.3,0.1-0.5,0.2c-0.2,0.1-0.4,0.1-0.6,0.1c-0.2,0-0.3,0-0.4,0h-3.3c-0.2,0-0.4,0.1-0.5,0.2c-0.2,0.2-0.2,0.4-0.2,0.6V64
			h5.4v1.1c0,0.2,0,0.3-0.1,0.4c-0.1,0.1-0.2,0.1-0.4,0.1h-4.9V70z"/>
	</g>
	<g>
		<g>
			<path class="st1" d="M35.3,38.1L35.3,38.1c-2.1,0.2-5.6,0.3-7.6,0.2c-2.1-0.1-8.7-1-8.7-1v13c0,0,4.5,0.7,9,1
				c4,0.2,8-0.1,8.3-0.1c2-0.4,3-2.2,3-2.2V36.3C37.6,37.6,36.2,38,35.3,38.1z M31.4,39.1h2.8v2h-2.8V39.1z M24.2,50.2h-2.8v-2h2.8
				V50.2z M24.2,41.1h-2.8v-2h2.8V41.1z M29.2,50.2h-2.8v-2h2.8V50.2z M29.2,41.1h-2.8v-2h2.8V41.1z M34.2,50.2h-2.8v-2h2.8V50.2z"
				/>
		</g>
		<g>
			<path class="st1" d="M34,32.6c-2.3,0.4-3.9,1.7-3.7,2.9c0.2,1.2,2.2,1.8,4.5,1.4c2.3-0.4,3.9-1.7,3.7-2.9
				C38.3,32.8,36.3,32.2,34,32.6z M34.6,35.8c-1.1,0.2-2.1-0.1-2.2-0.7c-0.1-0.6,0.7-1.2,1.8-1.4c1.1-0.2,2.1,0.1,2.2,0.7
				C36.6,35,35.8,35.6,34.6,35.8z"/>
		</g>
	</g>
	<g>
		<g>
			<g>
				<ellipse class="st1" cx="47.2" cy="47.5" rx="4.8" ry="4.2"/>
			</g>
		</g>
		<g>
			<g>
				<rect x="46.7" y="42" transform="matrix(0.1817 -0.9834 0.9834 0.1817 1.2325 86.4088)" class="st1" width="11.7" height="1"/>
			</g>
		</g>
		<g>
			<g>
				<path class="st1" d="M53.2,35.4c0,0,9,0.9,6.2,8.7c-0.1,0.4,0.1-1.1-1-3.2c-0.8-1.6-3.3-3.1-5.6-2.6L53.2,35.4z"/>
			</g>
		</g>
	</g>
	<g>
		<polygon class="st1" points="40.3,12.5 35.6,8.8 35.6,11 35.6,11 35.6,11.5 35.6,13.6 35.6,14 35.6,14 35.6,16.3 		"/>
	</g>
	<g>
		<polygon class="st1" points="39,26.4 43.7,22.7 43.7,24.9 43.7,24.9 43.7,25.4 43.7,27.4 43.7,27.9 43.7,27.9 43.7,30.1 		"/>
	</g>
	<g>
		<path class="st1" d="M59.7,27.4H41.9v-2h17.7c3.4,0,6.1-2.7,6.1-6.1s-2.7-6.1-6.1-6.1H47.1v-2h12.6c4.5,0,8.1,3.6,8.1,8.1
			C67.8,23.8,64.2,27.4,59.7,27.4z"/>
	</g>
	<g>
		<path class="st1" d="M33.5,27.8H18.9c-4.5,0-8.1-3.6-8.1-8.1c0-4.5,3.6-8.1,8.1-8.1h19.1v2H18.9c-3.4,0-6.1,2.7-6.1,6.1
			c0,3.4,2.7,6.1,6.1,6.1h14.7V27.8z"/>
	</g>
</g>
</svg>
