<?xml version="1.0" encoding="utf-8"?>
<!-- Generator: Adobe Illustrator 21.1.0, SVG Export Plug-In . SVG Version: 6.00 Build 0)  -->
<svg version="1.1" id="Layer_1" xmlns="http://www.w3.org/2000/svg" xmlns:xlink="http://www.w3.org/1999/xlink" x="0px" y="0px"
	 viewBox="0 0 80 80" style="enable-background:new 0 0 80 80;" xml:space="preserve">
<style type="text/css">
	.st0{fill:#666666;}
	.st1{fill:#F8F9F7;}
	.st2{fill:#E6E6E6;}
	.st3{fill:#1A1A1A;}
	.st4{fill:#F8F8F8;}
	.st5{fill:none;stroke:#F8F8F8;stroke-width:2;stroke-miterlimit:10;}
	.st6{fill:none;stroke:#F8F9F7;stroke-miterlimit:10;}
	.st7{fill:#F4B322;}
	.st8{fill:#70B548;}
	.st9{fill:#E84343;}
	.st10{fill:#F46219;}
	.st11{fill:#A86B42;}
	.st12{fill:#600E87;}
	.st13{fill:#D76AEA;}
	.st14{fill:#2E74E5;}
	.st15{fill:#063163;}
	.st16{fill:#B2A938;}
	.st17{fill:#494318;}
</style>
<g>
	<g>
		<path class="st14" d="M75,80H5c-2.8,0-5-2.3-5-5V5c0-2.8,2.3-5,5-5h70c2.8,0,5,2.3,5,5v70C80,77.8,77.8,80,75,80z"/>
	</g>
	<g>
		<path class="st1" d="M21,63.6h2.3c0.7,0,1.2,0.2,1.5,0.5c0.3,0.3,0.5,0.7,0.5,1.3v2.6c0,0.3-0.1,0.5-0.2,0.8
			c-0.1,0.3-0.3,0.5-0.5,0.7c-0.2,0.2-0.4,0.4-0.7,0.5C23.6,70,23.4,70,23.1,70h-3.8c-0.3,0-0.6-0.1-0.8-0.2
			c-0.3-0.1-0.5-0.3-0.7-0.5c-0.2-0.2-0.3-0.5-0.4-0.8c-0.1-0.3-0.1-0.6-0.1-0.9V61c0-0.3,0.1-0.5,0.2-0.8c0.1-0.3,0.3-0.5,0.5-0.7
			c0.2-0.2,0.4-0.4,0.7-0.5c0.3-0.1,0.5-0.2,0.8-0.2h3.8c0.5,0,1-0.1,1.5-0.3V60c0,0.1-0.1,0.2-0.2,0.3c-0.1,0.1-0.3,0.1-0.4,0.2
			c-0.2,0-0.3,0.1-0.5,0.1c-0.2,0-0.3,0-0.4,0h-3.5c-0.2,0-0.4,0.1-0.5,0.2c-0.2,0.2-0.2,0.3-0.2,0.5v6.2c0,0.3,0.1,0.5,0.2,0.6
			c0.2,0.2,0.3,0.2,0.5,0.2h3c0.3,0,0.5-0.1,0.7-0.3c0.2-0.2,0.3-0.4,0.3-0.6v-1.6c0-0.2-0.1-0.3-0.2-0.5c-0.1-0.2-0.3-0.2-0.5-0.2
			h-1.5c-0.2,0-0.3-0.1-0.4-0.2C21,64.9,21,64.8,21,64.6V63.6z"/>
		<path class="st1" d="M35,67.6c0,0.3,0.1,0.5,0.3,0.6c0.2,0.1,0.3,0.1,0.5,0.1h1.3c0.2,0,0.4-0.1,0.6-0.2c0.2-0.2,0.3-0.4,0.3-0.6
			v-7c0-0.1,0-0.3,0-0.5c0-0.2,0-0.4,0.1-0.5c0-0.2,0.1-0.4,0.2-0.5c0.1-0.1,0.3-0.2,0.4-0.2H40c-0.3,0.5-0.4,1-0.4,1.6v7.3
			c0,0.3-0.1,0.6-0.2,0.8c-0.1,0.3-0.3,0.5-0.5,0.7c-0.2,0.2-0.4,0.4-0.7,0.5C38,70,37.7,70,37.4,70h-2c-0.2,0-0.4,0-0.6-0.1
			c-0.2-0.1-0.4-0.2-0.5-0.3c-0.1,0.1-0.3,0.2-0.5,0.3C33.5,70,33.3,70,33.1,70H31c-0.3,0-0.6-0.1-0.9-0.2c-0.3-0.1-0.5-0.3-0.7-0.5
			c-0.2-0.2-0.4-0.4-0.5-0.7c-0.1-0.3-0.2-0.5-0.2-0.8v-8.4c0-0.2,0.1-0.3,0.2-0.4c0.1-0.1,0.3-0.1,0.4-0.1h1.1v8.6
			c0,0.2,0.1,0.4,0.2,0.6c0.2,0.2,0.3,0.2,0.5,0.2h1.3c0.2,0,0.4-0.1,0.6-0.2c0.2-0.2,0.2-0.4,0.2-0.6v-8.1c0-0.2,0-0.3,0.1-0.4
			c0.1-0.1,0.2-0.1,0.4-0.1H35V67.6z"/>
		<path class="st1" d="M43.1,64c0-0.1,0-0.2,0.1-0.3c0.1-0.1,0.2-0.1,0.4-0.1H51v1.1c0,0.2,0,0.3-0.1,0.4c-0.1,0.1-0.2,0.1-0.3,0.1
			h-7.4V64z"/>
		<path class="st1" d="M56.6,60.6c-0.2,0-0.4,0.1-0.5,0.2c-0.2,0.2-0.2,0.4-0.2,0.6v6.2c0,0.2,0.1,0.4,0.2,0.6
			c0.2,0.2,0.3,0.2,0.5,0.2h5v1.1c0,0.2,0,0.3-0.1,0.4C61.4,70,61.3,70,61.1,70h-4.7c-0.3,0-0.6-0.1-0.9-0.2
			c-0.3-0.1-0.5-0.3-0.7-0.5c-0.2-0.2-0.4-0.4-0.5-0.7c-0.1-0.3-0.2-0.5-0.2-0.8v-6.7c0-0.3,0.1-0.5,0.2-0.8
			c0.1-0.3,0.3-0.5,0.5-0.7c0.2-0.2,0.4-0.4,0.7-0.5c0.3-0.1,0.6-0.2,0.9-0.2H60c0.6,0,1.1-0.1,1.6-0.3v1.3c0,0.2-0.1,0.3-0.2,0.4
			c-0.1,0.1-0.3,0.1-0.5,0.2c-0.2,0.1-0.4,0.1-0.6,0.1c-0.2,0-0.3,0-0.4,0H56.6z"/>
	</g>
	<g>
		<g>
			<path class="st4" d="M51.4,28.2l-1.7-0.3c-0.3-0.1-0.6-0.3-0.7-0.7c-0.1-0.5-0.3-0.9-0.5-1.4c-0.1-0.3-0.1-0.7,0.1-1l1-1.4
				c0.2-0.3,0.2-0.8-0.1-1.1l-1.6-1.6c-0.3-0.3-0.8-0.3-1.1-0.1l-1.4,1c-0.3,0.2-0.7,0.2-1,0c-0.4-0.2-0.9-0.4-1.4-0.6
				c-0.3-0.1-0.6-0.4-0.6-0.7l-0.3-1.7c-0.1-0.4-0.4-0.7-0.8-0.7l-2.3,0c-0.4,0-0.8,0.3-0.9,0.7l-0.3,1.6c-0.1,0.3-0.3,0.6-0.7,0.7
				c-0.5,0.1-0.9,0.3-1.4,0.5c-0.3,0.1-0.7,0.1-1-0.1l-1.4-1c-0.3-0.2-0.8-0.2-1.1,0.1l-0.8,0.8l-0.8,0.8c-0.3,0.3-0.3,0.8-0.1,1.1
				l1,1.4c0.2,0.3,0.2,0.7,0,1c-0.2,0.5-0.5,0.9-0.6,1.4c-0.1,0.3-0.4,0.6-0.7,0.6L28.6,28c-0.4,0.1-0.7,0.4-0.7,0.8l0,2.3
				c0,0.4,0.3,0.8,0.7,0.9l1.7,0.3c0.3,0.1,0.6,0.3,0.7,0.7c0.1,0.5,0.3,1,0.6,1.4c0.1,0.3,0.1,0.7-0.1,1l-1,1.4
				c-0.2,0.3-0.2,0.8,0.1,1.1l0.8,0.8l0.8,0.8c0.3,0.3,0.8,0.3,1.1,0.1l1.4-1c0.3-0.2,0.7-0.2,1,0c0.5,0.2,0.9,0.4,1.4,0.6
				c0.3,0.1,0.6,0.4,0.6,0.7l0.3,1.7c0.1,0.4,0.4,0.7,0.9,0.7l2.3,0c0.4,0,0.8-0.3,0.9-0.7l0.3-1.7c0.1-0.3,0.3-0.6,0.7-0.7
				c0.5-0.1,1-0.3,1.4-0.6c0.3-0.1,0.7-0.1,1,0.1l1.4,1c0.3,0.2,0.8,0.2,1.1-0.1l0.8-0.8l0.8-0.8c0.3-0.3,0.3-0.8,0.1-1.1l-1-1.4
				c-0.2-0.3-0.2-0.7,0-1c0.2-0.4,0.4-0.9,0.6-1.3c0.1-0.3,0.4-0.6,0.7-0.6l1.7-0.3c0.4-0.1,0.7-0.4,0.7-0.8l0-2.3
				C52.2,28.7,51.9,28.3,51.4,28.2L51.4,28.2z M43.6,33.6c-1.9,2-5.1,2-7,0c-2-1.9-2-5.1,0-7c1.9-2,5.1-2,7,0
				C45.5,28.4,45.5,31.6,43.6,33.6L43.6,33.6z M43.6,33.6"/>
		</g>
	</g>
	<g>
		<g>
			<polygon class="st1" points="33.6,12.9 27.9,8.4 27.9,11.1 27.9,11.1 27.9,11.6 27.9,14.1 27.9,14.7 27.9,14.7 27.9,17.4 			"/>
		</g>
		<g>
			<rect x="15.1" y="11.9" class="st1" width="13.5" height="2"/>
		</g>
		<g>
			<polygon class="st1" points="65.4,12.9 59.7,8.4 59.7,11.1 59.7,11.1 59.7,11.6 59.7,14.1 59.7,14.7 59.7,14.7 59.7,17.4 			"/>
		</g>
		<g>
			<rect x="46.9" y="11.9" class="st1" width="13.5" height="2"/>
		</g>
		<g>
			<g>
				<polygon class="st1" points="47.9,45.7 53.7,50.2 53.7,47.5 53.7,47.5 53.7,46.9 53.7,44.5 53.7,43.9 53.7,43.9 53.7,41.2 				
					"/>
			</g>
			<g>
				<rect x="52.9" y="44.7" class="st1" width="13.5" height="2"/>
			</g>
		</g>
		<g>
			<g>
				<polygon class="st1" points="15.1,45.7 20.9,50.2 20.9,47.5 20.9,47.5 20.9,47 20.9,44.5 20.9,43.9 20.9,43.9 20.9,41.2 				"/>
			</g>
			<g>
				<rect x="20.1" y="44.7" class="st1" width="13.5" height="2"/>
			</g>
		</g>
	</g>
</g>
</svg>
