<?xml version="1.0" encoding="utf-8"?>
<!-- Generator: Adobe Illustrator 21.1.0, SVG Export Plug-In . SVG Version: 6.00 Build 0)  -->
<svg version="1.1" id="Layer_1" xmlns="http://www.w3.org/2000/svg" xmlns:xlink="http://www.w3.org/1999/xlink" x="0px" y="0px"
	 viewBox="0 0 80 80" style="enable-background:new 0 0 80 80;" xml:space="preserve">
<style type="text/css">
	.st0{fill:#666666;}
	.st1{fill:#F8F9F7;}
	.st2{fill:#E6E6E6;}
	.st3{fill:#1A1A1A;}
	.st4{fill:#F8F8F8;}
	.st5{fill:none;stroke:#F8F8F8;stroke-width:2;stroke-miterlimit:10;}
	.st6{fill:none;stroke:#F8F9F7;stroke-miterlimit:10;}
	.st7{fill:#F4B322;}
	.st8{fill:#70B548;}
	.st9{fill:#E84343;}
	.st10{fill:#F46219;}
	.st11{fill:#A86B42;}
	.st12{fill:#600E87;}
	.st13{fill:#D76AEA;}
	.st14{fill:#2E74E5;}
	.st15{fill:#063163;}
	.st16{fill:#B2A938;}
	.st17{fill:#494318;}
</style>
<g>
	<g>
		<path class="st8" d="M75,80H5c-2.8,0-5-2.3-5-5V5c0-2.8,2.3-5,5-5h70c2.8,0,5,2.3,5,5v70C80,77.8,77.8,80,75,80z"/>
	</g>
	<g>
		<path class="st1" d="M21,63.6h2.3c0.7,0,1.2,0.2,1.5,0.5c0.3,0.3,0.5,0.7,0.5,1.3v2.6c0,0.3-0.1,0.5-0.2,0.8
			c-0.1,0.3-0.3,0.5-0.5,0.7c-0.2,0.2-0.4,0.4-0.7,0.5C23.6,70,23.4,70,23.1,70h-3.8c-0.3,0-0.6-0.1-0.8-0.2
			c-0.3-0.1-0.5-0.3-0.7-0.5c-0.2-0.2-0.3-0.5-0.4-0.8c-0.1-0.3-0.1-0.6-0.1-0.9V61c0-0.3,0.1-0.5,0.2-0.8c0.1-0.3,0.3-0.5,0.5-0.7
			c0.2-0.2,0.4-0.4,0.7-0.5c0.3-0.1,0.5-0.2,0.8-0.2h3.8c0.5,0,1-0.1,1.5-0.3V60c0,0.1-0.1,0.2-0.2,0.3c-0.1,0.1-0.3,0.1-0.4,0.2
			c-0.2,0-0.3,0.1-0.5,0.1c-0.2,0-0.3,0-0.4,0h-3.5c-0.2,0-0.4,0.1-0.5,0.2c-0.2,0.2-0.2,0.3-0.2,0.5v6.2c0,0.3,0.1,0.5,0.2,0.6
			c0.2,0.2,0.3,0.2,0.5,0.2h3c0.3,0,0.5-0.1,0.7-0.3c0.2-0.2,0.3-0.4,0.3-0.6v-1.6c0-0.2-0.1-0.3-0.2-0.5c-0.1-0.2-0.3-0.2-0.5-0.2
			h-1.5c-0.2,0-0.3-0.1-0.4-0.2C21,64.9,21,64.8,21,64.6V63.6z"/>
		<path class="st1" d="M35,67.6c0,0.3,0.1,0.5,0.3,0.6c0.2,0.1,0.3,0.1,0.5,0.1h1.3c0.2,0,0.4-0.1,0.6-0.2c0.2-0.2,0.3-0.4,0.3-0.6
			v-7c0-0.1,0-0.3,0-0.5c0-0.2,0-0.4,0.1-0.5c0-0.2,0.1-0.4,0.2-0.5c0.1-0.1,0.3-0.2,0.4-0.2H40c-0.3,0.5-0.4,1-0.4,1.6v7.3
			c0,0.3-0.1,0.6-0.2,0.8c-0.1,0.3-0.3,0.5-0.5,0.7c-0.2,0.2-0.4,0.4-0.7,0.5C38,70,37.7,70,37.4,70h-2c-0.2,0-0.4,0-0.6-0.1
			c-0.2-0.1-0.4-0.2-0.5-0.3c-0.1,0.1-0.3,0.2-0.5,0.3C33.5,70,33.3,70,33.1,70H31c-0.3,0-0.6-0.1-0.9-0.2c-0.3-0.1-0.5-0.3-0.7-0.5
			c-0.2-0.2-0.4-0.4-0.5-0.7c-0.1-0.3-0.2-0.5-0.2-0.8v-8.4c0-0.2,0.1-0.3,0.2-0.4c0.1-0.1,0.3-0.1,0.4-0.1h1.1v8.6
			c0,0.2,0.1,0.4,0.2,0.6c0.2,0.2,0.3,0.2,0.5,0.2h1.3c0.2,0,0.4-0.1,0.6-0.2c0.2-0.2,0.2-0.4,0.2-0.6v-8.1c0-0.2,0-0.3,0.1-0.4
			c0.1-0.1,0.2-0.1,0.4-0.1H35V67.6z"/>
		<path class="st1" d="M43.1,64c0-0.1,0-0.2,0.1-0.3c0.1-0.1,0.2-0.1,0.4-0.1H51v1.1c0,0.2,0,0.3-0.1,0.4c-0.1,0.1-0.2,0.1-0.3,0.1
			h-7.4V64z"/>
		<path class="st1" d="M60.6,67.7v-7.3c0-0.1,0-0.3,0-0.4c0-0.2,0-0.3,0.1-0.5c0-0.2,0.1-0.3,0.2-0.4c0.1-0.1,0.2-0.2,0.4-0.2h1.3
			c-0.2,0.4-0.4,0.9-0.4,1.5V68c0,0.6-0.2,1.1-0.6,1.4c-0.4,0.4-0.9,0.6-1.4,0.6h-3.9c-0.3,0-0.6-0.1-0.8-0.2
			c-0.3-0.1-0.5-0.3-0.7-0.5c-0.2-0.2-0.3-0.4-0.4-0.7c-0.1-0.3-0.1-0.5-0.1-0.8v-8.5c0-0.1,0-0.2,0.1-0.3c0.1-0.1,0.2-0.1,0.3-0.1
			h1.2v8.7c0,0.2,0.1,0.4,0.2,0.5c0.2,0.2,0.3,0.2,0.5,0.2h3.2c0.2,0,0.4-0.1,0.5-0.2C60.5,68,60.6,67.9,60.6,67.7z"/>
	</g>
	<g>
		<g>
			<polygon class="st4" points="32.2,10.5 32.2,28.7 47.8,19.6 			"/>
		</g>
		<g>
			<polygon class="st4" points="47.7,31.6 47.7,49.8 32.2,40.7 			"/>
		</g>
		<g>
			<polygon class="st1" points="29.3,18.3 24.1,14.3 24.1,16.7 24.1,16.7 24.1,17.2 24.1,19.5 24.1,20 24.1,20 24.1,22.4 			"/>
		</g>
		<g>
			<rect x="12.5" y="17.3" class="st1" width="12.3" height="2"/>
		</g>
		<g>
			<polygon class="st1" points="68.4,18.3 63.2,14.3 63.2,16.7 63.2,16.7 63.2,17.2 63.2,19.5 63.2,20 63.2,20 63.2,22.4 			"/>
		</g>
		<g>
			<rect x="51.6" y="17.3" class="st1" width="12.3" height="2"/>
		</g>
		<g>
			<g>
				<polygon class="st1" points="51.6,40.8 56.8,44.9 56.8,42.4 56.8,42.4 56.8,41.9 56.8,39.7 56.8,39.1 56.8,39.1 56.8,36.7 				
					"/>
			</g>
			<g>
				<rect x="56.1" y="39.8" class="st1" width="12.3" height="2"/>
			</g>
		</g>
		<g>
			<g>
				<polygon class="st1" points="11.5,41.8 16.7,45.9 16.7,43.4 16.7,43.4 16.7,42.9 16.7,40.7 16.7,40.1 16.7,40.1 16.7,37.7 				
					"/>
			</g>
			<g>
				<rect x="16" y="40.8" class="st1" width="12.3" height="2"/>
			</g>
		</g>
	</g>
</g>
</svg>
