<?xml version="1.0" encoding="utf-8"?>
<!-- Generator: Adobe Illustrator 21.1.0, SVG Export Plug-In . SVG Version: 6.00 Build 0)  -->
<svg version="1.1" id="Layer_1" xmlns="http://www.w3.org/2000/svg" xmlns:xlink="http://www.w3.org/1999/xlink" x="0px" y="0px"
	 viewBox="0 0 80 80" style="enable-background:new 0 0 80 80;" xml:space="preserve">
<style type="text/css">
	.st0{fill:#666666;}
	.st1{fill:#F8F9F7;}
	.st2{fill:#E6E6E6;}
	.st3{fill:#1A1A1A;}
	.st4{fill:#F8F8F8;}
	.st5{fill:none;stroke:#F8F8F8;stroke-width:2;stroke-miterlimit:10;}
	.st6{fill:none;stroke:#F8F9F7;stroke-miterlimit:10;}
	.st7{fill:#F4B322;}
	.st8{fill:#70B548;}
	.st9{fill:#E84343;}
	.st10{fill:#F46219;}
	.st11{fill:#A86B42;}
	.st12{fill:#600E87;}
	.st13{fill:#D76AEA;}
	.st14{fill:#2E74E5;}
	.st15{fill:#063163;}
	.st16{fill:#B2A938;}
	.st17{fill:#494318;}
</style>
<g>
	<g>
		<path class="st0" d="M75,80H5c-2.8,0-5-2.3-5-5V5c0-2.8,2.3-5,5-5h70c2.8,0,5,2.3,5,5v70C80,77.8,77.8,80,75,80z"/>
	</g>
	<g>
		<path class="st1" d="M23.8,70V59.4c0-0.1,0-0.2,0.1-0.3c0.1-0.1,0.2-0.1,0.4-0.1h1.1c0.1,0,0.2,0,0.3,0c0.1,0,0.1,0,0.1,0.1
			c0,0,0.1,0.1,0.1,0.1c0,0.1,0.1,0.1,0.1,0.1l2.6,4.6c0,0,0,0.1,0.1,0.1c0.1,0,0.1,0.1,0.2,0.1c0,0,0.1,0,0.1-0.1
			c0.1,0,0.1-0.1,0.1-0.1l2.6-4.4c0.1-0.2,0.3-0.3,0.4-0.4c0.2-0.1,0.4-0.2,0.6-0.2h1.2v10.6c0,0.1,0,0.2-0.1,0.3
			C33.9,70,33.8,70,33.7,70h-1.2v-8.3l-1.8,3c-0.2,0.3-0.4,0.6-0.7,0.8c-0.3,0.2-0.6,0.4-1,0.4s-0.7-0.1-1-0.3
			c-0.3-0.2-0.5-0.4-0.7-0.8l-1.9-3.3v8.1c0,0.1,0,0.2-0.1,0.3C25.3,70,25.1,70,25,70H23.8z"/>
		<path class="st1" d="M40.5,60.6c-0.2,0-0.4,0.1-0.5,0.2c-0.2,0.2-0.2,0.4-0.2,0.6v2.2h5.4v1.1c0,0.2,0,0.3-0.1,0.4
			c-0.1,0.1-0.2,0.1-0.4,0.1h-4.9v2.3c0,0.2,0.1,0.4,0.2,0.6c0.2,0.2,0.3,0.2,0.5,0.2h5v1.1c0,0.2,0,0.3-0.1,0.4
			C45.2,70,45.1,70,45,70h-4.7c-0.3,0-0.6-0.1-0.9-0.2c-0.3-0.1-0.5-0.3-0.7-0.5c-0.2-0.2-0.4-0.4-0.5-0.7c-0.1-0.3-0.2-0.5-0.2-0.8
			v-6.7c0-0.3,0.1-0.5,0.2-0.8c0.1-0.3,0.3-0.5,0.5-0.7c0.2-0.2,0.4-0.4,0.7-0.5c0.3-0.1,0.6-0.2,0.9-0.2h3.6c0.6,0,1.1-0.1,1.6-0.3
			v1.3c0,0.2-0.1,0.3-0.2,0.4c-0.1,0.1-0.3,0.1-0.5,0.2c-0.2,0.1-0.4,0.1-0.6,0.1c-0.2,0-0.3,0-0.4,0H40.5z"/>
		<path class="st1" d="M51.5,60.6c-0.2,0-0.4,0.1-0.5,0.2c-0.2,0.2-0.2,0.4-0.2,0.6v6.2c0,0.2,0.1,0.4,0.2,0.6
			c0.2,0.2,0.3,0.2,0.5,0.2h5v1.1c0,0.2,0,0.3-0.1,0.4C56.3,70,56.2,70,56,70h-4.7c-0.3,0-0.6-0.1-0.9-0.2c-0.3-0.1-0.5-0.3-0.7-0.5
			c-0.2-0.2-0.4-0.4-0.5-0.7c-0.1-0.3-0.2-0.5-0.2-0.8v-6.7c0-0.3,0.1-0.5,0.2-0.8c0.1-0.3,0.3-0.5,0.5-0.7c0.2-0.2,0.4-0.4,0.7-0.5
			c0.3-0.1,0.6-0.2,0.9-0.2h3.6c0.6,0,1.1-0.1,1.6-0.3v1.3c0,0.2-0.1,0.3-0.2,0.4c-0.1,0.1-0.3,0.1-0.5,0.2
			c-0.2,0.1-0.4,0.1-0.6,0.1c-0.2,0-0.3,0-0.4,0H51.5z"/>
	</g>
	<g>
		<g>
			<path class="st4" d="M61.7,26.4c-0.6-1.1-1.4-2.1-2.3-2.9l1.3-1.5c1.1,1,2,2.1,2.8,3.5L61.7,26.4z"/>
		</g>
		<g>
			<path class="st4" d="M59.4,23.5C57.6,21.9,55.3,21,53,21c-2.1,0-4.2,0.7-5.9,2l-1.2-1.6c2.1-1.6,4.5-2.4,7.1-2.4
				c2.8,0,5.5,1,7.7,2.9L59.4,23.5z"/>
		</g>
		<g>
			<path class="st4" d="M40.8,44.2H22.1c-5.9,0-10.6-5-10.6-11.1S16.3,22,22.1,22c0.3,0,0.6,0,0.9,0c0.8-7.7,7-13.6,14.5-13.6
				c6.8,0,12.6,4.8,14.2,11.7l-1.9,0.5c-1.4-6-6.4-10.1-12.3-10.1c-6.8,0-12.3,5.6-12.6,12.8l0,1.2l-1.2-0.2
				C23.2,24,22.7,24,22.1,24c-4.8,0-8.6,4.1-8.6,9.1s3.9,9.1,8.6,9.1h18.7V44.2z"/>
		</g>
	</g>
	<g>
		<g>
			<path class="st1" d="M62,35.7C62,35.7,62,35.7,62,35.7c-2.1,0.2-5.6,0.3-7.6,0.2c-2.1-0.1-8.7-1-8.7-1v13c0,0,4.5,0.7,9,1
				c4,0.2,8-0.1,8.3-0.1c2-0.4,3-2.2,3-2.2V33.9C64.3,35.2,62.9,35.6,62,35.7z M58.1,36.7h2.8v2h-2.8V36.7z M50.9,47.8h-2.8v-2h2.8
				V47.8z M50.9,38.7h-2.8v-2h2.8V38.7z M55.9,47.8h-2.8v-2h2.8V47.8z M55.9,38.7h-2.8v-2h2.8V38.7z M60.9,47.8h-2.8v-2h2.8V47.8z"
				/>
		</g>
		<g>
			<path class="st1" d="M60.8,30.2c-2.3,0.4-3.9,1.7-3.7,2.9c0.2,1.2,2.2,1.8,4.5,1.4c2.3-0.4,3.9-1.7,3.7-2.9
				C65,30.4,63,29.8,60.8,30.2z M61.4,33.4c-1.1,0.2-2.1-0.1-2.2-0.7s0.7-1.2,1.8-1.4c1.1-0.2,2.1,0.1,2.2,0.7
				C63.3,32.6,62.5,33.2,61.4,33.4z"/>
		</g>
	</g>
</g>
</svg>
