<svg xmlns="http://www.w3.org/2000/svg" width="80" height="80" viewBox="0 0 80 80">
  <g fill="none">
    <path fill="#70B548" d="M75,80 L5,80 C2.2,80 0,77.7 0,75 L0,5 C0,2.2 2.3,0 5,0 L75,0 C77.8,0 80,2.3 80,5 L80,75 C80,77.8 77.8,80 75,80 Z"/>
    <path fill="#FFF" d="M25.75,60.9375 L25.75,62.375 C25.75,62.6250012 25.8333325,62.8333325 26,63 C26.1666675,63.1666675 26.3749987,63.25 26.625,63.25 L30.1875,63.25 C30.520835,63.25 30.8333319,63.3124994 31.125,63.4375 C31.4166681,63.5625006 31.6666656,63.7291656 31.875,63.9375 C32.0833344,64.1875012 32.2499994,64.4479153 32.375,64.71875 C32.5000006,64.9895847 32.5625,65.291665 32.5625,65.625 L32.5625,67.8125 C32.5625,68.145835 32.5000006,68.4479153 32.375,68.71875 C32.2499994,68.9895847 32.0833344,69.2291656 31.875,69.4375 C31.6666656,69.6458344 31.4166681,69.8124994 31.125,69.9375 C30.8333319,70.0625006 30.520835,70.125 30.1875,70.125 L24.3125,70.125 L24.3125,68.9375 C24.3125,68.7708325 24.3645828,68.6354172 24.46875,68.53125 C24.5729172,68.4270828 24.7083325,68.375 24.875,68.375 L29.875,68.375 C30.1250013,68.375 30.3437491,68.2916675 30.53125,68.125 C30.7187509,67.9583325 30.8125,67.7500012 30.8125,67.5 L30.8125,65.875 C30.8125,65.6249988 30.7187509,65.4166675 30.53125,65.25 C30.3437491,65.0833325 30.1458344,65 29.9375,65 L26.3125,65 C25.979165,65 25.6770847,64.9375006 25.40625,64.8125 C25.1354153,64.6874994 24.8958344,64.5208344 24.6875,64.3125 C24.4374987,64.1041656 24.2604172,63.8541681 24.15625,63.5625 C24.0520828,63.2708319 24,62.958335 24,62.625 L24,60.625 C24,60.3333319 24.0520828,60.0416681 24.15625,59.75 C24.2604172,59.4583319 24.4374987,59.2083344 24.6875,59 C24.8958344,58.7916656 25.1354153,58.6250006 25.40625,58.5 C25.6770847,58.3749994 25.979165,58.3125 26.3125,58.3125 L30.125,58.3125 C30.7500031,58.3125 31.2083319,58.2604172 31.5,58.15625 L31.9375,58 L31.9375,59.375 C31.9375,59.5416675 31.8645841,59.6666662 31.71875,59.75 C31.5729159,59.8333338 31.3958344,59.8958331 31.1875,59.9375 C31.0208325,59.9791669 30.8333344,60.0104166 30.625,60.03125 C30.4166656,60.0520834 30.2500006,60.0625 30.125,60.0625 L26.625,60.0625 C26.3749987,60.0625 26.1666675,60.1458325 26,60.3125 C25.8333325,60.4791675 25.75,60.6874988 25.75,60.9375 Z M34.625,70.125 L34.625,58.8125 C34.625,58.6874994 34.6770828,58.5729172 34.78125,58.46875 C34.8854172,58.3645828 35.0208325,58.3125 35.1875,58.3125 L36.375,58.3125 C36.5000006,58.3125 36.5937497,58.3229166 36.65625,58.34375 C36.7187503,58.3645834 36.7708331,58.3958331 36.8125,58.4375 C36.8541669,58.4791669 36.8958331,58.5312497 36.9375,58.59375 C36.9791669,58.6562503 37.0208331,58.7083331 37.0625,58.75 L39.875,63.625 C39.875,63.6666669 39.9062497,63.7083331 39.96875,63.75 C40.0312503,63.7916669 40.1041662,63.8125 40.1875,63.8125 C40.2291669,63.8125 40.2812497,63.7916669 40.34375,63.75 C40.4062503,63.7083331 40.4583331,63.6666669 40.5,63.625 L43.3125,58.9375 C43.4375006,58.7708325 43.5937491,58.6250006 43.78125,58.5 C43.9687509,58.3749994 44.1874987,58.3125 44.4375,58.3125 L45.6875,58.3125 L45.6875,69.625 C45.6875,69.7500006 45.6354172,69.8645828 45.53125,69.96875 C45.4270828,70.0729172 45.3125006,70.125 45.1875,70.125 L43.875,70.125 L43.875,61.25 L42,64.4375 C41.7916656,64.770835 41.5312516,65.0624988 41.21875,65.3125 C40.9062484,65.5625012 40.5625019,65.6875 40.1875,65.6875 C39.8124981,65.6875 39.4687516,65.5833344 39.15625,65.375 C38.8437484,65.1666656 38.6041675,64.895835 38.4375,64.5625 L36.375,61 L36.375,69.625 C36.375,69.7500006 36.3333338,69.8645828 36.25,69.96875 C36.1666662,70.0729172 36.0416675,70.125 35.875,70.125 L34.625,70.125 Z M50,69.5625 C50,69.6875006 49.9479172,69.8124994 49.84375,69.9375 C49.7395828,70.0625006 49.6041675,70.125 49.4375,70.125 L48.1875,70.125 L48.1875,60.625 C48.1875,60.3333319 48.2499994,60.0416681 48.375,59.75 C48.5000006,59.4583319 48.6666656,59.2083344 48.875,59 C49.0833344,58.7916656 49.3333319,58.6250006 49.625,58.5 C49.9166681,58.3749994 50.229165,58.3125 50.5625,58.3125 L54.375,58.3125 C55.0000031,58.3125 55.4479153,58.2604172 55.71875,58.15625 L56.125,58 L56.125,59.375 C56.125,59.5416675 56.0625006,59.6666662 55.9375,59.75 C55.8124994,59.8333338 55.6458344,59.8958331 55.4375,59.9375 C55.2291656,60.0208337 55.0312509,60.0625 54.84375,60.0625 L50.8125,60.0625 C50.6041656,60.0625 50.4166675,60.1458325 50.25,60.3125 C50.0833325,60.4791675 50,60.6874988 50,60.9375 L50,63.25 L55.8125,63.25 L55.8125,64.4375 C55.8125,64.6041675 55.7604172,64.7395828 55.65625,64.84375 C55.5520828,64.9479172 55.4166675,65 55.25,65 L50,65 L50,69.5625 Z"/>
    <path fill="#F8F8F8" d="M51.4,28.2 L49.7,27.9 C49.4,27.8 49.1,27.6 49,27.2 C48.9,26.7 48.7,26.3 48.5,25.8 C48.4,25.5 48.4,25.1 48.6,24.8 L49.6,23.4 C49.8,23.1 49.8,22.6 49.5,22.3 L47.9,20.7 C47.6,20.4 47.1,20.4 46.8,20.6 L45.4,21.6 C45.1,21.8 44.7,21.8 44.4,21.6 C44,21.4 43.5,21.2 43,21 C42.7,20.9 42.4,20.6 42.4,20.3 L42.1,18.6 C42,18.2 41.7,17.9 41.3,17.9 L39,17.9 C38.6,17.9 38.2,18.2 38.1,18.6 L37.8,20.2 C37.7,20.5 37.5,20.8 37.1,20.9 C36.6,21 36.2,21.2 35.7,21.4 C35.4,21.5 35,21.5 34.7,21.3 L33.3,20.3 C33,20.1 32.5,20.1 32.2,20.4 L31.4,21.2 L30.6,22 C30.3,22.3 30.3,22.8 30.5,23.1 L31.5,24.5 C31.7,24.8 31.7,25.2 31.5,25.5 C31.3,26 31,26.4 30.9,26.9 C30.8,27.2 30.5,27.5 30.2,27.5 L28.6,28 C28.2,28.1 27.9,28.4 27.9,28.8 L27.9,31.1 C27.9,31.5 28.2,31.9 28.6,32 L30.3,32.3 C30.6,32.4 30.9,32.6 31,33 C31.1,33.5 31.3,34 31.6,34.4 C31.7,34.7 31.7,35.1 31.5,35.4 L30.5,36.8 C30.3,37.1 30.3,37.6 30.6,37.9 L31.4,38.7 L32.2,39.5 C32.5,39.8 33,39.8 33.3,39.6 L34.7,38.6 C35,38.4 35.4,38.4 35.7,38.6 C36.2,38.8 36.6,39 37.1,39.2 C37.4,39.3 37.7,39.6 37.7,39.9 L38,41.6 C38.1,42 38.4,42.3 38.9,42.3 L41.2,42.3 C41.6,42.3 42,42 42.1,41.6 L42.4,39.9 C42.5,39.6 42.7,39.3 43.1,39.2 C43.6,39.1 44.1,38.9 44.5,38.6 C44.8,38.5 45.2,38.5 45.5,38.7 L46.9,39.7 C47.2,39.9 47.7,39.9 48,39.6 L48.8,38.8 L49.6,38 C49.9,37.7 49.9,37.2 49.7,36.9 L48.7,35.5 C48.5,35.2 48.5,34.8 48.7,34.5 C48.9,34.1 49.1,33.6 49.3,33.2 C49.4,32.9 49.7,32.6 50,32.6 L51.7,32.3 C52.1,32.2 52.4,31.9 52.4,31.5 L52.4,29.2 C52.2,28.7 51.9,28.3 51.4,28.2 L51.4,28.2 Z M43.6,33.6 C41.7,35.6 38.5,35.6 36.6,33.6 C34.6,31.7 34.6,28.5 36.6,26.6 C38.5,24.6 41.7,24.6 43.6,26.6 C45.5,28.4 45.5,31.6 43.6,33.6 L43.6,33.6 Z"/>
    <g fill="#F8F9F7" transform="translate(15 8)">
      <polygon points="18.6 4.9 12.9 .4 12.9 3.1 12.9 3.1 12.9 3.6 12.9 6.1 12.9 6.7 12.9 6.7 12.9 9.4"/>
      <rect width="13.5" height="2" x=".1" y="3.9"/>
      <polygon points="50.4 4.9 44.7 .4 44.7 3.1 44.7 3.1 44.7 3.6 44.7 6.1 44.7 6.7 44.7 6.7 44.7 9.4"/>
      <rect width="13.5" height="2" x="31.9" y="3.9"/>
      <g transform="translate(32 33)">
        <polygon points=".9 4.7 6.7 9.2 6.7 6.5 6.7 6.5 6.7 5.9 6.7 3.5 6.7 2.9 6.7 2.9 6.7 .2"/>
        <rect width="13.5" height="2" x="5.9" y="3.7"/>
      </g>
      <g transform="translate(0 33)">
        <polygon points=".1 4.7 5.9 9.2 5.9 6.5 5.9 6.5 5.9 6 5.9 3.5 5.9 2.9 5.9 2.9 5.9 .2"/>
        <rect width="13.5" height="2" x="5.1" y="3.7"/>
      </g>
    </g>
  </g>
</svg>
