<?xml version="1.0" encoding="utf-8"?>
<!-- Generator: Adobe Illustrator 21.1.0, SVG Export Plug-In . SVG Version: 6.00 Build 0)  -->
<svg version="1.1" id="Layer_1" xmlns="http://www.w3.org/2000/svg" xmlns:xlink="http://www.w3.org/1999/xlink" x="0px" y="0px"
	 viewBox="0 0 80 80" style="enable-background:new 0 0 80 80;" xml:space="preserve">
<style type="text/css">
	.st0{fill:#666666;}
	.st1{fill:#F8F9F7;}
	.st2{fill:#E6E6E6;}
	.st3{fill:#1A1A1A;}
	.st4{fill:#F8F8F8;}
	.st5{fill:none;stroke:#F8F8F8;stroke-width:2;stroke-miterlimit:10;}
	.st6{fill:none;stroke:#F8F9F7;stroke-miterlimit:10;}
	.st7{fill:#F4B322;}
	.st8{fill:#70B548;}
	.st9{fill:#E84343;}
	.st10{fill:#F46219;}
	.st11{fill:#A86B42;}
	.st12{fill:#D76AEA;}
	.st13{fill:#5095F9;}
	.st14{fill:#063163;}
	.st15{fill:#B2A938;}
	.st16{fill:#494318;}
	.st17{fill:#600E87;}
</style>
<g>
	<g>
		<path class="st0" d="M75,80H5c-2.8,0-5-2.3-5-5V5c0-2.8,2.3-5,5-5h70c2.8,0,5,2.3,5,5v70C80,77.8,77.8,80,75,80z"/>
	</g>
	<g>
		<path class="st1" d="M10,62v1.3c0,0.2,0.1,0.4,0.2,0.5c0.1,0.1,0.3,0.2,0.5,0.2h3.1c0.3,0,0.6,0.1,0.8,0.2s0.5,0.3,0.7,0.4
			c0.2,0.2,0.3,0.4,0.4,0.7c0.1,0.2,0.2,0.5,0.2,0.8V68c0,0.3-0.1,0.6-0.2,0.8c-0.1,0.2-0.3,0.4-0.4,0.6c-0.2,0.2-0.4,0.3-0.7,0.4
			S14.2,70,13.9,70H8.7v-1c0-0.1,0-0.3,0.1-0.4c0.1-0.1,0.2-0.1,0.4-0.1h4.4c0.2,0,0.4-0.1,0.6-0.2c0.2-0.1,0.2-0.3,0.2-0.5v-1.4
			c0-0.2-0.1-0.4-0.2-0.5c-0.2-0.1-0.3-0.2-0.5-0.2h-3.2c-0.3,0-0.6-0.1-0.8-0.2s-0.4-0.3-0.6-0.4c-0.2-0.2-0.4-0.4-0.5-0.7
			c-0.1-0.3-0.1-0.5-0.1-0.8v-1.8c0-0.3,0-0.5,0.1-0.8c0.1-0.3,0.2-0.5,0.5-0.7c0.2-0.2,0.4-0.3,0.6-0.4s0.5-0.2,0.8-0.2h3.3
			c0.5,0,1.1-0.1,1.6-0.3v1.2c0,0.1-0.1,0.3-0.2,0.3c-0.1,0.1-0.3,0.1-0.5,0.2c-0.1,0-0.3,0.1-0.5,0.1c-0.2,0-0.3,0-0.4,0h-3.1
			c-0.2,0-0.4,0.1-0.5,0.2C10.1,61.6,10,61.8,10,62z"/>
		<path class="st1" d="M23,61.2h-1.4v8.4c0,0.1,0,0.2-0.1,0.3C21.4,70,21.2,70,21,70h-1v-8.8h-3v-1c0-0.2,0-0.3,0.1-0.4
			c0.1-0.1,0.2-0.1,0.4-0.1H23c0.6,0,1.1-0.1,1.5-0.4v1.1c0,0.1,0,0.1,0,0.2s-0.1,0.1-0.1,0.2c-0.1,0.1-0.3,0.2-0.5,0.2
			C23.7,61.2,23.4,61.2,23,61.2z"/>
		<path class="st1" d="M25.6,68v-6.3c0-0.3,0-0.5,0.1-0.8c0.1-0.3,0.2-0.5,0.4-0.7c0.2-0.2,0.4-0.3,0.7-0.4s0.5-0.2,0.8-0.2h4.5
			c0.5,0,1.1-0.1,1.5-0.3v1.2c0,0.1,0,0.1-0.1,0.2s-0.1,0.1-0.1,0.1c-0.1,0.1-0.2,0.1-0.4,0.2s-0.5,0.1-0.9,0.1h-4.2
			c-0.2,0-0.4,0.1-0.5,0.2c-0.1,0.1-0.2,0.3-0.2,0.5v5.7c0,0.2,0.1,0.4,0.2,0.5c0.1,0.1,0.3,0.2,0.5,0.2h2.8c0.2,0,0.4-0.1,0.6-0.2
			c0.2-0.1,0.2-0.3,0.2-0.5V62c0-0.1,0-0.1,0-0.2c0-0.1-0.1-0.1-0.1-0.2h1.7V68c0,0.3-0.1,0.6-0.2,0.8c-0.1,0.2-0.3,0.4-0.4,0.6
			c-0.2,0.2-0.4,0.3-0.7,0.4C31.5,70,31.3,70,31,70h-3.4c-0.3,0-0.6-0.1-0.8-0.2s-0.5-0.3-0.7-0.4c-0.2-0.2-0.3-0.4-0.4-0.6
			C25.6,68.5,25.6,68.3,25.6,68z"/>
		<path class="st1" d="M38,59.7h2.9c0.3,0,0.5,0,0.7,0.1c0.2,0.1,0.4,0.2,0.6,0.4c0.2,0.1,0.3,0.3,0.4,0.5s0.2,0.5,0.2,0.7v2.2
			c0,0.3-0.1,0.6-0.2,0.8c-0.1,0.3-0.3,0.5-0.5,0.6c-0.2,0.2-0.4,0.4-0.7,0.5c-0.3,0.1-0.5,0.1-0.8,0.1H40l3.1,4.3h-1.5
			c-0.1,0-0.3,0-0.4-0.1c-0.1-0.1-0.2-0.2-0.3-0.3l-2.8-3.9h-1.3v3.8c0,0.1-0.1,0.3-0.2,0.4C36.6,70,36.5,70,36.3,70h-1V59.7h1
			c0.1,0,0.2,0,0.3,0.1s0.1,0.1,0.2,0.2c0.1-0.1,0.3-0.2,0.5-0.2C37.6,59.7,37.8,59.7,38,59.7z M41.3,63.5v-1.6
			c0-0.3-0.1-0.4-0.2-0.5s-0.3-0.2-0.5-0.2h-2.9c-0.2,0-0.4,0.1-0.5,0.2s-0.2,0.4-0.2,0.6v2.1h3.7c0.2,0,0.4-0.1,0.5-0.2
			S41.3,63.7,41.3,63.5z"/>
		<path class="st1" d="M46.4,66.2v3.3c0,0.1,0,0.2-0.1,0.3C46.2,70,46.1,70,45.9,70h-1v-8.3c0-0.3,0-0.6,0.1-0.8
			c0.1-0.3,0.2-0.5,0.4-0.7c0.2-0.2,0.4-0.3,0.7-0.4s0.5-0.2,0.8-0.2h3.4c0.3,0,0.6,0.1,0.9,0.2s0.5,0.3,0.6,0.5
			c0.2,0.2,0.3,0.4,0.4,0.7c0.1,0.3,0.2,0.5,0.2,0.8v7.8c0,0.1,0,0.2-0.1,0.3C52.1,70,52,70,51.9,70h-1v-4.3
			c-0.1,0.1-0.2,0.2-0.4,0.3s-0.5,0.2-0.8,0.2H46.4z M46.4,64.7h4.4v-2.6c0-0.3-0.1-0.5-0.2-0.6s-0.4-0.2-0.6-0.2h-2.8
			c-0.2,0-0.4,0.1-0.5,0.3c-0.1,0.2-0.2,0.3-0.2,0.5V64.7z"/>
		<path class="st1" d="M57.8,64H60c0.6,0,1.1,0.1,1.4,0.4c0.3,0.3,0.4,0.7,0.4,1.2V68c0,0.3-0.1,0.5-0.2,0.7
			c-0.1,0.2-0.3,0.4-0.5,0.6c-0.2,0.2-0.4,0.3-0.6,0.4S60.1,70,59.8,70h-3.5c-0.3,0-0.6-0.1-0.8-0.2s-0.4-0.3-0.6-0.4
			c-0.2-0.2-0.3-0.5-0.4-0.7c-0.1-0.3-0.1-0.5-0.1-0.8v-6.2c0-0.3,0.1-0.5,0.2-0.7c0.1-0.2,0.3-0.4,0.4-0.6c0.2-0.2,0.4-0.3,0.6-0.4
			s0.5-0.2,0.7-0.2h3.6c0.5,0,1-0.1,1.4-0.3v1.3c0,0.1-0.1,0.2-0.2,0.3c-0.1,0.1-0.2,0.1-0.4,0.2c-0.1,0-0.3,0.1-0.4,0.1
			c-0.1,0-0.3,0-0.4,0h-3.3c-0.2,0-0.3,0.1-0.5,0.2c-0.1,0.1-0.2,0.3-0.2,0.5v5.7c0,0.3,0.1,0.5,0.2,0.6c0.1,0.1,0.3,0.2,0.5,0.2
			h2.8c0.3,0,0.5-0.1,0.6-0.2s0.2-0.4,0.2-0.6v-1.5c0-0.1-0.1-0.3-0.2-0.4c-0.1-0.1-0.3-0.2-0.5-0.2h-1.4c-0.1,0-0.3-0.1-0.3-0.2
			s-0.1-0.2-0.1-0.4V64z"/>
		<path class="st1" d="M66,61.2c-0.2,0-0.3,0.1-0.5,0.2c-0.1,0.1-0.2,0.3-0.2,0.5v2h5.1v1c0,0.1,0,0.3-0.1,0.4
			c-0.1,0.1-0.2,0.1-0.4,0.1h-4.6v2.2c0,0.2,0.1,0.4,0.2,0.5c0.1,0.1,0.3,0.2,0.5,0.2h4.6v1c0,0.1,0,0.3-0.1,0.4
			C70.4,70,70.3,70,70.1,70h-4.4c-0.3,0-0.6-0.1-0.8-0.2s-0.5-0.3-0.7-0.4c-0.2-0.2-0.3-0.4-0.4-0.6c-0.1-0.2-0.2-0.5-0.2-0.8v-6.3
			c0-0.3,0.1-0.5,0.2-0.8c0.1-0.3,0.3-0.5,0.4-0.7c0.2-0.2,0.4-0.3,0.7-0.4s0.5-0.2,0.8-0.2h3.3c0.5,0,1.1-0.1,1.5-0.3v1.2
			c0,0.1-0.1,0.3-0.2,0.3c-0.1,0.1-0.3,0.1-0.4,0.2c-0.2,0.1-0.4,0.1-0.5,0.1s-0.3,0-0.4,0H66z"/>
	</g>
	<g>
		<g>
			<path class="st4" d="M41.9,42.2c-0.6,0-1.3,0-1.9,0s-1.3,0-1.9,0c-5.3-0.2-9.6-1.1-12.6-2.4c-1.4-0.6-2.7-1.3-3.6-2.1l0.1,4.9
				c2.1,2.6,9,5,18.1,5c9.1,0,16.1-2.4,18.1-5l-0.1-4.9c-1,0.8-2.2,1.5-3.6,2.1C51.4,41.1,47.2,42,41.9,42.2L41.9,42.2z M41.9,42.2"
				/>
		</g>
		<g>
			<path class="st4" d="M21.9,26.3v4.8c1.9,2.4,8,4.6,16.2,5c0.1,0,0.2,0,0.3,0c0.2,0,0.5,0,0.7,0c0.3,0,0.7,0,1,0c0.3,0,0.7,0,1,0
				c0.2,0,0.5,0,0.7,0c0.1,0,0.2,0,0.3,0c8.2-0.3,14.3-2.5,16.2-5v-4.8c-3.5,2.9-11,4.5-18.1,4.5C32.9,30.8,25.4,29.2,21.9,26.3
				L21.9,26.3z M21.9,26.3"/>
		</g>
		<g>
			<path class="st4" d="M58.1,17.4c-0.8-3.8-7.1-7.5-18-7.5c-10.9,0-17.2,3.7-18,7.4c-0.1,0.1-0.1,0.3-0.1,0.4v2
				c2.1,2.6,8.9,5,18.1,5c9.2,0,16.1-2.4,18.1-5v-2C58.2,17.6,58.1,17.5,58.1,17.4L58.1,17.4z M58.1,17.4"/>
		</g>
	</g>
</g>
</svg>
