<?xml version="1.0" encoding="utf-8"?>
<!-- Generator: Adobe Illustrator 21.1.0, SVG Export Plug-In . SVG Version: 6.00 Build 0)  -->
<svg version="1.1" id="Layer_1" xmlns="http://www.w3.org/2000/svg" xmlns:xlink="http://www.w3.org/1999/xlink" x="0px" y="0px"
	 viewBox="0 0 80 80" style="enable-background:new 0 0 80 80;" xml:space="preserve">
<style type="text/css">
	.st0{fill:#666666;}
	.st1{fill:#F8F9F7;}
	.st2{fill:#E6E6E6;}
	.st3{fill:#1A1A1A;}
	.st4{fill:#F8F8F8;}
	.st5{fill:none;stroke:#F8F8F8;stroke-width:2;stroke-miterlimit:10;}
	.st6{fill:none;stroke:#F8F9F7;stroke-miterlimit:10;}
	.st7{fill:#F4B322;}
	.st8{fill:#70B548;}
	.st9{fill:#E84343;}
	.st10{fill:#F46219;}
	.st11{fill:#A86B42;}
	.st12{fill:#D76AEA;}
	.st13{fill:#5095F9;}
	.st14{fill:#063163;}
	.st15{fill:#B2A938;}
	.st16{fill:#494318;}
	.st17{fill:#600E87;}
</style>
<g>
	<path class="st8" d="M75,80H5c-2.8,0-5-2.3-5-5V5c0-2.8,2.3-5,5-5h70c2.8,0,5,2.3,5,5v70C80,77.8,77.8,80,75,80z"/>
</g>
<g>
	<circle class="st1" cx="40.6" cy="30.1" r="6.1"/>
</g>
<g>
	<g>
		<path class="st1" d="M28.4,63.5l-1.8,5.2c-0.2,0.5-0.5,0.9-0.8,1.1c-0.3,0.2-0.7,0.3-1.1,0.3s-0.8-0.1-1.1-0.3
			c-0.3-0.2-0.6-0.5-0.7-1l-2.2-6.4c0-0.2,0-0.3,0-0.4s0.2-0.2,0.3-0.2h1.2l2.2,6.4c0,0.1,0,0.1,0.1,0.2c0.1,0,0.1,0.1,0.2,0.1
			s0.1,0,0.2-0.1c0.1,0,0.1-0.1,0.1-0.2l1.6-4.7c0-0.2,0.1-0.3,0.1-0.5c0.1-0.2,0.1-0.4,0.3-0.5c0.1-0.2,0.2-0.3,0.4-0.4
			c0.1-0.1,0.3-0.2,0.5-0.2h1.3c0,0,0,0.1-0.1,0.1S29.1,62,29,62.2c-0.1,0.1-0.2,0.3-0.3,0.5C28.6,62.9,28.5,63.1,28.4,63.5z"/>
	</g>
	<g>
		<path class="st1" d="M35.7,63.6h2.3c0.7,0,1.2,0.2,1.5,0.5c0.3,0.3,0.5,0.7,0.5,1.3v2.6c0,0.3-0.1,0.5-0.2,0.8
			c-0.1,0.3-0.3,0.5-0.5,0.7c-0.2,0.2-0.4,0.4-0.7,0.5S38.1,70,37.9,70h-3.8c-0.3,0-0.6-0.1-0.8-0.2s-0.5-0.3-0.7-0.5
			c-0.2-0.2-0.3-0.5-0.4-0.8C32,68.3,32,68,32,67.7V61c0-0.3,0.1-0.5,0.2-0.8c0.1-0.3,0.3-0.5,0.5-0.7c0.2-0.2,0.4-0.4,0.7-0.5
			s0.5-0.2,0.8-0.2h3.8c0.5,0,1-0.1,1.5-0.3V60c0,0.1-0.1,0.2-0.2,0.3c-0.1,0.1-0.3,0.1-0.4,0.2c-0.2,0-0.3,0.1-0.5,0.1
			c-0.2,0-0.3,0-0.4,0h-3.5c-0.2,0-0.4,0.1-0.5,0.2c-0.2,0.2-0.2,0.3-0.2,0.5v6.2c0,0.3,0.1,0.5,0.2,0.6c0.2,0.2,0.3,0.2,0.5,0.2h3
			c0.3,0,0.5-0.1,0.7-0.3s0.3-0.4,0.3-0.6v-1.6c0-0.2-0.1-0.3-0.2-0.5c-0.1-0.2-0.3-0.2-0.5-0.2h-1.5c-0.2,0-0.3-0.1-0.4-0.2
			s-0.1-0.3-0.1-0.4V63.6z"/>
	</g>
	<g>
		<path class="st1" d="M49.8,67.6c0,0.3,0.1,0.5,0.3,0.6c0.2,0.1,0.3,0.1,0.5,0.1h1.3c0.2,0,0.4-0.1,0.6-0.2
			c0.2-0.2,0.3-0.4,0.3-0.6v-7c0-0.1,0-0.3,0-0.5c0-0.2,0-0.4,0.1-0.5c0-0.2,0.1-0.4,0.2-0.5s0.3-0.2,0.4-0.2h1.3
			c-0.3,0.5-0.4,1-0.4,1.6v7.3c0,0.3-0.1,0.6-0.2,0.8c-0.1,0.3-0.3,0.5-0.5,0.7c-0.2,0.2-0.4,0.4-0.7,0.5S52.4,70,52.1,70h-2
			c-0.2,0-0.4,0-0.6-0.1c-0.2-0.1-0.4-0.2-0.5-0.3c-0.1,0.1-0.3,0.2-0.5,0.3C48.2,70,48,70,47.8,70h-2.1c-0.3,0-0.6-0.1-0.9-0.2
			s-0.5-0.3-0.7-0.5c-0.2-0.2-0.4-0.4-0.5-0.7c-0.1-0.3-0.2-0.5-0.2-0.8v-8.4c0-0.2,0.1-0.3,0.2-0.4c0.1-0.1,0.3-0.1,0.4-0.1h1.1
			v8.6c0,0.2,0.1,0.4,0.2,0.6c0.2,0.2,0.3,0.2,0.5,0.2h1.3c0.2,0,0.4-0.1,0.6-0.2c0.2-0.2,0.2-0.4,0.2-0.6v-8.1c0-0.2,0-0.3,0.1-0.4
			c0.1-0.1,0.2-0.1,0.4-0.1h1.1V67.6z"/>
	</g>
</g>
<g>
	<circle class="st1" cx="40.6" cy="30.1" r="6.1"/>
</g>
<g>
	<g>
		<polygon class="st1" points="30.9,29.7 25.7,25.7 25.7,28.1 25.7,28.1 25.7,28.6 25.7,30.8 25.7,31.4 25.7,31.4 25.7,33.8 		"/>
	</g>
	<g>
		<polygon class="st1" points="11.7,29.7 16.8,25.7 16.8,28.1 16.8,28.1 16.8,28.6 16.8,30.8 16.8,31.4 16.8,31.4 16.8,33.8 		"/>
	</g>
	<g>
		<rect x="15.4" y="28.7" class="st1" width="11.1" height="2"/>
	</g>
</g>
<g>
	<g>
		<polygon class="st1" points="69,29.7 63.9,25.7 63.9,28.1 63.9,28.1 63.9,28.6 63.9,30.8 63.9,31.4 63.9,31.4 63.9,33.8 		"/>
	</g>
	<g>
		<polygon class="st1" points="49.8,29.7 55,25.7 55,28.1 55,28.1 55,28.6 55,30.8 55,31.4 55,31.4 55,33.8 		"/>
	</g>
	<g>
		<rect x="53.6" y="28.7" class="st1" width="11.1" height="2"/>
	</g>
</g>
</svg>
