<?xml version="1.0" encoding="utf-8"?>
<!-- Generator: Adobe Illustrator 21.1.0, SVG Export Plug-In . SVG Version: 6.00 Build 0)  -->
<svg version="1.1" id="Layer_1" xmlns="http://www.w3.org/2000/svg" xmlns:xlink="http://www.w3.org/1999/xlink" x="0px" y="0px"
	 viewBox="0 0 80.4 80.4" style="enable-background:new 0 0 80.4 80.4;" xml:space="preserve">
<style type="text/css">
	.st0{fill:#666666;}
	.st1{fill:#F8F9F7;}
	.st2{fill:#E6E6E6;}
	.st3{fill:#1A1A1A;}
	.st4{fill:#70B548;}
	.st5{fill:#F4B322;}
	.st6{fill:#E84343;}
	.st7{fill:#F46219;}
	.st8{fill:#A86B42;}
</style>
<g>
	<circle class="st6" cx="40.2" cy="40.2" r="40.2"/>
</g>
<g>
	<g>
		<rect x="17" y="39.5" class="st1" width="44.4" height="3"/>
	</g>
	<g>
		<g>
			<polygon class="st1" points="64.9,41 54.8,35 54.8,38.6 54.8,38.6 54.8,39.4 54.8,42.7 54.8,43.5 54.8,43.5 54.8,47.1 			"/>
		</g>
	</g>
</g>
<g>
	<g>
		<rect x="20.5" y="25" class="st1" width="44.4" height="3"/>
	</g>
	<g>
		<g>
			<polygon class="st1" points="17,26.5 27,20.5 27,24.1 27,24.1 27,24.9 27,28.2 27,29 27,29 27,32.6 			"/>
		</g>
	</g>
</g>
<g>
	<path class="st1" d="M39,61l-2.4,8c-0.2,0.5-0.4,0.9-0.8,1.1c-0.4,0.2-0.7,0.3-1.1,0.3c-0.4,0-0.8-0.1-1.1-0.3
		c-0.4-0.2-0.6-0.5-0.7-1L30,59.9c0-0.2,0-0.3,0-0.4c0.1-0.1,0.2-0.1,0.3-0.1h1.2l2.9,9.2c0,0.1,0,0.1,0.1,0.2
		c0.1,0,0.1,0.1,0.2,0.1c0.1,0,0.1,0,0.2-0.1c0.1,0,0.1-0.1,0.1-0.2l2.2-7.6c0-0.2,0.1-0.3,0.1-0.5c0.1-0.2,0.1-0.4,0.3-0.5
		c0.1-0.2,0.2-0.3,0.4-0.4c0.1-0.1,0.3-0.2,0.5-0.2h1.3c-0.2,0.1-0.3,0.2-0.4,0.4c-0.1,0.2-0.2,0.3-0.3,0.5
		C39.2,60.4,39.1,60.7,39,61z"/>
	<path class="st1" d="M45.2,68.8h2.7c0.5,0,1.1-0.1,1.6-0.3v1.3c0,0.2-0.1,0.3-0.2,0.4c-0.2,0.1-0.3,0.2-0.5,0.2
		c-0.2,0-0.4,0.1-0.6,0.1c-0.2,0-0.4,0-0.5,0h-2.9c-0.6,0-1.1-0.2-1.4-0.6c-0.4-0.4-0.6-0.8-0.6-1.4v-8.6c0-0.1,0-0.2,0.1-0.3
		c0.1-0.1,0.2-0.1,0.3-0.1h1.2V68c0,0.2,0.1,0.4,0.2,0.6C44.8,68.7,45,68.8,45.2,68.8z"/>
</g>
</svg>
