<?xml version="1.0" encoding="utf-8"?>
<!-- Generator: Adobe Illustrator 21.1.0, SVG Export Plug-In . SVG Version: 6.00 Build 0)  -->
<svg version="1.1" id="Layer_1" xmlns="http://www.w3.org/2000/svg" xmlns:xlink="http://www.w3.org/1999/xlink" x="0px" y="0px"
	 viewBox="0 0 80 80" style="enable-background:new 0 0 80 80;" xml:space="preserve">
<style type="text/css">
	.st0{fill:#666666;}
	.st1{fill:#F8F9F7;}
	.st2{fill:#E6E6E6;}
	.st3{fill:#1A1A1A;}
	.st4{fill:#F8F8F8;}
	.st5{fill:none;stroke:#F8F8F8;stroke-width:2;stroke-miterlimit:10;}
	.st6{fill:none;stroke:#F8F9F7;stroke-miterlimit:10;}
	.st7{fill:#F4B322;}
	.st8{fill:#70B548;}
	.st9{fill:#E84343;}
	.st10{fill:#F46219;}
	.st11{fill:#A86B42;}
	.st12{fill:#0943a0;}
	.st13{fill:#D76AEA;}
	.st14{fill:#2E74E5;}
	.st15{fill:#063163;}
	.st16{fill:#B2A938;}
	.st17{fill:#494318;}
</style>
<g>
	<path class="st9" d="M75,80H5c-2.8,0-5-2.3-5-5V5c0-2.8,2.3-5,5-5h70c2.8,0,5,2.3,5,5v70C80,77.8,77.8,80,75,80z"/>
</g>
<g>
	<path class="st1" d="M57.3,34.2H22.7V8.4h34.5V34.2z M24.7,32.2h30.5V10.4H24.7V32.2z"/>
</g>
<g>
	<path class="st1" d="M64.3,50.8H15.7v-12h48.5V50.8z M17.7,48.8h44.5v-8H17.7V48.8z"/>
</g>
<g>
	<circle class="st1" cx="40" cy="44.8" r="2.2"/>
</g>
<g>
	<g>
		<path class="st1" d="M34.9,60.2l-2.4,8c-0.2,0.5-0.4,0.9-0.8,1.1s-0.7,0.3-1.1,0.3c-0.4,0-0.8-0.1-1.1-0.3s-0.6-0.5-0.7-1L26,59.1
			c0-0.2,0-0.3,0-0.4s0.2-0.1,0.3-0.1h1.2l2.9,9.2c0,0.1,0,0.1,0.1,0.2s0.1,0.1,0.2,0.1c0.1,0,0.1,0,0.2-0.1s0.1-0.1,0.1-0.2
			l2.2-7.6c0-0.2,0.1-0.3,0.1-0.5s0.1-0.4,0.3-0.5s0.2-0.3,0.4-0.4c0.1-0.1,0.3-0.2,0.5-0.2h1.3c-0.2,0.1-0.3,0.2-0.4,0.4
			c-0.1,0.2-0.2,0.3-0.3,0.5S35,59.9,34.9,60.2z"/>
		<path class="st1" d="M43.5,66.3v-6.2c0-0.5,0.1-0.9,0.2-1.2c0.1-0.3,0.3-0.5,0.6-0.5h1.2c-0.2,0.5-0.4,1-0.4,1.6v8.7
			c0,0.3-0.1,0.5-0.2,0.6c-0.1,0.1-0.3,0.2-0.6,0.2h-0.9l-4.7-7.8V69c0,0.2,0,0.3-0.1,0.4c-0.1,0.1-0.2,0.1-0.4,0.1h-1.1V59.3
			c0-0.2,0.1-0.4,0.2-0.6s0.3-0.2,0.5-0.2h1L43.5,66.3z"/>
		<path class="st1" d="M49.2,69.1c0,0.1,0,0.2-0.1,0.4c-0.1,0.1-0.2,0.2-0.4,0.2h-1.2v-8.9c0-0.3,0.1-0.5,0.2-0.8s0.3-0.5,0.5-0.7
			c0.2-0.2,0.4-0.4,0.7-0.5c0.3-0.1,0.6-0.2,0.9-0.2h3.6c0.6,0,1.1-0.1,1.6-0.3v1.3c0,0.2-0.1,0.3-0.2,0.4s-0.3,0.1-0.5,0.2
			c-0.2,0.1-0.4,0.1-0.6,0.1s-0.3,0-0.4,0h-3.3c-0.2,0-0.4,0.1-0.5,0.2c-0.2,0.2-0.2,0.4-0.2,0.6v2.2h5.4v1.1c0,0.2,0,0.3-0.1,0.4
			c-0.1,0.1-0.2,0.1-0.4,0.1h-4.9V69.1z"/>
	</g>
</g>
</svg>
