<?xml version="1.0" encoding="utf-8"?>
<!-- Generator: Adobe Illustrator 25.2.3, SVG Export Plug-In . SVG Version: 6.00 Build 0)  -->
<svg version="1.1" id="레이어_1" xmlns="http://www.w3.org/2000/svg" xmlns:xlink="http://www.w3.org/1999/xlink" x="0px"
	 y="0px" viewBox="0 0 30 58" style="enable-background:new 0 0 30 58;" xml:space="preserve">
<style type="text/css">
	.st0{fill:#FFFFFF;}
</style>
<path class="st0" d="M5.1,28.6L29.4,3.7c0.2-0.2,0.4-0.4,0.5-0.7c0-0.3,0.1-0.6,0.1-0.9s-0.1-0.6-0.2-0.8c-0.1-0.3-0.3-0.5-0.5-0.7
	s-0.4-0.4-0.7-0.5C28.4,0,28.1,0,27.8,0c-0.3,0-0.6,0.1-0.8,0.2c-0.3,0.1-0.5,0.3-0.7,0.5L0.6,27.1C0.2,27.5,0,28,0,28.6
	s0.2,1.1,0.6,1.5l25.7,26.4c0.2,0.2,0.4,0.4,0.7,0.5c0.3,0.1,0.5,0.2,0.8,0.2s0.6,0,0.8-0.1c0.3-0.1,0.5-0.3,0.7-0.5
	s0.4-0.4,0.5-0.7s0.2-0.5,0.2-0.8s-0.1-0.6-0.2-0.8c-0.1-0.3-0.3-0.5-0.5-0.7L5.1,28.6L5.1,28.6z"/>
</svg>
