<svg width="16" height="12" viewBox="0 0 16 12" fill="none" xmlns="http://www.w3.org/2000/svg">
<path d="M15.5234 4.75C15.6282 4.75 15.7033 4.649 15.673 4.54866C15.6705 4.54075 15.6681 4.53278 15.6657 4.52481C15.6477 4.46513 15.6288 4.40278 15.6091 4.33719L14.6688 1.20259C14.453 0.483313 13.8035 0 13.0525 0H2.94751C2.19651 0 1.54695 0.483313 1.33114 1.20259L0.390827 4.33719C0.371139 4.40278 0.352264 4.46513 0.334202 4.52481C0.331796 4.53281 0.329389 4.54075 0.326983 4.54866C0.296639 4.64897 0.371764 4.75 0.476577 4.75H15.5234Z" fill="#CCCCCC"/>
<path fill-rule="evenodd" clip-rule="evenodd" d="M0.00034375 6.15391C0.00215625 6.06853 0.0713437 6 0.156719 6H15.8433C15.9287 6 15.9978 6.06853 15.9997 6.15391C15.9999 6.16506 16 6.17628 16 6.1875V9.8125C16 10.7445 15.2445 11.5 14.3125 11.5H1.6875C0.755531 11.5 0 10.7445 0 9.8125V6.1875C0 6.17628 0.000125 6.16506 0.00034375 6.15391ZM3.89999 10C4.72842 10 5.39999 9.32843 5.39999 8.5C5.39999 7.67157 4.72842 7 3.89999 7C3.07157 7 2.39999 7.67157 2.39999 8.5C2.39999 9.32843 3.07157 10 3.89999 10Z" fill="#CCCCCC"/>
</svg>
