<svg width="20" height="20" viewBox="0 0 20 20" fill="none" xmlns="http://www.w3.org/2000/svg">
<g clip-path="url(#clip0)">
<path fill-rule="evenodd" clip-rule="evenodd" d="M8.99999 0H1.99999C0.894975 0 0 0.895008 0 1.99998V18C0 19.105 0.894975 19.9999 1.99999 19.9999H18C19.105 19.9999 20 19.105 20 18V1.99998C20 0.895008 19.105 0 18 0H8.99999ZM16.9603 5.80023C17.4022 5.26988 17.3306 4.48168 16.8002 4.03972C16.2699 3.59777 15.4817 3.66942 15.0397 4.19977L8.416 12.1482L4.88388 8.61612C4.39573 8.12796 3.60427 8.12796 3.11612 8.61612C2.62796 9.10427 2.62796 9.89573 3.11612 10.3839L7.61612 14.8839C7.86445 15.1322 8.2058 15.2646 8.55664 15.2487C8.90748 15.2328 9.23544 15.07 9.46028 14.8002L16.9603 5.80023Z" fill="#F8CE69"/>
</g>
<defs>
<clipPath id="clip0">
<rect width="20" height="20" fill="white"/>
</clipPath>
</defs>
</svg>
