<svg width="20" height="20" viewBox="0 0 20 20" fill="none" xmlns="http://www.w3.org/2000/svg">
<g clip-path="url(#clip0)">
<path fill-rule="evenodd" clip-rule="evenodd" d="M8.99999 0H1.99999C0.894975 0 0 0.895008 0 1.99998V18C0 19.105 0.894975 19.9999 1.99999 19.9999H18C19.105 19.9999 20 19.105 20 18V1.99998C20 0.895008 19.105 0 18 0H8.99999ZM10.8289 3.3325C10.616 3.1196 10.3272 3 10.0262 3C9.72509 3 9.43634 3.1196 9.22345 3.3325C9.01056 3.54539 8.89095 3.83414 8.89095 4.13522V13.1261L5.90912 10.1443C5.69392 9.94377 5.40929 9.8346 5.11519 9.83979C4.82109 9.84498 4.54049 9.96412 4.3325 10.1721C4.12451 10.3801 4.00537 10.6607 4.00018 10.9548C3.99499 11.2489 4.10416 11.5335 4.30468 11.7487L9.22395 16.668C9.4368 16.8806 9.72534 17 10.0262 17C10.327 17 10.6155 16.8806 10.8284 16.668L15.7477 11.7487C15.9482 11.5335 16.0574 11.2489 16.0522 10.9548C16.047 10.6607 15.9278 10.3801 15.7198 10.1721C15.5118 9.96412 15.2312 9.84498 14.9371 9.83979C14.643 9.8346 14.3584 9.94377 14.1432 10.1443L11.1614 13.1261V4.13522C11.1614 3.83414 11.0418 3.54539 10.8289 3.3325Z" fill="#F25858"/>
</g>
<defs>
<clipPath id="clip0">
<rect width="20" height="20" fill="white"/>
</clipPath>
</defs>
</svg>
