<?xml version="1.0" encoding="utf-8"?>
<!-- Generator: Adobe Illustrator 21.1.0, SVG Export Plug-In . SVG Version: 6.00 Build 0)  -->
<svg version="1.1" id="Layer_1" xmlns="http://www.w3.org/2000/svg" xmlns:xlink="http://www.w3.org/1999/xlink" x="0px" y="0px"
	 viewBox="0 0 80 80" style="enable-background:new 0 0 80 80;" xml:space="preserve">
<style type="text/css">
	.st0{fill:#666666;}
	.st1{fill:#F8F9F7;}
	.st2{fill:#E6E6E6;}
	.st3{fill:#1A1A1A;}
	.st4{fill:#F8F8F8;}
	.st5{fill:none;stroke:#F8F8F8;stroke-width:2;stroke-miterlimit:10;}
	.st6{fill:none;stroke:#F8F9F7;stroke-miterlimit:10;}
	.st7{fill:#F4B322;}
	.st8{fill:#70B548;}
	.st9{fill:#E84343;}
	.st10{fill:#F46219;}
	.st11{fill:#A86B42;}
	.st12{fill:#600E87;}
	.st13{fill:#D76AEA;}
	.st14{fill:#2E74E5;}
	.st15{fill:#063163;}
	.st16{fill:#B2A938;}
	.st17{fill:#494318;}
</style>
<g>
	<g>
		<path class="st9" d="M75,80H5c-2.8,0-5-2.3-5-5V5c0-2.8,2.3-5,5-5h70c2.8,0,5,2.3,5,5v70C80,77.8,77.8,80,75,80z"/>
	</g>
	<g>
		<path class="st1" d="M32.5,60.5v9.1c0,0.1,0,0.2-0.1,0.3C32.3,70,32.2,70,32,70h-1.1v-4.8h-4.7v4.3c0,0.1,0,0.2-0.1,0.3
			C25.9,70,25.8,70,25.6,70h-1.1V59.4c0-0.1,0-0.2,0.1-0.3c0.1-0.1,0.2-0.1,0.3-0.1h1.2v4.6h4.7v-3.1c0-0.1,0-0.3,0-0.4
			s0-0.3,0.1-0.5c0-0.2,0.1-0.3,0.2-0.4c0.1-0.1,0.2-0.2,0.4-0.2h1.3C32.7,59.4,32.5,59.9,32.5,60.5z"/>
		<path class="st1" d="M37.7,61.4v1.3c0,0.2,0.1,0.4,0.2,0.6c0.2,0.2,0.4,0.2,0.6,0.2h3.3c0.3,0,0.6,0.1,0.9,0.2
			c0.3,0.1,0.5,0.3,0.7,0.5c0.2,0.2,0.4,0.5,0.5,0.7c0.1,0.3,0.2,0.5,0.2,0.8v2.1c0,0.3-0.1,0.6-0.2,0.8c-0.1,0.3-0.3,0.5-0.5,0.7
			c-0.2,0.2-0.4,0.4-0.7,0.5C42.5,70,42.2,70,41.9,70h-5.5v-1.1c0-0.2,0-0.3,0.1-0.4c0.1-0.1,0.2-0.1,0.4-0.1h4.7
			c0.2,0,0.4-0.1,0.6-0.2c0.2-0.2,0.3-0.4,0.3-0.6V66c0-0.2-0.1-0.4-0.3-0.6c-0.2-0.2-0.4-0.2-0.6-0.2h-3.4c-0.3,0-0.6-0.1-0.8-0.2
			c-0.3-0.1-0.5-0.3-0.7-0.5c-0.2-0.2-0.4-0.4-0.5-0.7c-0.1-0.3-0.1-0.6-0.1-0.9v-1.9c0-0.3,0-0.5,0.1-0.8c0.1-0.3,0.3-0.5,0.5-0.7
			c0.2-0.2,0.4-0.4,0.7-0.5c0.3-0.1,0.5-0.2,0.8-0.2h3.6c0.6,0,1.2-0.1,1.7-0.3v1.3c0,0.2-0.1,0.3-0.2,0.4c-0.1,0.1-0.3,0.1-0.5,0.2
			c-0.2,0-0.3,0.1-0.5,0.1c-0.2,0-0.4,0-0.5,0h-3.3c-0.2,0-0.4,0.1-0.6,0.2C37.8,61,37.7,61.2,37.7,61.4z"/>
		<path class="st1" d="M48.8,61.4v1.3c0,0.2,0.1,0.4,0.2,0.6c0.2,0.2,0.4,0.2,0.6,0.2h3.3c0.3,0,0.6,0.1,0.9,0.2
			c0.3,0.1,0.5,0.3,0.7,0.5c0.2,0.2,0.4,0.5,0.5,0.7c0.1,0.3,0.2,0.5,0.2,0.8v2.1c0,0.3-0.1,0.6-0.2,0.8c-0.1,0.3-0.3,0.5-0.5,0.7
			c-0.2,0.2-0.4,0.4-0.7,0.5C53.5,70,53.2,70,52.9,70h-5.5v-1.1c0-0.2,0-0.3,0.1-0.4c0.1-0.1,0.2-0.1,0.4-0.1h4.7
			c0.2,0,0.4-0.1,0.6-0.2c0.2-0.2,0.3-0.4,0.3-0.6V66c0-0.2-0.1-0.4-0.3-0.6c-0.2-0.2-0.4-0.2-0.6-0.2h-3.4c-0.3,0-0.6-0.1-0.8-0.2
			c-0.3-0.1-0.5-0.3-0.7-0.5c-0.2-0.2-0.4-0.4-0.5-0.7c-0.1-0.3-0.1-0.6-0.1-0.9v-1.9c0-0.3,0-0.5,0.1-0.8c0.1-0.3,0.3-0.5,0.5-0.7
			c0.2-0.2,0.4-0.4,0.7-0.5c0.3-0.1,0.5-0.2,0.8-0.2h3.6c0.6,0,1.2-0.1,1.7-0.3v1.3c0,0.2-0.1,0.3-0.2,0.4c-0.1,0.1-0.3,0.1-0.5,0.2
			c-0.2,0-0.3,0.1-0.5,0.1c-0.2,0-0.4,0-0.5,0h-3.3c-0.2,0-0.4,0.1-0.6,0.2C48.8,61,48.8,61.2,48.8,61.4z"/>
	</g>
	<g>
		<g>
			<path class="st4" d="M37,26.3c-4.6,0-8.2-5.4-8.2-9.9c0-4.5,3.7-8.2,8.2-8.2c4.5,0,8.2,3.7,8.2,8.2C45.2,20.9,41.5,26.3,37,26.3z
				 M37,10.2c-3.4,0-6.2,2.8-6.2,6.2c0,3.6,2.9,7.9,6.2,7.9c3.4,0,6.2-4.3,6.2-7.9C43.2,13,40.4,10.2,37,10.2z"/>
		</g>
		<g>
			<path class="st4" d="M37,50.4c-12.4,0-14.9-4.3-15.2-4.8l-0.1-0.2l0-1.2l0.6,0l-0.6,0c0-0.1,0-0.2,0-0.6l0-0.9
				c0.1-8.2,0.3-15.3,8-16.6l0.5-0.1l0.4,0.4c1.1,1.1,4.3,3.9,6.3,3.9c2,0,5.4-2.9,6.4-3.9l0.4-0.4l0.6,0.1c1.3,0.2,4.6,0.8,6.1,3.6
				l-1.8,0.9c-0.9-1.7-3.1-2.3-4.3-2.5c-1.2,1.1-4.7,4.1-7.4,4.1c-2.8,0-6.2-3-7.3-4.1c-5.4,1.2-5.7,5.9-5.9,14.6l0,0.9
				c0,0.2,0,0.4,0,0.6h0h0c0,0,0,0,0,0h0l0,0.6c0.5,0.7,3.4,3.5,13.3,3.5c3.4,0,6.3-0.3,8.7-1l0.6,1.9C43.7,50.1,40.6,50.4,37,50.4z
				"/>
		</g>
	</g>
	<g>
		<g>
			<path class="st4" d="M57.9,45.8c-0.3,0-0.6,0-0.9,0c-0.3,0-0.6,0-0.9,0c-2.4-0.1-4.3-0.5-5.7-1.1c-0.7-0.3-1.2-0.6-1.6-0.9l0,2.2
				c0.9,1.2,4.1,2.3,8.2,2.3c4.2,0,7.3-1.1,8.2-2.3l0-2.2c-0.4,0.4-1,0.7-1.7,0.9C62.2,45.3,60.3,45.7,57.9,45.8L57.9,45.8z
				 M57.9,45.8"/>
		</g>
		<g>
			<path class="st4" d="M48.9,38.6v2.2c0.9,1.1,3.6,2.1,7.3,2.2c0,0,0.1,0,0.1,0c0.1,0,0.2,0,0.3,0c0.1,0,0.3,0,0.5,0
				c0.2,0,0.3,0,0.5,0c0.1,0,0.2,0,0.3,0c0,0,0.1,0,0.1,0c3.7-0.1,6.5-1.2,7.3-2.2v-2.2c-1.6,1.3-5,2-8.2,2
				C53.8,40.6,50.5,39.9,48.9,38.6L48.9,38.6z M48.9,38.6"/>
		</g>
		<g>
			<path class="st4" d="M65.3,34.5c-0.4-1.7-3.2-3.4-8.2-3.4c-5,0-7.8,1.7-8.2,3.4c0,0.1,0,0.1,0,0.2v0.9c0.9,1.2,4.1,2.3,8.2,2.3
				c4.2,0,7.3-1.1,8.2-2.3v-0.9C65.3,34.6,65.3,34.6,65.3,34.5L65.3,34.5z M65.3,34.5"/>
		</g>
	</g>
</g>
</svg>
