<?xml version="1.0" encoding="utf-8"?>
<!-- Generator: Adobe Illustrator 21.1.0, SVG Export Plug-In . SVG Version: 6.00 Build 0)  -->
<svg version="1.1" id="Layer_1" xmlns="http://www.w3.org/2000/svg" xmlns:xlink="http://www.w3.org/1999/xlink" x="0px" y="0px"
	 viewBox="0 0 80 80" style="enable-background:new 0 0 80 80;" xml:space="preserve">
<style type="text/css">
	.st0{fill:#666666;}
	.st1{fill:#F8F9F7;}
	.st2{fill:#E6E6E6;}
	.st3{fill:#1A1A1A;}
	.st4{fill:#F8F8F8;}
	.st5{fill:none;stroke:#F8F8F8;stroke-width:2;stroke-miterlimit:10;}
	.st6{fill:none;stroke:#F8F9F7;stroke-miterlimit:10;}
	.st7{fill:#F4B322;}
	.st8{fill:#70B548;}
	.st9{fill:#E84343;}
	.st10{fill:#F46219;}
	.st11{fill:#A86B42;}
	.st12{fill:#600E87;}
	.st13{fill:#D76AEA;}
	.st14{fill:#2E74E5;}
	.st15{fill:#063163;}
	.st16{fill:#B2A938;}
	.st17{fill:#494318;}
</style>
<g>
	<g>
		<path class="st9" d="M75,80H5c-2.8,0-5-2.3-5-5V5c0-2.8,2.3-5,5-5h70c2.8,0,5,2.3,5,5v70C80,77.8,77.8,80,75,80z"/>
	</g>
	<g>
		<path class="st1" d="M21.2,70V59.4c0-0.1,0-0.2,0.1-0.3c0.1-0.1,0.2-0.1,0.4-0.1h1.1c0.1,0,0.2,0,0.3,0c0.1,0,0.1,0,0.1,0.1
			c0,0,0.1,0.1,0.1,0.1c0,0.1,0.1,0.1,0.1,0.1l2.6,4.6c0,0,0,0.1,0.1,0.1c0.1,0,0.1,0.1,0.2,0.1c0,0,0.1,0,0.1-0.1
			c0.1,0,0.1-0.1,0.1-0.1l2.6-4.4c0.1-0.2,0.3-0.3,0.4-0.4c0.2-0.1,0.4-0.2,0.6-0.2h1.2v10.6c0,0.1,0,0.2-0.1,0.3
			C31.3,70,31.2,70,31.1,70h-1.2v-8.3l-1.8,3c-0.2,0.3-0.4,0.6-0.7,0.8c-0.3,0.2-0.6,0.4-1,0.4c-0.4,0-0.7-0.1-1-0.3
			c-0.3-0.2-0.5-0.4-0.7-0.8l-1.9-3.3v8.1c0,0.1,0,0.2-0.1,0.3C22.7,70,22.5,70,22.4,70H21.2z"/>
		<path class="st1" d="M35.4,70V59.4c0-0.1,0-0.2,0.1-0.3c0.1-0.1,0.2-0.1,0.4-0.1h1.1c0.1,0,0.2,0,0.3,0c0.1,0,0.1,0,0.1,0.1
			c0,0,0.1,0.1,0.1,0.1c0,0.1,0.1,0.1,0.1,0.1l2.6,4.6c0,0,0,0.1,0.1,0.1c0.1,0,0.1,0.1,0.2,0.1c0,0,0.1,0,0.1-0.1
			c0.1,0,0.1-0.1,0.1-0.1l2.6-4.4c0.1-0.2,0.3-0.3,0.4-0.4c0.2-0.1,0.4-0.2,0.6-0.2h1.2v10.6c0,0.1,0,0.2-0.1,0.3
			C45.6,70,45.4,70,45.3,70h-1.2v-8.3l-1.8,3c-0.2,0.3-0.4,0.6-0.7,0.8c-0.3,0.2-0.6,0.4-1,0.4c-0.4,0-0.7-0.1-1-0.3
			c-0.3-0.2-0.5-0.4-0.7-0.8l-1.9-3.3v8.1c0,0.1,0,0.2-0.1,0.3C36.9,70,36.8,70,36.6,70H35.4z"/>
		<path class="st1" d="M52.1,60.6c-0.2,0-0.4,0.1-0.5,0.2c-0.2,0.2-0.2,0.4-0.2,0.6v2.2h5.4v1.1c0,0.2,0,0.3-0.1,0.4
			c-0.1,0.1-0.2,0.1-0.4,0.1h-4.9v2.3c0,0.2,0.1,0.4,0.2,0.6c0.2,0.2,0.3,0.2,0.5,0.2h5v1.1c0,0.2,0,0.3-0.1,0.4
			C56.8,70,56.7,70,56.6,70h-4.7c-0.3,0-0.6-0.1-0.9-0.2c-0.3-0.1-0.5-0.3-0.7-0.5c-0.2-0.2-0.4-0.4-0.5-0.7
			c-0.1-0.3-0.2-0.5-0.2-0.8v-6.7c0-0.3,0.1-0.5,0.2-0.8c0.1-0.3,0.3-0.5,0.5-0.7c0.2-0.2,0.4-0.4,0.7-0.5c0.3-0.1,0.6-0.2,0.9-0.2
			h3.6c0.6,0,1.1-0.1,1.6-0.3v1.3c0,0.2-0.1,0.3-0.2,0.4c-0.1,0.1-0.3,0.1-0.5,0.2c-0.2,0.1-0.4,0.1-0.6,0.1c-0.2,0-0.3,0-0.4,0
			H52.1z"/>
	</g>
	<g>
		<path class="st4" d="M59.8,39.5l-1.2-0.2c-0.2,0-0.4-0.2-0.5-0.5c-0.1-0.3-0.2-0.7-0.4-1c-0.1-0.2-0.1-0.5,0.1-0.7l0.7-1
			c0.2-0.2,0.1-0.6-0.1-0.8l-1.1-1.1c-0.2-0.2-0.5-0.2-0.8-0.1l-1,0.7c-0.2,0.1-0.5,0.2-0.7,0c-0.3-0.2-0.6-0.3-1-0.4
			c-0.2-0.1-0.4-0.3-0.4-0.5l-0.2-1.2c-0.1-0.3-0.3-0.5-0.6-0.5l-1.6,0c-0.3,0-0.5,0.2-0.6,0.5l-0.2,1.2c0,0.2-0.2,0.4-0.5,0.5
			c-0.3,0.1-0.7,0.2-1,0.4c-0.2,0.1-0.5,0.1-0.7-0.1l-1-0.7c-0.2-0.2-0.6-0.1-0.8,0.1l-0.6,0.6l-0.6,0.6c-0.2,0.2-0.2,0.5-0.1,0.8
			l0.7,1c0.1,0.2,0.2,0.5,0,0.7c-0.2,0.3-0.3,0.7-0.4,1c-0.1,0.2-0.3,0.4-0.5,0.5l-1.2,0.2c-0.3,0.1-0.5,0.3-0.5,0.6l0,1.6
			c0,0.3,0.2,0.5,0.5,0.6l1.2,0.2c0.2,0,0.4,0.2,0.5,0.5c0.1,0.3,0.2,0.7,0.4,1c0.1,0.2,0.1,0.5-0.1,0.7l-0.7,1
			c-0.2,0.2-0.1,0.6,0,0.8l0.6,0.6l0.6,0.6c0.2,0.2,0.5,0.2,0.8,0.1l1-0.7c0.2-0.1,0.5-0.2,0.7,0c0.3,0.2,0.6,0.3,1,0.4
			c0.2,0.1,0.4,0.3,0.4,0.5l0.2,1.2c0.1,0.3,0.3,0.5,0.6,0.5l1.6,0c0.3,0,0.5-0.2,0.6-0.5l0.2-1.2c0-0.2,0.2-0.4,0.5-0.5
			c0.3-0.1,0.7-0.2,1-0.4c0.2-0.1,0.5-0.1,0.7,0.1l1,0.7c0.2,0.2,0.6,0.1,0.8-0.1l0.6-0.6l0.6-0.6c0.2-0.2,0.2-0.5,0.1-0.8l-0.7-1
			c-0.1-0.2-0.2-0.5,0-0.7c0.2-0.3,0.3-0.6,0.4-0.9c0.1-0.2,0.3-0.4,0.5-0.4l1.2-0.2c0.3-0.1,0.5-0.3,0.5-0.6l0-1.6
			C60.3,39.8,60.1,39.5,59.8,39.5L59.8,39.5z M54.3,43.3c-1.4,1.4-3.6,1.4-5,0c-1.4-1.4-1.4-3.6,0-5c1.4-1.4,3.6-1.4,5,0
			C55.6,39.6,55.6,41.9,54.3,43.3L54.3,43.3z M54.3,43.3"/>
	</g>
	<g>
		<g>
			<polygon class="st4" points="43.3,50.4 19.8,50.4 19.8,8 46.6,8 46.7,28.2 44.7,28.3 44.6,10 21.8,10 21.8,48.4 43.3,48.4 			"/>
		</g>
		<g>
			<path class="st4" d="M41,37.6H25.5l-0.1-23.8h15.5L41,37.6z M27.5,35.6H39l-0.1-19.8H27.4L27.5,35.6z"/>
		</g>
		<g>
			<circle class="st4" cx="33.3" cy="42.3" r="2.3"/>
		</g>
	</g>
</g>
</svg>
