<svg xmlns="http://www.w3.org/2000/svg" width="80" height="80" viewBox="0 0 80 80">
  <g fill="none">
    <path fill="#F4B322" d="M75,80 L5,80 C2.2,80 0,77.7 0,75 L0,5 C0,2.2 2.3,0 5,0 L75,0 C77.8,0 80,2.3 80,5 L80,75 C80,77.8 77.8,80 75,80 Z"/>
    <path fill="#FFF" d="M25.75,65.8125 L25.75,69.625 C25.75,69.7500006 25.6979172,69.8645828 25.59375,69.96875 C25.4895828,70.0729172 25.3541675,70.125 25.1875,70.125 L24,70.125 L24,60.6875 C24,60.354165 24.0520828,60.0416681 24.15625,59.75 C24.2604172,59.4583319 24.4166656,59.2083344 24.625,59 C24.8333344,58.7916656 25.0833319,58.6250006 25.375,58.5 C25.6666681,58.3749994 25.979165,58.3125 26.3125,58.3125 L30.1875,58.3125 C30.5625019,58.3125 30.8958319,58.3749994 31.1875,58.5 C31.4791681,58.6250006 31.7083325,58.8124988 31.875,59.0625 C32.0833344,59.2708344 32.2499994,59.5208319 32.375,59.8125 C32.5000006,60.1041681 32.5625,60.3958319 32.5625,60.6875 L32.5625,69.625 C32.5625,69.7500006 32.5104172,69.8645828 32.40625,69.96875 C32.3020828,70.0729172 32.1666675,70.125 32,70.125 L30.8125,70.125 L30.8125,65.25 C30.7291662,65.3750006 30.5729178,65.4999994 30.34375,65.625 C30.1145822,65.7500006 29.7916687,65.8125 29.375,65.8125 L25.75,65.8125 Z M25.75,64.0625 L30.8125,64.0625 L30.8125,61.0625 C30.8125,60.7708319 30.7187509,60.5312509 30.53125,60.34375 C30.3437491,60.1562491 30.1041681,60.0625 29.8125,60.0625 L26.625,60.0625 C26.3749987,60.0625 26.1666675,60.1666656 26,60.375 C25.8333325,60.5833344 25.75,60.7708325 25.75,60.9375 L25.75,64.0625 Z M35,70.125 L35,58.8125 C35,58.6874994 35.0520828,58.5729172 35.15625,58.46875 C35.2604172,58.3645828 35.3958325,58.3125 35.5625,58.3125 L36.75,58.3125 C36.8750006,58.3125 36.9687497,58.3229166 37.03125,58.34375 C37.0937503,58.3645834 37.1458331,58.3958331 37.1875,58.4375 C37.2291669,58.4791669 37.2708331,58.5312497 37.3125,58.59375 C37.3541669,58.6562503 37.3958331,58.7083331 37.4375,58.75 L40.25,63.625 C40.25,63.6666669 40.2812497,63.7083331 40.34375,63.75 C40.4062503,63.7916669 40.4791662,63.8125 40.5625,63.8125 C40.6041669,63.8125 40.6562497,63.7916669 40.71875,63.75 C40.7812503,63.7083331 40.8333331,63.6666669 40.875,63.625 L43.6875,58.9375 C43.8125006,58.7708325 43.9687491,58.6250006 44.15625,58.5 C44.3437509,58.3749994 44.5624987,58.3125 44.8125,58.3125 L46.0625,58.3125 L46.0625,69.625 C46.0625,69.7500006 46.0104172,69.8645828 45.90625,69.96875 C45.8020828,70.0729172 45.6875006,70.125 45.5625,70.125 L44.25,70.125 L44.25,61.25 L42.375,64.4375 C42.1666656,64.770835 41.9062516,65.0624988 41.59375,65.3125 C41.2812484,65.5625012 40.9375019,65.6875 40.5625,65.6875 C40.1874981,65.6875 39.8437516,65.5833344 39.53125,65.375 C39.2187484,65.1666656 38.9791675,64.895835 38.8125,64.5625 L36.75,61 L36.75,69.625 C36.75,69.7500006 36.7083338,69.8645828 36.625,69.96875 C36.5416662,70.0729172 36.4166675,70.125 36.25,70.125 L35,70.125 Z M50.375,69.5625 C50.375,69.6875006 50.3229172,69.8124994 50.21875,69.9375 C50.1145828,70.0625006 49.9791675,70.125 49.8125,70.125 L48.5625,70.125 L48.5625,60.625 C48.5625,60.3333319 48.6249994,60.0416681 48.75,59.75 C48.8750006,59.4583319 49.0416656,59.2083344 49.25,59 C49.4583344,58.7916656 49.7083319,58.6250006 50,58.5 C50.2916681,58.3749994 50.604165,58.3125 50.9375,58.3125 L54.75,58.3125 C55.3750031,58.3125 55.8229153,58.2604172 56.09375,58.15625 L56.5,58 L56.5,59.375 C56.5,59.5416675 56.4375006,59.6666662 56.3125,59.75 C56.1874994,59.8333338 56.0208344,59.8958331 55.8125,59.9375 C55.6041656,60.0208337 55.4062509,60.0625 55.21875,60.0625 L51.1875,60.0625 C50.9791656,60.0625 50.7916675,60.1458325 50.625,60.3125 C50.4583325,60.4791675 50.375,60.6874988 50.375,60.9375 L50.375,63.25 L56.1875,63.25 L56.1875,64.4375 C56.1875,64.6041675 56.1354172,64.7395828 56.03125,64.84375 C55.9270828,64.9479172 55.7916675,65 55.625,65 L50.375,65 L50.375,69.5625 Z"/>
    <path fill="#F8F8F8" d="M59.8,39.5 L58.6,39.3 C58.4,39.3 58.2,39.1 58.1,38.8 C58,38.5 57.9,38.1 57.7,37.8 C57.6,37.6 57.6,37.3 57.8,37.1 L58.5,36.1 C58.7,35.9 58.6,35.5 58.4,35.3 L57.3,34.2 C57.1,34 56.8,34 56.5,34.1 L55.5,34.8 C55.3,34.9 55,35 54.8,34.8 C54.5,34.6 54.2,34.5 53.8,34.4 C53.6,34.3 53.4,34.1 53.4,33.9 L53.2,32.7 C53.1,32.4 52.9,32.2 52.6,32.2 L51,32.2 C50.7,32.2 50.5,32.4 50.4,32.7 L50.2,33.9 C50.2,34.1 50,34.3 49.7,34.4 C49.4,34.5 49,34.6 48.7,34.8 C48.5,34.9 48.2,34.9 48,34.7 L47,34 C46.8,33.8 46.4,33.9 46.2,34.1 L45.6,34.7 L45,35.3 C44.8,35.5 44.8,35.8 44.9,36.1 L45.6,37.1 C45.7,37.3 45.8,37.6 45.6,37.8 C45.4,38.1 45.3,38.5 45.2,38.8 C45.1,39 44.9,39.2 44.7,39.3 L43.5,39.5 C43.2,39.6 43,39.8 43,40.1 L43,41.7 C43,42 43.2,42.2 43.5,42.3 L44.7,42.5 C44.9,42.5 45.1,42.7 45.2,43 C45.3,43.3 45.4,43.7 45.6,44 C45.7,44.2 45.7,44.5 45.5,44.7 L44.8,45.7 C44.6,45.9 44.7,46.3 44.8,46.5 L45.4,47.1 L46,47.7 C46.2,47.9 46.5,47.9 46.8,47.8 L47.8,47.1 C48,47 48.3,46.9 48.5,47.1 C48.8,47.3 49.1,47.4 49.5,47.5 C49.7,47.6 49.9,47.8 49.9,48 L50.1,49.2 C50.2,49.5 50.4,49.7 50.7,49.7 L52.3,49.7 C52.6,49.7 52.8,49.5 52.9,49.2 L53.1,48 C53.1,47.8 53.3,47.6 53.6,47.5 C53.9,47.4 54.3,47.3 54.6,47.1 C54.8,47 55.1,47 55.3,47.2 L56.3,47.9 C56.5,48.1 56.9,48 57.1,47.8 L57.7,47.2 L58.3,46.6 C58.5,46.4 58.5,46.1 58.4,45.8 L57.7,44.8 C57.6,44.6 57.5,44.3 57.7,44.1 C57.9,43.8 58,43.5 58.1,43.2 C58.2,43 58.4,42.8 58.6,42.8 L59.8,42.6 C60.1,42.5 60.3,42.3 60.3,42 L60.3,40.4 C60.3,39.8 60.1,39.5 59.8,39.5 L59.8,39.5 Z M54.3,43.3 C52.9,44.7 50.7,44.7 49.3,43.3 C47.9,41.9 47.9,39.7 49.3,38.3 C50.7,36.9 52.9,36.9 54.3,38.3 C55.6,39.6 55.6,41.9 54.3,43.3 L54.3,43.3 Z"/>
    <g fill="#F8F8F8" transform="translate(19 8)">
      <polygon points="24.3 42.4 .8 42.4 .8 0 27.6 0 27.7 20.3 25.7 20.3 25.6 2 2.8 2 2.8 40.4 24.3 40.4"/>
      <path d="M22,29.6 L6.5,29.6 L6.4,5.8 L21.9,5.8 L22,29.6 Z M8.5,27.6 L20,27.6 L19.9,7.8 L8.4,7.8 L8.5,27.6 Z"/>
      <circle cx="14.3" cy="34.3" r="2.3"/>
    </g>
  </g>
</svg>
