<?xml version="1.0" encoding="utf-8"?>
<!-- Generator: Adobe Illustrator 25.2.3, SVG Export Plug-In . SVG Version: 6.00 Build 0)  -->
<svg version="1.1" id="레이어_1" xmlns="http://www.w3.org/2000/svg" xmlns:xlink="http://www.w3.org/1999/xlink" x="0px"
	 y="0px" viewBox="0 0 15 21" style="enable-background:new 0 0 15 21;" xml:space="preserve">
<style type="text/css">
	.st0{fill:#999999;}
</style>
<g>
	<g>
		<path class="st0" d="M13.89,8.71L2.8,1.11C2.29,0.76,1.77,0.58,1.34,0.58C0.51,0.58,0,1.24,0,2.36v16.41
			c0,1.11,0.51,1.78,1.34,1.78c0.43,0,0.94-0.19,1.45-0.54l11.1-7.59c0.71-0.49,1.11-1.15,1.11-1.85C15,9.85,14.6,9.2,13.89,8.71z"
			/>
	</g>
</g>
</svg>
