<svg xmlns="http://www.w3.org/2000/svg" width="80" height="80" viewBox="0 0 80 80">
  <g fill="none">
    <path fill="#A86B42" d="M75,80 L5,80 C2.2,80 0,77.7 0,75 L0,5 C0,2.2 2.3,0 5,0 L75,0 C77.8,0 80,2.3 80,5 L80,75 C80,77.8 77.8,80 75,80 Z"/>
    <path fill="#FFF" d="M28.25,63.6875 L28.25,64.375 C28.25,64.708335 28.1875006,65.0208319 28.0625,65.3125 C27.9374994,65.6041681 27.7708344,65.8541656 27.5625,66.0625 C27.3541656,66.3125012 27.1041681,66.4895828 26.8125,66.59375 C26.5208319,66.6979172 26.2291681,66.75 25.9375,66.75 L21.8125,66.75 L21.8125,67.5 C21.8125,67.7500012 21.8958325,67.9583325 22.0625,68.125 C22.2291675,68.2916675 22.4374987,68.375 22.6875,68.375 L26.1875,68.375 C26.8125031,68.375 27.2604153,68.3229172 27.53125,68.21875 L27.9375,68.0625 L27.9375,69.5 C27.9375,69.6250006 27.8645841,69.7395828 27.71875,69.84375 C27.5729159,69.9479172 27.4166675,70.0208331 27.25,70.0625 C27.0416656,70.1041669 26.8437509,70.125 26.65625,70.125 L22.375,70.125 C22.041665,70.125 21.7291681,70.0625006 21.4375,69.9375 C21.1458319,69.8124994 20.8958344,69.6458344 20.6875,69.4375 C20.4791656,69.2291656 20.3125006,68.9895847 20.1875,68.71875 C20.0624994,68.4479153 20,68.145835 20,67.8125 L20,63.6875 C20,63.354165 20.0624994,63.0520847 20.1875,62.78125 C20.3125006,62.5104153 20.4791656,62.2500012 20.6875,62 C20.8958344,61.8333325 21.1458319,61.6770841 21.4375,61.53125 C21.7291681,61.3854159 22.041665,61.3125 22.375,61.3125 L25.9375,61.3125 C26.2291681,61.3125 26.5208319,61.3854159 26.8125,61.53125 C27.1041681,61.6770841 27.3541656,61.8333325 27.5625,62 C27.7708344,62.2500012 27.9374994,62.5104153 28.0625,62.78125 C28.1875006,63.0520847 28.25,63.354165 28.25,63.6875 Z M26.5,64.0625 L26.5,63.9375 C26.5,63.7291656 26.4166675,63.5416675 26.25,63.375 C26.0833325,63.2083325 25.8750013,63.125 25.625,63.125 L22.6875,63.125 C22.4374987,63.125 22.2291675,63.2083325 22.0625,63.375 C21.8958325,63.5416675 21.8125,63.7291656 21.8125,63.9375 L21.8125,65 L25.625,65 C25.8750013,65 26.0833325,64.9062509 26.25,64.71875 C26.4166675,64.5312491 26.5,64.3125012 26.5,64.0625 Z M33.25,58.3125 L36.5,58.3125 C36.7916681,58.3125 37.0833319,58.3749994 37.375,58.5 C37.6666681,58.6250006 37.9166656,58.7916656 38.125,59 C38.3333344,59.2083344 38.4999994,59.4374988 38.625,59.6875 C38.7500006,59.9375012 38.8125,60.2083319 38.8125,60.5 L38.8125,63.5 C38.8125,64.1250031 38.6041687,64.6666644 38.1875,65.125 C37.7708313,65.5833356 37.22917,65.8125 36.5625,65.8125 L32.0625,65.8125 L32.0625,69.5625 C32.0625,69.7291675 32.0000006,69.8645828 31.875,69.96875 C31.7499994,70.0729172 31.6250006,70.125 31.5,70.125 L30.3125,70.125 L30.3125,58.3125 L31.4375,58.3125 C31.5625006,58.3125 31.6666662,58.3333331 31.75,58.375 C31.8333338,58.4166669 31.8958331,58.4791662 31.9375,58.5625 C32.1458344,58.4791662 32.3541656,58.4166669 32.5625,58.375 C32.7708344,58.3333331 32.9999988,58.3125 33.25,58.3125 Z M37.125,63.3125 L37.125,60.75 C37.125,60.5416656 37.0520841,60.3645841 36.90625,60.21875 C36.7604159,60.0729159 36.5625012,60 36.3125,60 L32.9375,60 C32.6874988,60 32.4791675,60.0937491 32.3125,60.28125 C32.1458325,60.4687509 32.0625,60.6874988 32.0625,60.9375 L32.0625,64.0625 L36.375,64.0625 C36.6250012,64.0625 36.8124994,64.0000006 36.9375,63.875 C37.0625006,63.7499994 37.125,63.5625012 37.125,63.3125 Z M43.3125,60.0625 C43.1041656,60.0625 42.9166675,60.1458325 42.75,60.3125 C42.5833325,60.4791675 42.5,60.6874988 42.5,60.9375 L42.5,67.5 C42.5,67.7500012 42.5833325,67.9583325 42.75,68.125 C42.9166675,68.2916675 43.1041656,68.375 43.3125,68.375 L48.625,68.375 L48.625,69.5625 C48.625,69.7291675 48.5729172,69.8645828 48.46875,69.96875 C48.3645828,70.0729172 48.2291675,70.125 48.0625,70.125 L43.0625,70.125 C42.729165,70.125 42.4166681,70.0625006 42.125,69.9375 C41.8333319,69.8124994 41.5833344,69.6458344 41.375,69.4375 C41.1666656,69.2291656 41.0000006,68.9895847 40.875,68.71875 C40.7499994,68.4479153 40.6875,68.145835 40.6875,67.8125 L40.6875,60.625 C40.6875,60.3333319 40.7499994,60.0416681 40.875,59.75 C41.0000006,59.4583319 41.1666656,59.2083344 41.375,59 C41.5833344,58.7916656 41.8333319,58.6250006 42.125,58.5 C42.4166681,58.3749994 42.729165,58.3125 43.0625,58.3125 L46.875,58.3125 C47.5000031,58.3125 47.9479153,58.2604172 48.21875,58.15625 L48.625,58 L48.625,59.375 C48.625,59.5416675 48.5625006,59.6666662 48.4375,59.75 C48.3124994,59.8333338 48.1458344,59.8958331 47.9375,59.9375 C47.7291656,60.0208338 47.5312509,60.0625 47.34375,60.0625 L43.3125,60.0625 Z M52.5625,69.5625 C52.5625,69.6875006 52.5104172,69.8124994 52.40625,69.9375 C52.3020828,70.0625006 52.1666675,70.125 52,70.125 L50.75,70.125 L50.75,60.625 C50.75,60.3333319 50.8124994,60.0416681 50.9375,59.75 C51.0625006,59.4583319 51.2291656,59.2083344 51.4375,59 C51.6458344,58.7916656 51.8958319,58.6250006 52.1875,58.5 C52.4791681,58.3749994 52.791665,58.3125 53.125,58.3125 L56.9375,58.3125 C57.5625031,58.3125 58.0104153,58.2604172 58.28125,58.15625 L58.6875,58 L58.6875,59.375 C58.6875,59.5416675 58.6250006,59.6666662 58.5,59.75 C58.3749994,59.8333338 58.2083344,59.8958331 58,59.9375 C57.7916656,60.0208338 57.5937509,60.0625 57.40625,60.0625 L53.375,60.0625 C53.1666656,60.0625 52.9791675,60.1458325 52.8125,60.3125 C52.6458325,60.4791675 52.5625,60.6874988 52.5625,60.9375 L52.5625,63.25 L58.375,63.25 L58.375,64.4375 C58.375,64.6041675 58.3229172,64.7395828 58.21875,64.84375 C58.1145828,64.9479172 57.9791675,65 57.8125,65 L52.5625,65 L52.5625,69.5625 Z"/>
    <g fill="#F8F8F8" transform="translate(21 8)">
      <polygon points="20.8 42.3 .1 42.3 .1 .2 20 .2 28.3 6.3 28.3 20.4 26.3 20.4 26.3 7.3 19.3 2.2 2.1 2.2 2.1 40.3 20.8 40.3"/>
      <polygon points="18.7 10.4 18 1.6 20 1.5 20.5 8 27.3 6.8 27.7 8.8"/>
      <rect width="11.9" height="2" x="7.4" y="15.7"/>
      <rect width="11.9" height="2" x="7.4" y="21.3"/>
      <rect width="11.9" height="2" x="7.4" y="27.2"/>
    </g>
    <path fill="#F8F8F8" d="M9.2 14.8C8.9 14.8 8.6 14.8 8.3 14.8 8 14.8 7.7 14.8 7.4 14.8 5 14.7 3.1 14.3 1.7 13.7 1 13.4.5 13.1.1 12.8L.1 15C1 16.2 4.2 17.3 8.3 17.3 12.5 17.3 15.6 16.2 16.5 15L16.5 12.8C16.1 13.2 15.5 13.5 14.8 13.7 13.5 14.3 11.6 14.7 9.2 14.8L9.2 14.8zM.1 7.6L.1 9.8C1 10.9 3.7 11.9 7.4 12 7.4 12 7.5 12 7.5 12 7.6 12 7.7 12 7.8 12 7.9 12 8.1 12 8.3 12 8.5 12 8.6 12 8.8 12 8.9 12 9 12 9.1 12 9.1 12 9.2 12 9.2 12 12.9 11.9 15.7 10.8 16.5 9.8L16.5 7.6C14.9 8.9 11.5 9.6 8.3 9.6 5.1 9.6 1.7 8.9.1 7.6L.1 7.6zM16.5 3.5C16.1 1.8 13.3.1 8.3.1 3.3.1.5 1.8.1 3.5.1 3.6.1 3.6.1 3.7L.1 4.6C1 5.8 4.2 6.9 8.3 6.9 12.5 6.9 15.6 5.8 16.5 4.6L16.5 3.7C16.6 3.6 16.6 3.6 16.5 3.5L16.5 3.5z" transform="translate(44 31)"/>
  </g>
</svg>
