<?xml version="1.0" encoding="utf-8"?>
<!-- Generator: Adobe Illustrator 21.1.0, SVG Export Plug-In . SVG Version: 6.00 Build 0)  -->
<svg version="1.1" id="Layer_1" xmlns="http://www.w3.org/2000/svg" xmlns:xlink="http://www.w3.org/1999/xlink" x="0px" y="0px"
	 viewBox="0 0 80 80" style="enable-background:new 0 0 80 80;" xml:space="preserve">
<style type="text/css">
	.st0{fill:#666666;}
	.st1{fill:#F8F9F7;}
	.st2{fill:#E6E6E6;}
	.st3{fill:#1A1A1A;}
	.st4{fill:#70B548;}
	.st5{fill:#F4B322;}
	.st6{fill:#E84343;}
	.st7{fill:#F46219;}
	.st8{fill:#A86B42;}
</style>
<g>
	<path class="st6" d="M75,80H5c-2.8,0-5-2.3-5-5V5c0-2.8,2.3-5,5-5h70c2.8,0,5,2.3,5,5v70C80,77.8,77.8,80,75,80z"/>
</g>
<g>
	<path class="st1" d="M22.1,63.6h2.3c0.7,0,1.2,0.2,1.5,0.5c0.3,0.3,0.5,0.7,0.5,1.3v2.6c0,0.3-0.1,0.5-0.2,0.8
		c-0.1,0.3-0.3,0.5-0.5,0.7c-0.2,0.2-0.4,0.4-0.7,0.5C24.7,70,24.5,70,24.2,70h-3.8c-0.3,0-0.6-0.1-0.8-0.2
		c-0.3-0.1-0.5-0.3-0.7-0.5c-0.2-0.2-0.3-0.5-0.4-0.8c-0.1-0.3-0.1-0.6-0.1-0.9V61c0-0.3,0.1-0.5,0.2-0.8c0.1-0.3,0.3-0.5,0.5-0.7
		c0.2-0.2,0.4-0.4,0.7-0.5c0.3-0.1,0.5-0.2,0.8-0.2h3.8c0.5,0,1-0.1,1.5-0.3V60c0,0.1-0.1,0.2-0.2,0.3c-0.1,0.1-0.3,0.1-0.4,0.2
		c-0.2,0-0.3,0.1-0.5,0.1c-0.2,0-0.3,0-0.4,0h-3.5c-0.2,0-0.4,0.1-0.5,0.2C20,61,20,61.1,20,61.3v6.2c0,0.3,0.1,0.5,0.2,0.6
		c0.2,0.2,0.3,0.2,0.5,0.2h3c0.3,0,0.5-0.1,0.7-0.3s0.3-0.4,0.3-0.6v-1.6c0-0.2-0.1-0.3-0.2-0.5c-0.1-0.2-0.3-0.2-0.5-0.2h-1.5
		c-0.2,0-0.3-0.1-0.4-0.2c-0.1-0.1-0.1-0.3-0.1-0.4V63.6z"/>
	<path class="st1" d="M32.1,61.8c0.6,0,1.1-0.1,1.6-0.2v1.3c0,0.2-0.1,0.3-0.2,0.4c-0.1,0.1-0.3,0.1-0.4,0.2c-0.2,0-0.4,0.1-0.6,0.1
		c-0.2,0-0.3,0-0.4,0h-1.4c-0.2,0-0.4,0.1-0.6,0.2c-0.2,0.2-0.2,0.4-0.2,0.6v5.2c0,0.2,0,0.3-0.1,0.4C29.7,70,29.5,70,29.4,70h-1.2
		v-8.6h1.2c0.1,0,0.2,0.1,0.4,0.2s0.2,0.2,0.2,0.4c0.1,0,0.3-0.1,0.5-0.1c0.2-0.1,0.4-0.1,0.6-0.1H32.1z"/>
	<path class="st1" d="M35,67.8V64c0-0.3,0.1-0.6,0.2-0.8c0.1-0.3,0.3-0.5,0.5-0.7c0.2-0.2,0.4-0.3,0.7-0.4c0.3-0.1,0.6-0.2,0.9-0.2
		h4.1c0.6,0,1.2-0.1,1.6-0.2v1.3c0,0.1,0,0.1,0,0.2c0,0.1,0,0.1-0.1,0.1c-0.1,0.1-0.3,0.1-0.5,0.2c-0.2,0.1-0.6,0.1-1,0.1h-3.8
		c-0.2,0-0.4,0.1-0.6,0.2c-0.2,0.2-0.2,0.4-0.2,0.6v3.3c0,0.2,0.1,0.4,0.2,0.6c0.2,0.2,0.4,0.2,0.6,0.2h2.5c0.2,0,0.4-0.1,0.6-0.2
		c0.2-0.2,0.2-0.4,0.2-0.6v-3.3c0-0.1,0-0.1,0-0.2c0-0.1,0-0.1-0.1-0.2h1.8v4c0,0.3-0.1,0.6-0.2,0.8c-0.1,0.3-0.3,0.5-0.5,0.7
		c-0.2,0.2-0.4,0.4-0.7,0.5C40.8,70,40.5,70,40.2,70h-3c-0.3,0-0.6-0.1-0.9-0.2c-0.3-0.1-0.5-0.3-0.7-0.5c-0.2-0.2-0.4-0.4-0.5-0.7
		C35,68.4,35,68.2,35,67.8z"/>
	<path class="st1" d="M50.4,67.6v-4.1c0-0.1,0-0.3,0-0.5c0-0.2,0-0.4,0.1-0.6c0.1-0.2,0.2-0.3,0.3-0.4c0.1-0.1,0.2-0.2,0.4-0.2h1.3
		c-0.3,0.5-0.4,1.1-0.4,1.7v4.4c0,0.3-0.1,0.6-0.2,0.8c-0.1,0.3-0.3,0.5-0.5,0.7c-0.2,0.2-0.4,0.4-0.7,0.5C50.4,70,50.2,70,49.9,70
		h-3c-0.3,0-0.6-0.1-0.9-0.2c-0.3-0.1-0.5-0.3-0.7-0.5c-0.2-0.2-0.4-0.4-0.5-0.7c-0.1-0.3-0.2-0.5-0.2-0.8v-5.5
		c0-0.2,0.1-0.3,0.2-0.4s0.3-0.2,0.4-0.2h1.1v5.8c0,0.2,0.1,0.4,0.2,0.6c0.2,0.2,0.4,0.2,0.6,0.2h2.4c0.2,0,0.4-0.1,0.6-0.2
		C50.3,68,50.4,67.8,50.4,67.6z"/>
	<path class="st1" d="M59.7,61.8c0.3,0,0.5,0.1,0.8,0.2c0.3,0.1,0.5,0.3,0.7,0.4c0.2,0.2,0.4,0.5,0.5,0.7c0.1,0.3,0.2,0.5,0.2,0.8
		v3.9c0,0.3-0.1,0.6-0.2,0.8c-0.1,0.3-0.3,0.5-0.5,0.7c-0.2,0.2-0.4,0.4-0.7,0.5C60.2,70,60,70,59.7,70h-3.6v2.8
		c0,0.1-0.1,0.2-0.2,0.4s-0.2,0.2-0.4,0.2h-1.2V61.8h1.1c0.1,0,0.2,0,0.3,0.1C55.9,61.9,56,62,56,62c0.2-0.1,0.4-0.1,0.6-0.2
		c0.2-0.1,0.4-0.1,0.6-0.1H59.7z M60.2,67.6v-3.3c0-0.2-0.1-0.4-0.2-0.6c-0.2-0.2-0.4-0.2-0.6-0.2h-2.4c-0.2,0-0.4,0.1-0.6,0.2
		c-0.2,0.2-0.2,0.4-0.2,0.6v4.1h3.2c0.2,0,0.4-0.1,0.6-0.2C60.1,68,60.2,67.8,60.2,67.6z"/>
</g>
<g>
	<path class="st1" d="M41,45.3c-9.2,0-16.8-7.5-16.8-16.8S31.8,11.8,41,11.8s16.8,7.5,16.8,16.8S50.3,45.3,41,45.3z M41,13.8
		c-8.1,0-14.8,6.6-14.8,14.8c0,8.1,6.6,14.8,14.8,14.8c8.1,0,14.8-6.6,14.8-14.8C55.8,20.4,49.2,13.8,41,13.8z"/>
</g>
<g>
	<circle class="st1" cx="41" cy="12.8" r="4.5"/>
</g>
<g>
	<circle class="st1" cx="30.3" cy="40.6" r="4.5"/>
</g>
<g>
	<circle class="st1" cx="52.3" cy="40.6" r="4.5"/>
</g>
<g>
	<circle class="st1" cx="25.3" cy="23.9" r="4.5"/>
</g>
<g>
	<circle class="st1" cx="56.8" cy="23.9" r="4.5"/>
</g>
</svg>
