<?xml version="1.0" encoding="utf-8"?>
<!-- Generator: Adobe Illustrator 21.1.0, SVG Export Plug-In . SVG Version: 6.00 Build 0)  -->
<svg version="1.1" id="Layer_1" xmlns="http://www.w3.org/2000/svg" xmlns:xlink="http://www.w3.org/1999/xlink" x="0px" y="0px"
	 viewBox="0 0 80 80" style="enable-background:new 0 0 80 80;" xml:space="preserve">
<style type="text/css">
	.st0{fill:#666666;}
	.st1{fill:#F8F9F7;}
	.st2{fill:#E6E6E6;}
	.st3{fill:#1A1A1A;}
	.st4{fill:#F8F8F8;}
	.st5{fill:none;stroke:#F8F8F8;stroke-width:2;stroke-miterlimit:10;}
	.st6{fill:none;stroke:#F8F9F7;stroke-miterlimit:10;}
	.st7{fill:#F4B322;}
	.st8{fill:#70B548;}
	.st9{fill:#E84343;}
	.st10{fill:#F46219;}
	.st11{fill:#A86B42;}
	.st12{fill:#600E87;}
	.st13{fill:#D76AEA;}
	.st14{fill:#2E74E5;}
	.st15{fill:#063163;}
	.st16{fill:#B2A938;}
	.st17{fill:#494318;}
</style>
<g>
	<g>
		<path class="st0" d="M75,80H5c-2.8,0-5-2.3-5-5V5c0-2.8,2.3-5,5-5h70c2.8,0,5,2.3,5,5v70C80,77.8,77.8,80,75,80z"/>
	</g>
	<g>
		<path class="st1" d="M26.5,70V69c0-0.2,0-0.3,0.1-0.4c0.1-0.1,0.2-0.1,0.4-0.1H28v-8h-1.5v-1c0-0.2,0-0.3,0.1-0.4
			c0.1-0.1,0.2-0.1,0.4-0.1h2.5c0.6,0,1.1-0.1,1.6-0.3v1.2c0,0.2,0,0.3-0.1,0.4c-0.1,0.1-0.2,0.1-0.4,0.2c-0.2,0.1-0.3,0.1-0.5,0.1
			s-0.3,0-0.4,0v8h1.5v1.1c0,0.1-0.1,0.2-0.2,0.3C30.9,70,30.8,70,30.7,70H26.5z"/>
		<path class="st1" d="M37.3,58.9h3c0.3,0,0.5,0.1,0.8,0.2c0.3,0.1,0.5,0.3,0.7,0.5c0.2,0.2,0.4,0.4,0.5,0.6
			c0.1,0.2,0.2,0.5,0.2,0.8v2.8c0,0.6-0.2,1.1-0.6,1.5C41.5,65.8,41,66,40.4,66h-4.2v3.5c0,0.2-0.1,0.3-0.2,0.4
			C35.9,70,35.8,70,35.6,70h-1.1V58.9h1.1c0.1,0,0.2,0,0.3,0.1c0.1,0,0.1,0.1,0.2,0.2c0.2-0.1,0.4-0.1,0.6-0.2
			C36.8,59,37,58.9,37.3,58.9z M40.9,63.6v-2.4c0-0.2-0.1-0.4-0.2-0.5c-0.1-0.1-0.3-0.2-0.6-0.2H37c-0.2,0-0.4,0.1-0.6,0.3
			c-0.2,0.2-0.2,0.4-0.2,0.6v2.9h4c0.2,0,0.4-0.1,0.5-0.2C40.8,64,40.9,63.9,40.9,63.6z"/>
		<path class="st1" d="M47,61.4v1.3c0,0.2,0.1,0.4,0.2,0.6c0.2,0.2,0.4,0.2,0.6,0.2h3.3c0.3,0,0.6,0.1,0.9,0.2
			c0.3,0.1,0.5,0.3,0.7,0.5c0.2,0.2,0.4,0.5,0.5,0.7c0.1,0.3,0.2,0.5,0.2,0.8v2.1c0,0.3-0.1,0.6-0.2,0.8c-0.1,0.3-0.3,0.5-0.5,0.7
			c-0.2,0.2-0.4,0.4-0.7,0.5C51.7,70,51.5,70,51.1,70h-5.5v-1.1c0-0.2,0-0.3,0.1-0.4c0.1-0.1,0.2-0.1,0.4-0.1h4.7
			c0.2,0,0.4-0.1,0.6-0.2c0.2-0.2,0.3-0.4,0.3-0.6V66c0-0.2-0.1-0.4-0.3-0.6c-0.2-0.2-0.4-0.2-0.6-0.2h-3.4c-0.3,0-0.6-0.1-0.8-0.2
			c-0.3-0.1-0.5-0.3-0.7-0.5c-0.2-0.2-0.4-0.4-0.5-0.7c-0.1-0.3-0.1-0.6-0.1-0.9v-1.9c0-0.3,0-0.5,0.1-0.8c0.1-0.3,0.3-0.5,0.5-0.7
			c0.2-0.2,0.4-0.4,0.7-0.5c0.3-0.1,0.5-0.2,0.8-0.2h3.6c0.6,0,1.2-0.1,1.7-0.3v1.3c0,0.2-0.1,0.3-0.2,0.4c-0.1,0.1-0.3,0.1-0.5,0.2
			c-0.2,0-0.3,0.1-0.5,0.1c-0.2,0-0.4,0-0.5,0h-3.3c-0.2,0-0.4,0.1-0.6,0.2C47.1,61,47,61.2,47,61.4z"/>
	</g>
	<g>
		<g>
			<polygon class="st1" points="14.7,31.1 19.4,34.8 19.4,32.6 19.4,32.6 19.4,32.1 19.4,30.1 19.4,29.6 19.4,29.6 19.4,27.4 			"/>
		</g>
		<g>
			<polygon class="st1" points="20.5,49.6 18.9,48.3 32.5,32.1 18.9,32.1 18.9,30.1 36.8,30.1 			"/>
		</g>
	</g>
	<g>
		<path class="st4" d="M43.1,50.4l-0.5-0.3c-0.5-0.3-11.6-7.6-15.2-17.5c-1.7-4.6-1.6-16.9-1.6-17.4l0-0.7l17.3-6.1l17.3,6.1v0.7
			c0,0.5,0,12.8-1.6,17.4l0,0c-4,11.8-14.8,17.4-15.3,17.6L43.1,50.4z M27.8,15.9c0,2.7,0.1,12.4,1.5,16c3,8.3,11.7,14.7,13.9,16.2
			c2.1-1.2,10.6-6.5,13.8-16.2l0.9,0.3L57,31.9c1.3-3.7,1.4-13.4,1.5-16.1l-15.3-5.4L27.8,15.9z"/>
	</g>
</g>
</svg>
