<?xml version="1.0" encoding="utf-8"?>
<!-- Generator: Adobe Illustrator 21.1.0, SVG Export Plug-In . SVG Version: 6.00 Build 0)  -->
<svg version="1.1" id="Layer_1" xmlns="http://www.w3.org/2000/svg" xmlns:xlink="http://www.w3.org/1999/xlink" x="0px" y="0px"
	 viewBox="0 0 80 80" style="enable-background:new 0 0 80 80;" xml:space="preserve">
<style type="text/css">
	.st0{fill:#666666;}
	.st1{fill:#F8F9F7;}
	.st2{fill:#E6E6E6;}
	.st3{fill:#1A1A1A;}
	.st4{fill:#70B548;}
	.st5{fill:#F4B322;}
	.st6{fill:#E84343;}
	.st7{fill:#F46219;}
	.st8{fill:#A86B42;}
</style>
<g>
	<path class="st6" d="M75,80H5c-2.8,0-5-2.3-5-5V5c0-2.8,2.3-5,5-5h70c2.8,0,5,2.3,5,5v70C80,77.8,77.8,80,75,80z"/>
</g>
<g>
	<path class="st1" d="M19.9,66.7v-6.2c0-0.5,0.1-0.9,0.2-1.2c0.1-0.3,0.3-0.5,0.6-0.5h1.2c-0.2,0.5-0.4,1-0.4,1.6v8.7
		c0,0.3-0.1,0.5-0.2,0.6C21.2,69.9,21,70,20.8,70h-0.9l-4.7-7.8v7.2c0,0.2,0,0.3-0.1,0.4C14.9,70,14.8,70,14.6,70h-1.1V59.7
		c0-0.2,0.1-0.4,0.2-0.6c0.1-0.1,0.3-0.2,0.5-0.2h1L19.9,66.7z"/>
	<path class="st1" d="M31.4,64v0.6c0,0.3-0.1,0.6-0.2,0.9c-0.1,0.3-0.3,0.5-0.5,0.7c-0.2,0.2-0.4,0.4-0.7,0.5
		c-0.3,0.1-0.5,0.1-0.8,0.1h-3.9v0.7c0,0.2,0.1,0.4,0.2,0.6c0.2,0.2,0.4,0.2,0.6,0.2h3.3c0.6,0,1.1-0.1,1.6-0.3v1.3
		c0,0.1-0.1,0.2-0.2,0.3c-0.1,0.1-0.3,0.2-0.4,0.2C30.3,70,30.1,70,30,70s-0.3,0-0.4,0h-3.6c-0.3,0-0.6-0.1-0.9-0.2
		c-0.3-0.1-0.5-0.3-0.7-0.5c-0.2-0.2-0.4-0.4-0.5-0.7c-0.1-0.3-0.2-0.5-0.2-0.8V64c0-0.3,0.1-0.6,0.2-0.8c0.1-0.3,0.3-0.5,0.5-0.7
		c0.2-0.2,0.4-0.3,0.7-0.4c0.3-0.1,0.6-0.2,0.9-0.2h3.3c0.3,0,0.5,0.1,0.8,0.2c0.3,0.1,0.5,0.3,0.7,0.4c0.2,0.2,0.4,0.5,0.5,0.7
		C31.4,63.4,31.4,63.7,31.4,64z M29.8,64.3v-0.1c0-0.2-0.1-0.4-0.2-0.5c-0.2-0.2-0.4-0.2-0.6-0.2h-2.8c-0.2,0-0.4,0.1-0.6,0.2
		c-0.2,0.2-0.2,0.3-0.2,0.5v1H29c0.2,0,0.4-0.1,0.6-0.3C29.7,64.8,29.8,64.6,29.8,64.3z"/>
	<path class="st1" d="M34.9,64.2L34.9,64.2c0,0.3,0.1,0.5,0.2,0.6c0.2,0.2,0.4,0.2,0.6,0.2h2.7c0.3,0,0.5,0.1,0.8,0.2
		c0.3,0.1,0.5,0.3,0.7,0.5c0.2,0.2,0.4,0.4,0.5,0.7c0.1,0.3,0.2,0.6,0.2,0.9v0.5c0,0.3-0.1,0.6-0.2,0.8c-0.1,0.3-0.3,0.5-0.5,0.7
		c-0.2,0.2-0.4,0.4-0.7,0.5C39,70,38.7,70,38.4,70h-5.3v-1.1c0-0.2,0.1-0.3,0.2-0.4c0.1-0.1,0.3-0.1,0.4-0.1h4.3
		c0.2,0,0.4-0.1,0.6-0.2c0.2-0.2,0.2-0.4,0.2-0.6s-0.1-0.4-0.2-0.6c-0.2-0.2-0.4-0.2-0.6-0.2h-2.7c-0.3,0-0.6-0.1-0.9-0.2
		c-0.3-0.1-0.5-0.3-0.7-0.5c-0.2-0.2-0.4-0.4-0.5-0.7c-0.1-0.3-0.2-0.6-0.2-0.9V64c0-0.3,0.1-0.6,0.2-0.8c0.1-0.3,0.3-0.5,0.5-0.7
		c0.2-0.2,0.4-0.3,0.7-0.4c0.3-0.1,0.6-0.2,0.9-0.2h3c0.6,0,1.1-0.1,1.6-0.2v1.3c0,0.2-0.1,0.3-0.2,0.4c-0.1,0.1-0.3,0.1-0.4,0.2
		c-0.2,0-0.4,0.1-0.6,0.1c-0.2,0-0.3,0-0.4,0h-2.7c-0.2,0-0.4,0.1-0.6,0.2C35,63.8,34.9,64,34.9,64.2z"/>
	<path class="st1" d="M45.7,68.4h2.2v1.1c0,0.2-0.1,0.3-0.2,0.4C47.6,70,47.4,70,47.3,70h-1.9c-0.3,0-0.6,0-0.9-0.1
		c-0.3-0.1-0.5-0.2-0.7-0.4c-0.2-0.2-0.4-0.5-0.5-0.7c-0.1-0.3-0.2-0.5-0.2-0.8v-4.4h-1.6v-1.1c0-0.2,0-0.3,0.1-0.4
		c0.1-0.1,0.2-0.2,0.4-0.2h1.1v-2.3c0-0.1,0.1-0.2,0.2-0.4s0.2-0.2,0.4-0.2h1.2v2.8h1.3c0.6,0,1.1-0.1,1.6-0.2v1.3
		c0,0.2-0.1,0.3-0.2,0.4c-0.1,0.1-0.3,0.1-0.4,0.2c-0.2,0-0.4,0.1-0.6,0.1c-0.2,0-0.3,0-0.4,0h-1.3v4.1c0,0.2,0.1,0.4,0.2,0.6
		C45.3,68.3,45.4,68.4,45.7,68.4z"/>
	<path class="st1" d="M57.2,64v0.6c0,0.3-0.1,0.6-0.2,0.9c-0.1,0.3-0.3,0.5-0.5,0.7c-0.2,0.2-0.4,0.4-0.7,0.5
		c-0.3,0.1-0.5,0.1-0.8,0.1h-3.9v0.7c0,0.2,0.1,0.4,0.2,0.6c0.2,0.2,0.4,0.2,0.6,0.2h3.3c0.6,0,1.1-0.1,1.6-0.3v1.3
		c0,0.1-0.1,0.2-0.2,0.3c-0.1,0.1-0.3,0.2-0.4,0.2C56,70,55.8,70,55.7,70s-0.3,0-0.4,0h-3.6c-0.3,0-0.6-0.1-0.9-0.2
		c-0.3-0.1-0.5-0.3-0.7-0.5c-0.2-0.2-0.4-0.4-0.5-0.7c-0.1-0.3-0.2-0.5-0.2-0.8V64c0-0.3,0.1-0.6,0.2-0.8c0.1-0.3,0.3-0.5,0.5-0.7
		c0.2-0.2,0.4-0.3,0.7-0.4c0.3-0.1,0.6-0.2,0.9-0.2H55c0.3,0,0.5,0.1,0.8,0.2c0.3,0.1,0.5,0.3,0.7,0.4c0.2,0.2,0.4,0.5,0.5,0.7
		C57.1,63.4,57.2,63.7,57.2,64z M55.5,64.3v-0.1c0-0.2-0.1-0.4-0.2-0.5c-0.2-0.2-0.4-0.2-0.6-0.2H52c-0.2,0-0.4,0.1-0.6,0.2
		c-0.2,0.2-0.2,0.3-0.2,0.5v1h3.6c0.2,0,0.4-0.1,0.6-0.3C55.4,64.8,55.5,64.6,55.5,64.3z"/>
	<path class="st1" d="M65.5,58.5h1.3c-0.3,0.5-0.4,1-0.4,1.7v7.7c0,0.3-0.1,0.6-0.2,0.8c-0.1,0.3-0.3,0.5-0.5,0.7
		c-0.2,0.2-0.4,0.4-0.7,0.5C64.8,70,64.5,70,64.3,70h-3c-0.3,0-0.6-0.1-0.9-0.2c-0.3-0.1-0.5-0.3-0.7-0.5c-0.2-0.2-0.4-0.4-0.5-0.7
		C59,68.4,59,68.2,59,67.8V64c0-0.3,0.1-0.6,0.2-0.8c0.1-0.3,0.3-0.5,0.5-0.7c0.2-0.2,0.4-0.3,0.7-0.4c0.3-0.1,0.6-0.2,0.9-0.2h3.5
		v-1.6c0-0.2,0-0.3,0-0.5c0-0.2,0-0.4,0.1-0.6c0.1-0.2,0.2-0.3,0.3-0.4C65.2,58.5,65.4,58.5,65.5,58.5z M64.7,67.6v-4.1h-3.2
		c-0.2,0-0.4,0.1-0.6,0.2c-0.2,0.2-0.2,0.4-0.2,0.6v3.3c0,0.2,0.1,0.4,0.2,0.6c0.2,0.2,0.4,0.2,0.6,0.2h2.4c0.2,0,0.4-0.1,0.6-0.2
		C64.6,68,64.7,67.8,64.7,67.6z"/>
</g>
<g>
	<circle class="st1" cx="31" cy="15.6" r="4.5"/>
</g>
<g>
	<circle class="st1" cx="19.3" cy="40.3" r="4.5"/>
</g>
<g>
	<circle class="st1" cx="43.2" cy="40.3" r="4.5"/>
</g>
<g>
	<circle class="st1" cx="62.9" cy="40.3" r="4.5"/>
</g>
<g>
	<path class="st1" d="M45.2,42H17.6L31,15L45.2,42z M20.9,40h21.1L31,19.4L20.9,40z"/>
</g>
<g>
	<rect x="43.2" y="39.3" class="st1" width="19.7" height="2"/>
</g>
</svg>
