<?xml version="1.0" encoding="utf-8"?>
<!-- Generator: Adobe Illustrator 21.1.0, SVG Export Plug-In . SVG Version: 6.00 Build 0)  -->
<svg version="1.1" id="Layer_1" xmlns="http://www.w3.org/2000/svg" xmlns:xlink="http://www.w3.org/1999/xlink" x="0px" y="0px"
	 viewBox="0 0 80 80" style="enable-background:new 0 0 80 80;" xml:space="preserve">
<style type="text/css">
	.st0{fill:#666666;}
	.st1{fill:#F8F9F7;}
	.st2{fill:#E6E6E6;}
	.st3{fill:#1A1A1A;}
	.st4{fill:#F8F8F8;}
	.st5{fill:none;stroke:#F8F8F8;stroke-width:2;stroke-miterlimit:10;}
	.st6{fill:none;stroke:#F8F9F7;stroke-miterlimit:10;}
	.st7{fill:#F4B322;}
	.st8{fill:#70B548;}
	.st9{fill:#E84343;}
	.st10{fill:#F46219;}
	.st11{fill:#A86B42;}
	.st12{fill:#D76AEA;}
	.st13{fill:#5095F9;}
	.st14{fill:#063163;}
	.st15{fill:#B2A938;}
	.st16{fill:#494318;}
	.st17{fill:#600E87;}
</style>
<g>
	<g>
		<path class="st0" d="M75.5,80.5h-70c-2.8,0-5-2.3-5-5v-70c0-2.8,2.3-5,5-5h70c2.8,0,5,2.3,5,5v70C80.5,78.2,78.3,80.5,75.5,80.5z"
			/>
	</g>
	<g>
		<path class="st1" d="M18,61.9v1.3c0,0.2,0.1,0.4,0.2,0.6c0.2,0.2,0.4,0.2,0.6,0.2h3.3c0.3,0,0.6,0.1,0.9,0.2s0.5,0.3,0.7,0.5
			c0.2,0.2,0.4,0.5,0.5,0.7c0.1,0.3,0.2,0.5,0.2,0.8v2.1c0,0.3-0.1,0.6-0.2,0.8c-0.1,0.3-0.3,0.5-0.5,0.7c-0.2,0.2-0.4,0.4-0.7,0.5
			s-0.6,0.2-0.9,0.2h-5.5v-1.1c0-0.2,0-0.3,0.1-0.4c0.1-0.1,0.2-0.1,0.4-0.1h4.7c0.2,0,0.4-0.1,0.6-0.2c0.2-0.2,0.3-0.4,0.3-0.6
			v-1.5c0-0.2-0.1-0.4-0.3-0.6c-0.2-0.2-0.4-0.2-0.6-0.2h-3.4c-0.3,0-0.6-0.1-0.8-0.2S17.2,65.2,17,65c-0.2-0.2-0.4-0.4-0.5-0.7
			c-0.1-0.3-0.1-0.6-0.1-0.9v-1.9c0-0.3,0-0.5,0.1-0.8c0.1-0.3,0.3-0.5,0.5-0.7c0.2-0.2,0.4-0.4,0.7-0.5s0.5-0.2,0.8-0.2h3.6
			c0.6,0,1.2-0.1,1.7-0.3v1.3c0,0.2-0.1,0.3-0.2,0.4c-0.1,0.1-0.3,0.1-0.5,0.2c-0.2,0-0.3,0.1-0.5,0.1c-0.2,0-0.4,0-0.5,0h-3.3
			c-0.2,0-0.4,0.1-0.6,0.2C18,61.4,18,61.6,18,61.9z"/>
		<path class="st1" d="M32.6,68.1c0,0.3,0.1,0.5,0.3,0.6c0.2,0.1,0.3,0.1,0.5,0.1h1.3c0.2,0,0.4-0.1,0.6-0.2
			c0.2-0.2,0.3-0.4,0.3-0.6v-7c0-0.1,0-0.3,0-0.5c0-0.2,0-0.4,0.1-0.5c0-0.2,0.1-0.4,0.2-0.5s0.3-0.2,0.4-0.2h1.3
			c-0.3,0.5-0.4,1-0.4,1.6v7.3c0,0.3-0.1,0.6-0.2,0.8c-0.1,0.3-0.3,0.5-0.5,0.7c-0.2,0.2-0.4,0.4-0.7,0.5s-0.6,0.2-0.9,0.2h-2
			c-0.2,0-0.4,0-0.6-0.1c-0.2-0.1-0.4-0.2-0.5-0.3c-0.1,0.1-0.3,0.2-0.5,0.3c-0.2,0.1-0.4,0.1-0.6,0.1h-2.1c-0.3,0-0.6-0.1-0.9-0.2
			s-0.5-0.3-0.7-0.5c-0.2-0.2-0.4-0.4-0.5-0.7c-0.1-0.3-0.2-0.5-0.2-0.8v-8.4c0-0.2,0.1-0.3,0.2-0.4c0.1-0.1,0.3-0.1,0.4-0.1H28V68
			c0,0.2,0.1,0.4,0.2,0.6c0.2,0.2,0.3,0.2,0.5,0.2h1.3c0.2,0,0.4-0.1,0.6-0.2c0.2-0.2,0.2-0.4,0.2-0.6v-8.1c0-0.2,0-0.3,0.1-0.4
			c0.1-0.1,0.2-0.1,0.4-0.1h1.1V68.1z"/>
		<path class="st1" d="M38.9,70.5v-1.1c0-0.2,0-0.3,0.1-0.4c0.1-0.1,0.2-0.1,0.4-0.1h0.9v-8h-1.5v-1c0-0.2,0-0.3,0.1-0.4
			c0.1-0.1,0.2-0.1,0.4-0.1h2.5c0.6,0,1.1-0.1,1.6-0.3v1.2c0,0.2,0,0.3-0.1,0.4c-0.1,0.1-0.2,0.1-0.4,0.2c-0.2,0.1-0.3,0.1-0.5,0.1
			s-0.3,0-0.4,0v8h1.5V70c0,0.1-0.1,0.2-0.2,0.3c-0.1,0.1-0.2,0.1-0.4,0.1H38.9z"/>
		<path class="st1" d="M47.7,61c-0.2,0-0.4,0.1-0.5,0.2C47,61.4,47,61.6,47,61.9V68c0,0.2,0.1,0.4,0.2,0.6c0.2,0.2,0.3,0.2,0.5,0.2
			h5v1.1c0,0.2,0,0.3-0.1,0.4c-0.1,0.1-0.2,0.1-0.4,0.1h-4.7c-0.3,0-0.6-0.1-0.9-0.2s-0.5-0.3-0.7-0.5c-0.2-0.2-0.4-0.4-0.5-0.7
			c-0.1-0.3-0.2-0.5-0.2-0.8v-6.7c0-0.3,0.1-0.5,0.2-0.8c0.1-0.3,0.3-0.5,0.5-0.7c0.2-0.2,0.4-0.4,0.7-0.5s0.6-0.2,0.9-0.2h3.6
			c0.6,0,1.1-0.1,1.6-0.3v1.3c0,0.2-0.1,0.3-0.2,0.4c-0.1,0.1-0.3,0.1-0.5,0.2C51.9,61,51.7,61,51.5,61s-0.3,0-0.4,0H47.7z"/>
		<path class="st1" d="M62.7,60.9V70c0,0.1,0,0.2-0.1,0.3c-0.1,0.1-0.2,0.1-0.4,0.1h-1.1v-4.8h-4.7V70c0,0.1,0,0.2-0.1,0.3
			c-0.1,0.1-0.2,0.1-0.4,0.1h-1.1V59.9c0-0.1,0-0.2,0.1-0.3c0.1-0.1,0.2-0.1,0.3-0.1h1.2V64h4.7v-3.1c0-0.1,0-0.3,0-0.4
			s0-0.3,0.1-0.5c0-0.2,0.1-0.3,0.2-0.4s0.2-0.2,0.4-0.2h1.3C62.9,59.8,62.7,60.3,62.7,60.9z"/>
	</g>
	<g>
		<g>
			<rect x="15.8" y="13" class="st1" width="44.4" height="3"/>
		</g>
		<g>
			<g>
				<polygon class="st1" points="63.7,14.5 53.7,8.4 53.7,12 53.7,12 53.7,12.8 53.7,16.1 53.7,16.9 53.7,16.9 53.7,20.5 				"/>
			</g>
		</g>
	</g>
	<g>
		<g>
			<rect x="15.8" y="42" class="st1" width="44.4" height="3"/>
		</g>
		<g>
			<g>
				<polygon class="st1" points="63.7,43.5 53.7,37.4 53.7,41 53.7,41 53.7,41.8 53.7,45.1 53.7,45.9 53.7,45.9 53.7,49.5 				"/>
			</g>
		</g>
	</g>
	<g>
		<g>
			<rect x="19.4" y="27.5" class="st1" width="44.4" height="3"/>
		</g>
		<g>
			<g>
				<polygon class="st1" points="15.8,29 25.9,22.9 25.9,26.5 25.9,26.5 25.9,27.3 25.9,30.6 25.9,31.4 25.9,31.4 25.9,35 				"/>
			</g>
		</g>
	</g>
</g>
</svg>
