<svg xmlns="http://www.w3.org/2000/svg" width="80" height="80" viewBox="0 0 80 80">
  <g fill="none">
    <path fill="#70B548" d="M75,80 L5,80 C2.2,80 0,77.7 0,75 L0,5 C0,2.2 2.3,0 5,0 L75,0 C77.8,0 80,2.3 80,5 L80,75 C80,77.8 77.8,80 75,80 Z"/>
    <path fill="#FFF" d="M29.8125,67.3125 L29.8125,59.5625 C29.8125,59.4374994 29.8229166,59.2916675 29.84375,59.125 C29.8645834,58.9583325 29.8958331,58.7916675 29.9375,58.625 C29.9791669,58.4583325 30.0520828,58.3125006 30.15625,58.1875 C30.2604172,58.0624994 30.3958325,58 30.5625,58 L31.9375,58 L31.75,58.34375 C31.6249994,58.5729178 31.5625,58.9791637 31.5625,59.5625 L31.5625,67.6875 C31.5625,68.3125031 31.3541687,68.8229147 30.9375,69.21875 C30.5208313,69.6145853 30.0208363,69.8125 29.4375,69.8125 L25.25,69.8125 C24.916665,69.8125 24.6145847,69.7500006 24.34375,69.625 C24.0729153,69.4999994 23.8333344,69.3333344 23.625,69.125 C23.4166656,68.9166656 23.2604172,68.6770847 23.15625,68.40625 C23.0520828,68.1354153 23,67.8541681 23,67.5625 L23,58.5 C23,58.3749994 23.0520828,58.2604172 23.15625,58.15625 C23.2604172,58.0520828 23.3749994,58 23.5,58 L24.75,58 L24.75,67.25 C24.75,67.4583344 24.8333325,67.6458325 25,67.8125 C25.1666675,67.9791675 25.3541656,68.0625 25.5625,68.0625 L29,68.0625 C29.2083344,68.0625 29.3958325,67.9895841 29.5625,67.84375 C29.7291675,67.6979159 29.8125,67.5208344 29.8125,67.3125 Z M42.5625,67.5 C42.5625,67.833335 42.5000006,68.1354153 42.375,68.40625 C42.2499994,68.6770847 42.0625012,68.9166656 41.8125,69.125 C41.6041656,69.3333344 41.3541681,69.4999994 41.0625,69.625 C40.7708319,69.7500006 40.4791681,69.8125 40.1875,69.8125 L34,69.8125 L34,58 L40.1875,58 C40.4791681,58 40.7708319,58.0624994 41.0625,58.1875 C41.3541681,58.3125006 41.6041656,58.4791656 41.8125,58.6875 C42.0625012,58.8958344 42.2499994,59.1458319 42.375,59.4375 C42.5000006,59.7291681 42.5625,60.0208319 42.5625,60.3125 L42.5625,67.5 Z M39.875,68.0625 C40.1250012,68.0625 40.3437491,67.9791675 40.53125,67.8125 C40.7187509,67.6458325 40.8125,67.4375012 40.8125,67.1875 L40.8125,60.625 C40.8125,60.4166656 40.7187509,60.2187509 40.53125,60.03125 C40.3437491,59.8437491 40.1250012,59.75 39.875,59.75 L35.75,59.75 L35.75,68.0625 L39.875,68.0625 Z M45,69.8125 L45,58.5 C45,58.3749994 45.0520828,58.2604172 45.15625,58.15625 C45.2604172,58.0520828 45.3958325,58 45.5625,58 L46.75,58 C46.8750006,58 46.9687497,58.0104166 47.03125,58.03125 C47.0937503,58.0520834 47.1458331,58.0833331 47.1875,58.125 C47.2291669,58.1666669 47.2708331,58.2187497 47.3125,58.28125 C47.3541669,58.3437503 47.3958331,58.3958331 47.4375,58.4375 L50.25,63.3125 C50.25,63.3541669 50.2812497,63.3958331 50.34375,63.4375 C50.4062503,63.4791669 50.4791662,63.5 50.5625,63.5 C50.6041669,63.5 50.6562497,63.4791669 50.71875,63.4375 C50.7812503,63.3958331 50.8333331,63.3541669 50.875,63.3125 L53.6875,58.625 C53.8125006,58.4583325 53.9687491,58.3125006 54.15625,58.1875 C54.3437509,58.0624994 54.5624988,58 54.8125,58 L56.0625,58 L56.0625,69.3125 C56.0625,69.4375006 56.0104172,69.5520828 55.90625,69.65625 C55.8020828,69.7604172 55.6875006,69.8125 55.5625,69.8125 L54.25,69.8125 L54.25,60.9375 L52.375,64.125 C52.1666656,64.458335 51.9062516,64.7499988 51.59375,65 C51.2812484,65.2500012 50.9375019,65.375 50.5625,65.375 C50.1874981,65.375 49.8437516,65.2708344 49.53125,65.0625 C49.2187484,64.8541656 48.9791675,64.583335 48.8125,64.25 L46.75,60.6875 L46.75,69.3125 C46.75,69.4375006 46.7083338,69.5520828 46.625,69.65625 C46.5416662,69.7604172 46.4166675,69.8125 46.25,69.8125 L45,69.8125 Z"/>
    <g fill="#F8F8F8" transform="translate(21 8)">
      <path d="M16,18.3 C11.4,18.3 7.8,12.9 7.8,8.4 C7.8,3.9 11.5,0.2 16,0.2 C20.5,0.2 24.2,3.9 24.2,8.4 C24.2,12.9 20.5,18.3 16,18.3 Z M16,2.2 C12.6,2.2 9.8,5 9.8,8.4 C9.8,12 12.7,16.3 16,16.3 C19.4,16.3 22.2,12 22.2,8.4 C22.2,5 19.4,2.2 16,2.2 Z"/>
      <path d="M16,42.4 C3.6,42.4 1.1,38.1 0.8,37.6 L0.7,37.4 L0.7,36.2 L1.3,36.2 L0.7,36.2 C0.7,36.1 0.7,36 0.7,35.6 L0.7,34.7 C0.8,26.5 1,19.4 8.7,18.1 L9.2,18 L9.6,18.4 C10.7,19.5 13.9,22.3 15.9,22.3 C17.9,22.3 21.2,19.5 22.3,18.4 L22.7,18 L23.3,18.1 C24.6,18.3 27.9,18.9 29.4,21.7 L27.6,22.6 C26.7,20.9 24.5,20.3 23.3,20.1 C22.1,21.2 18.6,24.2 15.9,24.2 C13.1,24.2 9.7,21.2 8.6,20.1 C3.2,21.3 2.9,26 2.7,34.7 L2.7,35.6 C2.7,35.8 2.7,36 2.7,36.2 L2.7,36.2 L2.7,36.2 C2.7,36.2 2.7,36.2 2.7,36.2 L2.7,36.2 L2.7,36.8 C3.2,37.5 6.1,40.3 16,40.3 C19.4,40.3 22.3,40 24.7,39.3 L25.3,41.2 C22.7,42.1 19.6,42.4 16,42.4 Z"/>
    </g>
    <path fill="#F8F8F8" d="M9.9 14.8C9.6 14.8 9.3 14.8 9 14.8 8.7 14.8 8.4 14.8 8.1 14.8 5.7 14.7 3.8 14.3 2.4 13.7 1.7 13.4 1.2 13.1.8 12.8L.8 15C1.7 16.2 4.9 17.3 9 17.3 13.2 17.3 16.3 16.2 17.2 15L17.2 12.8C16.8 13.2 16.2 13.5 15.5 13.7 14.2 14.3 12.3 14.7 9.9 14.8L9.9 14.8zM.9 7.6L.9 9.8C1.8 10.9 4.5 11.9 8.2 12 8.2 12 8.3 12 8.3 12 8.4 12 8.5 12 8.6 12 8.7 12 8.9 12 9.1 12 9.3 12 9.4 12 9.6 12 9.7 12 9.8 12 9.9 12 9.9 12 10 12 10 12 13.7 11.9 16.5 10.8 17.3 9.8L17.3 7.6C15.7 8.9 12.3 9.6 9.1 9.6 5.8 9.6 2.5 8.9.9 7.6L.9 7.6zM17.3 3.5C16.9 1.8 14.1.1 9.1.1 4.1.1 1.3 1.8.9 3.5.9 3.6.9 3.6.9 3.7L.9 4.6C1.8 5.8 5 6.9 9.1 6.9 13.3 6.9 16.4 5.8 17.3 4.6L17.3 3.7C17.3 3.6 17.3 3.6 17.3 3.5L17.3 3.5z" transform="translate(48 31)"/>
  </g>
</svg>
