<svg width="12" height="14" viewBox="0 0 12 14" fill="none" xmlns="http://www.w3.org/2000/svg">
<path d="M6.10001 0.0991211C3.06747 0.0991211 0.600062 2.56653 0.600062 5.59563C0.580125 10.0265 5.89101 13.7005 6.10001 13.849C6.10001 13.849 11.6199 10.0265 11.6 5.59907C11.6 2.56653 9.13254 0.0991211 6.10001 0.0991211ZM6.10001 8.34904C4.58065 8.34904 3.35003 7.11843 3.35003 5.59907C3.35003 4.07971 4.58065 2.84909 6.10001 2.84909C7.61937 2.84909 8.84998 4.07971 8.84998 5.59907C8.84998 7.11843 7.61937 8.34904 6.10001 8.34904Z" fill="#CCCCCC"/>
</svg>
