<svg width="25" height="20" viewBox="0 0 25 20" fill="none" xmlns="http://www.w3.org/2000/svg">
<rect x="5.95239" y="5.95239" width="2.38095" height="2.38095" fill="white"/>
<rect x="5.95239" y="10.7143" width="2.38095" height="2.38095" fill="white"/>
<rect x="10.7144" y="5.95239" width="2.38095" height="2.38095" fill="white"/>
<path d="M22.619 2.38095V16.6667H2.38095V2.38095H22.619ZM21.4286 0H3.30688C1.19048 0 0 1.4881 0 3.30688V15.4762C0 17.5967 0.595238 19.0476 3.30688 19.0476H21.4286C24.4048 19.0476 25 17.5967 25 15.4762V3.30688C25 1.4881 23.545 0 21.4286 0Z" fill="white"/>
</svg>
