<?xml version="1.0" encoding="utf-8"?>
<svg xmlns="http://www.w3.org/2000/svg" xmlns:xlink="http://www.w3.org/1999/xlink" style="margin: auto; background: none; display: block; shape-rendering: auto;" width="200px" height="200px" viewBox="0 0 100 100" preserveAspectRatio="xMidYMid">
<rect x="18" y="30" width="14" height="40" fill="#d6dfeb">
  <animate attributeName="y" repeatCount="indefinite" dur="0.819672131147541s" calcMode="spline" keyTimes="0;0.5;1" values="14;30;30" keySplines="0 0.5 0.5 1;0 0.5 0.5 1" begin="-0.1639344262295082s"></animate>
  <animate attributeName="height" repeatCount="indefinite" dur="0.819672131147541s" calcMode="spline" keyTimes="0;0.5;1" values="72;40;40" keySplines="0 0.5 0.5 1;0 0.5 0.5 1" begin="-0.1639344262295082s"></animate>
</rect>
<rect x="43" y="30" width="14" height="40" fill="#b4c4df">
  <animate attributeName="y" repeatCount="indefinite" dur="0.819672131147541s" calcMode="spline" keyTimes="0;0.5;1" values="18;30;30" keySplines="0 0.5 0.5 1;0 0.5 0.5 1" begin="-0.0819672131147541s"></animate>
  <animate attributeName="height" repeatCount="indefinite" dur="0.819672131147541s" calcMode="spline" keyTimes="0;0.5;1" values="64;40;40" keySplines="0 0.5 0.5 1;0 0.5 0.5 1" begin="-0.0819672131147541s"></animate>
</rect>
<rect x="68" y="30" width="14" height="40" fill="#627dab">
  <animate attributeName="y" repeatCount="indefinite" dur="0.819672131147541s" calcMode="spline" keyTimes="0;0.5;1" values="18;30;30" keySplines="0 0.5 0.5 1;0 0.5 0.5 1"></animate>
  <animate attributeName="height" repeatCount="indefinite" dur="0.819672131147541s" calcMode="spline" keyTimes="0;0.5;1" values="64;40;40" keySplines="0 0.5 0.5 1;0 0.5 0.5 1"></animate>
</rect>
<!-- [ldio] generated by https://loading.io/ --></svg>