<?xml version="1.0" encoding="utf-8"?>
<svg class="icon" xmlns="http://www.w3.org/2000/svg" viewBox="0 0 60 60">
	<circle class="circle" cx="30" cy="30" r="30" fill="none"/>
	<path class="check" fill="none" d="m12.5 28l10.0 13 24-22.2"/>
	<style>
		.icon {
			width: 100px;
            height: 100px;
            display: block;
            border-radius: 50%;
            stroke: #fff;
            -webkit-animation: bounceIcon .17s ease-in-out;
            animation: bounceIcon .17s ease-in-out;
            -webkit-animation-delay: .25s;
            animation-delay: .25s;
		}

		.circle {
			stroke-dasharray: 190;
			stroke-dashoffset: 190;
			stroke-width: 9;
            stroke: #fff;
            fill: none;
            -webkit-animation: drawCircle .2s linear;
            animation: drawCircle .2s linear;
            -webkit-animation-fill-mode: forwards;
			animation-fill-mode: forwards;
		}

		.check {
			stroke-width: 7;
			stroke-dasharray: 120;
			stroke-dashoffset: 120;
			-webkit-animation: drawCheckmark 0.2s cubic-bezier(0.89, 0.09, 0.91, 0.67);
			animation: drawCheckmark 0.2s cubic-bezier(0.89, 0.09, 0.91, 0.67) forwards;
			-webkit-animation-delay: .2s;
			animation-delay: .2s;
		}

		@keyframes drawCircle {
			100% {
				stroke-dashoffset: 0;
			}
		}

		@keyframes drawCheckmark {
			100% {
				opacity: 1;
 				stroke-dashoffset: 0;
			}
		}

		@keyframes bounceIcon {
			0% {
				transform: none;
			}
			50% {
				transform: scale3D(0.9, 0.9, 1);
			}
			100% {
				transform: none;
			}
		}
	</style>
</svg>