<svg width="30" height="30" viewBox="0 0 30 30" fill="none" xmlns="http://www.w3.org/2000/svg">
<path d="M24.6551 20.3106C27.0547 20.3106 29 18.3653 29 15.9656C29 13.5659 27.0547 11.6206 24.6551 11.6206C22.2555 11.6206 20.3103 13.5659 20.3103 15.9656C20.3103 18.3653 22.2555 20.3106 24.6551 20.3106Z" fill="#999999"/>
<path d="M20.3103 29.25H20.5603V29V23.7701C20.5603 21.7681 19.8264 19.8444 18.5145 18.4232C17.2019 17.0013 15.4173 16.1982 13.5517 16.1982H7.75862C5.89307 16.1982 4.1084 17.0013 2.79585 18.4232C1.48393 19.8444 0.75 21.7681 0.75 23.7701V29V29.25H1H2.93103H3.18103V29V23.7701C3.18103 22.4432 3.66779 21.1742 4.5287 20.2416C5.389 19.3096 6.55132 18.7902 7.75862 18.7902H13.5517C14.759 18.7902 15.9213 19.3096 16.7816 20.2416C17.6426 21.1742 18.1293 22.4432 18.1293 23.7701V29V29.25H18.3793H20.3103Z" fill="#999999" stroke="#999999" stroke-width="0.5"/>
<path d="M10.6551 3.18103C11.5605 3.18103 12.4455 3.4495 13.1983 3.9525C13.9511 4.45549 14.5378 5.17041 14.8842 6.00685C15.2307 6.8433 15.3214 7.7637 15.1447 8.65166C14.9681 9.53963 14.5321 10.3553 13.8919 10.9955C13.2518 11.6356 12.4361 12.0716 11.5481 12.2482C10.6602 12.4249 9.73979 12.3342 8.90334 11.9878C8.0669 11.6413 7.35198 11.0546 6.84898 10.3018C6.34599 9.54901 6.07752 8.66398 6.07752 7.75862C6.07752 6.54457 6.5598 5.38024 7.41827 4.52178C8.27673 3.66331 9.44106 3.18103 10.6551 3.18103ZM10.6551 0.75C9.26893 0.75 7.91389 1.16105 6.76133 1.93117C5.60877 2.70128 4.71045 3.79588 4.17999 5.07654C3.64952 6.35719 3.51073 7.76639 3.78116 9.12593C4.05159 10.4855 4.71909 11.7343 5.69926 12.7145C6.67944 13.6946 7.92825 14.3621 9.28779 14.6326C10.6473 14.903 12.0565 14.7642 13.3372 14.2337C14.6178 13.7033 15.7124 12.805 16.4826 11.6524C17.2527 10.4998 17.6637 9.14479 17.6637 7.75862C17.6637 5.89982 16.9253 4.11715 15.6109 2.80278C14.2966 1.48841 12.5139 0.75 10.6551 0.75Z" fill="#999999" stroke="#999999" stroke-width="0.5"/>
</svg>
