<svg width="32" height="22" viewBox="0 0 32 22" fill="none" xmlns="http://www.w3.org/2000/svg">
<path d="M25 10C24.4444 4.40375 20.5625 1 16 1C11.6875 1 8.91 4.0125 8 7C4.25 7.375 1 9.72438 1 14C1 18.125 4.375 21 8.5 21H24.75C28.1875 21 31 19.285 31 15.5C31 11.7613 27.6875 10.14 25 10Z" stroke="white" stroke-width="2" stroke-linejoin="round"/>
</svg>
