<svg width="30" height="30" viewBox="0 0 30 30" fill="none" xmlns="http://www.w3.org/2000/svg">
<path d="M19.086 1.59182L19.0859 1.59184L14.6622 6.01666V5.96603C14.6622 5.20377 14.3594 4.47272 13.8204 3.93372C13.2814 3.39472 12.5503 3.09191 11.7881 3.09191H3.62412C2.86186 3.09191 2.13081 3.39472 1.59181 3.93372C1.05281 4.47272 0.75 5.20377 0.75 5.96603V26.959C0.75 28.2237 1.77629 29.25 3.04098 29.25H24.034C24.7962 29.25 25.5273 28.9472 26.0663 28.4082C26.6053 27.8692 26.9081 27.1381 26.9081 26.3759V18.2073C26.9081 17.445 26.6053 16.714 26.0663 16.175C25.5273 15.636 24.7962 15.3332 24.034 15.3332H23.9891L28.4082 10.914C28.6751 10.6472 28.8868 10.3303 29.0312 9.98161C29.1757 9.6329 29.25 9.25916 29.25 8.88172C29.25 8.50428 29.1757 8.13054 29.0312 7.78184C28.8868 7.43313 28.6751 7.11629 28.4082 6.8494L23.1506 1.59182C22.8837 1.32493 22.5669 1.11322 22.2182 0.968783C21.8695 0.824343 21.4957 0.75 21.1183 0.75C20.7408 0.75 20.3671 0.824343 20.0184 0.968783C19.6697 1.11322 19.3528 1.32493 19.086 1.59182ZM14.6622 15.3332V11.7479L18.2475 15.3332H14.6622ZM12.4128 15.3332H2.99942V5.96603C2.99942 5.80035 3.06523 5.64145 3.18239 5.5243C3.29954 5.40714 3.45844 5.34132 3.62412 5.34132H11.7881C11.9537 5.34132 12.1126 5.40714 12.2298 5.5243C12.347 5.64145 12.4128 5.80035 12.4128 5.96603V15.3332ZM2.99942 17.5826H12.4128V27.0006H3.62412C3.45844 27.0006 3.29954 26.9348 3.18239 26.8176C3.06523 26.7005 2.99942 26.5416 2.99942 26.3759V17.5826ZM14.6622 27.0006V17.5826H24.034C24.1997 17.5826 24.3586 17.6484 24.4757 17.7655C24.5929 17.8827 24.6587 18.0416 24.6587 18.2073V26.3759C24.6587 26.5416 24.5929 26.7005 24.4757 26.8176C24.3586 26.9348 24.1997 27.0006 24.034 27.0006H14.6622Z" fill="#999999" stroke="#999999" stroke-width="0.5"/>
</svg>
