<svg width="30" height="30" viewBox="0 0 30 30" fill="none" xmlns="http://www.w3.org/2000/svg">
<path d="M14.9999 28C21.6478 28 27.037 22.8264 27.037 16.4445C27.037 10.0625 21.6478 4.88892 14.9999 4.88892C8.35206 4.88892 2.96289 10.0625 2.96289 16.4445C2.96289 22.8264 8.35206 28 14.9999 28Z" stroke="#999999" stroke-width="2.5" stroke-linecap="round" stroke-linejoin="round"/>
<path d="M15.4814 10.6667V16.4445H18.3703" stroke="#999999" stroke-width="2.5" stroke-linecap="round" stroke-linejoin="round"/>
<path d="M6.81482 2L2 5.85185" stroke="#999999" stroke-width="2.5" stroke-linecap="round" stroke-linejoin="round"/>
<path d="M23.1853 2L28.0001 5.85185" stroke="#999999" stroke-width="2.5" stroke-linecap="round" stroke-linejoin="round"/>
</svg>
